\begin{thebibliography}{}

\bibitem[{J. Sermersheim, Ed.}, 2006]{ldap}
{J. Sermersheim, Ed.} (2006).
\newblock Lightweight directory access protocol (ldap): The protocol.
\newblock \\ \url{https://www.rfc-editor.org/rfc/rfc4511.txt}.
\newblock \\ Consultado el 26 de noviembre del 2022.

\bibitem[{Oracle.com}, 2014]{ldap2}
{Oracle.com} (2014).
\newblock Directory services (ldap).

\bibitem[{Russel Sandberg}, 1985]{nfs}
{Russel Sandberg} (1985).
\newblock {\em Design and Implementation of the Sun Network Filesystem}.
\newblock \\ Consultado el 26 de noviembre del 2022.

\end{thebibliography}
