\relax 
\providecommand\hyper@newdestlabel[2]{}
\providecommand\HyperFirstAtBeginDocument{\AtBeginDocument}
\HyperFirstAtBeginDocument{\ifx\hyper@anchor\@undefined
\global\let\oldnewlabel\newlabel
\gdef\newlabel#1#2{\newlabelxx{#1}#2}
\gdef\newlabelxx#1#2#3#4#5#6{\oldnewlabel{#1}{{#2}{#3}}}
\AtEndDocument{\ifx\hyper@anchor\@undefined
\let\newlabel\oldnewlabel
\fi}
\fi}
\global\let\hyper@last\relax 
\gdef\HyperFirstAtBeginDocument#1{#1}
\providecommand\HyField@AuxAddToFields[1]{}
\providecommand\HyField@AuxAddToCoFields[2]{}
\providecommand\babel@aux[2]{}
\@nameuse{bbl@beforestart}
\catcode `"\active 
\catcode `<\active 
\catcode `>\active 
\@nameuse{es@quoting}
\abx@aux@refcontext{ynt/global//global/global}
\babel@aux{spanish}{}
\@writefile{toc}{\contentsline {section}{\numberline {1}Resumen}{2}{section.1}\protected@file@percent }
\@writefile{toc}{\contentsline {section}{\numberline {2}Introducción}{3}{section.2}\protected@file@percent }
\abx@aux@refcontext{ynt/apasortcite//global/global}
\abx@aux@cite{0}{waring1991asymmetrical}
\abx@aux@segm{0}{0}{waring1991asymmetrical}
\abx@aux@refcontext{ynt/apasortcite//global/global}
\abx@aux@cite{0}{coomans2018introducing}
\abx@aux@segm{0}{0}{coomans2018introducing}
\abx@aux@refcontext{ynt/apasortcite//global/global}
\abx@aux@cite{0}{cisco-2021}
\abx@aux@segm{0}{0}{cisco-2021}
\@writefile{toc}{\contentsline {section}{\numberline {3}Marco teórico}{4}{section.3}\protected@file@percent }
\@writefile{toc}{\contentsline {subsection}{\numberline {3.1}ADSL}{4}{subsection.3.1}\protected@file@percent }
\abx@aux@page{1}{4}
\@writefile{toc}{\contentsline {subsection}{\numberline {3.2}HFC}{4}{subsection.3.2}\protected@file@percent }
\abx@aux@page{2}{4}
\@writefile{toc}{\contentsline {subsection}{\numberline {3.3}Cisco IOS}{4}{subsection.3.3}\protected@file@percent }
\abx@aux@page{3}{5}
\@writefile{toc}{\contentsline {section}{\numberline {4}Implementación}{6}{section.4}\protected@file@percent }
\@writefile{toc}{\contentsline {subsection}{\numberline {4.1}Asignación de segmentos públicos}{6}{subsection.4.1}\protected@file@percent }
\@writefile{toc}{\contentsline {subsection}{\numberline {4.2}Equipos utilizados}{6}{subsection.4.2}\protected@file@percent }
\@writefile{toc}{\contentsline {subsubsection}{\numberline {4.2.1}ISP ADSL}{6}{subsubsection.4.2.1}\protected@file@percent }
\@writefile{toc}{\contentsline {subsubsection}{\numberline {4.2.2}ISP HFC}{7}{subsubsection.4.2.2}\protected@file@percent }
\@writefile{toc}{\contentsline {subsubsection}{\numberline {4.2.3}Servicio de Google}{7}{subsubsection.4.2.3}\protected@file@percent }
\@writefile{toc}{\contentsline {subsection}{\numberline {4.3}Configuraciones en común}{7}{subsection.4.3}\protected@file@percent }
\@writefile{toc}{\contentsline {subsubsection}{\numberline {4.3.1}Configuración del servidor DHCP}{7}{subsubsection.4.3.1}\protected@file@percent }
\@writefile{lof}{\contentsline {figure}{\numberline {1}{\ignorespaces Configuración del servidor DHCP del ISP con HFC}}{8}{figure.1}\protected@file@percent }
\newlabel{fig:enter-label}{{1}{8}{Configuración del servidor DHCP del ISP con HFC}{figure.1}{}}
\@writefile{toc}{\contentsline {subsubsection}{\numberline {4.3.2}Configuración del servidor de DNS}{8}{subsubsection.4.3.2}\protected@file@percent }
\@writefile{lof}{\contentsline {figure}{\numberline {2}{\ignorespaces Configuración del servidor DNS del ISP con HFC}}{8}{figure.2}\protected@file@percent }
\newlabel{fig:enter-label}{{2}{8}{Configuración del servidor DNS del ISP con HFC}{figure.2}{}}
\@writefile{toc}{\contentsline {subsubsection}{\numberline {4.3.3}Configuración del servidor del HTTP}{8}{subsubsection.4.3.3}\protected@file@percent }
\@writefile{lof}{\contentsline {figure}{\numberline {3}{\ignorespaces Configuración del servidor HTTP del ISP con ADSL}}{9}{figure.3}\protected@file@percent }
\newlabel{fig:enter-label}{{3}{9}{Configuración del servidor HTTP del ISP con ADSL}{figure.3}{}}
\@writefile{lof}{\contentsline {figure}{\numberline {4}{\ignorespaces Archivo index.html del servidor HTTP del ISP con ADSL}}{9}{figure.4}\protected@file@percent }
\newlabel{fig:enter-label}{{4}{9}{Archivo index.html del servidor HTTP del ISP con ADSL}{figure.4}{}}
\@writefile{toc}{\contentsline {subsubsection}{\numberline {4.3.4}Configuracion de VLAN}{9}{subsubsection.4.3.4}\protected@file@percent }
\@writefile{lof}{\contentsline {figure}{\numberline {5}{\ignorespaces Configuración de las VLAN del switch del ISP con ADSL}}{10}{figure.5}\protected@file@percent }
\newlabel{fig:enter-label}{{5}{10}{Configuración de las VLAN del switch del ISP con ADSL}{figure.5}{}}
\@writefile{lof}{\contentsline {figure}{\numberline {6}{\ignorespaces Configuración de las interfaces del switch del ISP con ADSL}}{10}{figure.6}\protected@file@percent }
\newlabel{fig:enter-label}{{6}{10}{Configuración de las interfaces del switch del ISP con ADSL}{figure.6}{}}
\@writefile{toc}{\contentsline {subsection}{\numberline {4.4}Configuración de los bridge en los cloud}{11}{subsection.4.4}\protected@file@percent }
\@writefile{lof}{\contentsline {figure}{\numberline {7}{\ignorespaces Configuración de los puentes en el cloud del ISP con ADSL}}{11}{figure.7}\protected@file@percent }
\newlabel{fig:enter-label}{{7}{11}{Configuración de los puentes en el cloud del ISP con ADSL}{figure.7}{}}
\@writefile{toc}{\contentsline {subsubsection}{\numberline {4.4.1}Nodo de distribución ADSL}{11}{subsubsection.4.4.1}\protected@file@percent }
\@writefile{lof}{\contentsline {figure}{\numberline {8}{\ignorespaces Imagen del cloud correspondiente al ISP con ADSL}}{11}{figure.8}\protected@file@percent }
\newlabel{fig:enter-label}{{8}{11}{Imagen del cloud correspondiente al ISP con ADSL}{figure.8}{}}
\@writefile{toc}{\contentsline {subsubsection}{\numberline {4.4.2}Nodo de distribución HFC}{12}{subsubsection.4.4.2}\protected@file@percent }
\@writefile{lof}{\contentsline {figure}{\numberline {9}{\ignorespaces Imagen del cloud correspondiente al ISP con HFC}}{12}{figure.9}\protected@file@percent }
\newlabel{fig:enter-label}{{9}{12}{Imagen del cloud correspondiente al ISP con HFC}{figure.9}{}}
\@writefile{lof}{\contentsline {figure}{\numberline {10}{\ignorespaces Configuración de las interfaces FastEthernet en el cloud del ISP con HFC}}{12}{figure.10}\protected@file@percent }
\newlabel{fig:enter-label}{{10}{12}{Configuración de las interfaces FastEthernet en el cloud del ISP con HFC}{figure.10}{}}
\@writefile{toc}{\contentsline {subsection}{\numberline {4.5}Conexión con los suscriptores}{12}{subsection.4.5}\protected@file@percent }
\@writefile{lof}{\contentsline {figure}{\numberline {11}{\ignorespaces Conexión de los abonados con ADSL}}{13}{figure.11}\protected@file@percent }
\newlabel{fig:enter-label}{{11}{13}{Conexión de los abonados con ADSL}{figure.11}{}}
\@writefile{lof}{\contentsline {figure}{\numberline {12}{\ignorespaces Conexión de los abonado con HFC}}{13}{figure.12}\protected@file@percent }
\newlabel{fig:enter-label}{{12}{13}{Conexión de los abonado con HFC}{figure.12}{}}
\@writefile{toc}{\contentsline {subsection}{\numberline {4.6}Interconexión de los ISP}{13}{subsection.4.6}\protected@file@percent }
\@writefile{lof}{\contentsline {figure}{\numberline {13}{\ignorespaces Segmento de clase B que interconecta los ISP}}{14}{figure.13}\protected@file@percent }
\newlabel{fig:enter-label}{{13}{14}{Segmento de clase B que interconecta los ISP}{figure.13}{}}
\@writefile{toc}{\contentsline {subsection}{\numberline {4.7}Interconexión de los ISP con el servicio de Google}{14}{subsection.4.7}\protected@file@percent }
\@writefile{lof}{\contentsline {figure}{\numberline {14}{\ignorespaces Segmento de clase B que interconecta los ISP}}{15}{figure.14}\protected@file@percent }
\newlabel{fig:enter-label}{{14}{15}{Segmento de clase B que interconecta los ISP}{figure.14}{}}
\@writefile{toc}{\contentsline {section}{\numberline {5}Esquema completo}{15}{section.5}\protected@file@percent }
\@writefile{lof}{\contentsline {figure}{\numberline {15}{\ignorespaces Diagrama completo de la interconexión de los dos ISP y el servicio de Google}}{15}{figure.15}\protected@file@percent }
\newlabel{fig:enter-label}{{15}{15}{Diagrama completo de la interconexión de los dos ISP y el servicio de Google}{figure.15}{}}
\@writefile{toc}{\contentsline {section}{\numberline {6}Conclusiones}{16}{section.6}\protected@file@percent }
\abx@aux@page{4}{17}
\abx@aux@page{5}{17}
\abx@aux@page{6}{17}
\abx@aux@read@bbl@mdfivesum{EB37CEED29D91784A37A374D3E89E29E}
\abx@aux@defaultrefcontext{0}{waring1991asymmetrical}{ynt/global//global/global}
\abx@aux@defaultrefcontext{0}{coomans2018introducing}{ynt/global//global/global}
\abx@aux@defaultrefcontext{0}{cisco-2021}{ynt/global//global/global}
\gdef \@abspage@last{18}
