\relax 
\providecommand\hyper@newdestlabel[2]{}
\providecommand\HyperFirstAtBeginDocument{\AtBeginDocument}
\HyperFirstAtBeginDocument{\ifx\hyper@anchor\@undefined
\global\let\oldcontentsline\contentsline
\gdef\contentsline#1#2#3#4{\oldcontentsline{#1}{#2}{#3}}
\global\let\oldnewlabel\newlabel
\gdef\newlabel#1#2{\newlabelxx{#1}#2}
\gdef\newlabelxx#1#2#3#4#5#6{\oldnewlabel{#1}{{#2}{#3}}}
\AtEndDocument{\ifx\hyper@anchor\@undefined
\let\contentsline\oldcontentsline
\let\newlabel\oldnewlabel
\fi}
\fi}
\global\let\hyper@last\relax 
\gdef\HyperFirstAtBeginDocument#1{#1}
\providecommand\HyField@AuxAddToFields[1]{}
\providecommand\HyField@AuxAddToCoFields[2]{}
\providecommand\babel@aux[2]{}
\@nameuse{bbl@beforestart}
\catcode `"\active 
\catcode `<\active 
\catcode `>\active 
\@nameuse{es@quoting}
\providecommand \oddpage@label [2]{}
\babel@aux{spanish}{}
\citation{condicionhumana}
\citation{accion}
\citation{condicionhumana}
\@writefile{toc}{\contentsline {section}{\numberline {1}S\IeC {\'\i }ntesis de la condici\IeC {\'o}n humana}{1}{section.1}\protected@file@percent }
\@writefile{toc}{\contentsline {section}{\numberline {2}La acci\IeC {\'o}n dentro de la condici\IeC {\'o}n humana}{1}{section.2}\protected@file@percent }
\citation{superestimulo}
\citation{drs}
\@writefile{toc}{\contentsline {section}{\numberline {3}S\IeC {\'\i }ntesis cr\IeC {\'\i }tica}{2}{section.3}\protected@file@percent }
\bibstyle{apalike}
\bibdata{referencias}
\bibcite{condicionhumana}{Arendt, 1958}
\bibcite{superestimulo}{{Deirdre Barrett}, 2010}
\bibcite{drs}{{Jeff Orlowski, Vickie Curtis}, 2020}
\bibcite{accion}{{Vargas Bejarano; Julio C\IeC {\'e}sar}, 2009}
\gdef \@abspage@last{5}
