PWD /home/oscar/weas/u/IET1427/trabajoFinal
INPUT /usr/share/texmf-dist/web2c/texmf.cnf
INPUT /var/lib/texmf/web2c/pdftex/pdflatex.fmt
INPUT informe.tex
OUTPUT informe.log
INPUT /usr/share/texmf-dist/tex/latex/base/article.cls
INPUT /usr/share/texmf-dist/tex/latex/base/article.cls
INPUT /usr/share/texmf-dist/tex/latex/base/article.cls
INPUT /usr/share/texmf-dist/tex/latex/base/article.cls
INPUT /usr/share/texmf-dist/tex/latex/base/article.cls
INPUT /usr/share/texmf-dist/tex/latex/base/article.cls
INPUT /usr/share/texmf-dist/tex/latex/base/article.cls
INPUT /usr/share/texmf-dist/tex/latex/base/article.cls
INPUT /usr/share/texmf-dist/tex/latex/base/article.cls
INPUT /usr/share/texmf-dist/tex/latex/base/article.cls
INPUT /usr/share/texmf-dist/tex/latex/base/article.cls
INPUT /usr/share/texmf-dist/tex/latex/base/size12.clo
INPUT /usr/share/texmf-dist/tex/latex/base/size12.clo
INPUT /usr/share/texmf-dist/tex/latex/base/size12.clo
INPUT /usr/share/texmf-dist/tex/latex/base/size12.clo
INPUT /usr/share/texmf-dist/fonts/map/fontname/texfonts.map
INPUT /usr/share/texmf-dist/fonts/tfm/public/cm/cmr12.tfm
INPUT /usr/share/texmf-dist/tex/latex/tcolorbox/tcolorbox.sty
INPUT /usr/share/texmf-dist/tex/latex/tcolorbox/tcolorbox.sty
INPUT /usr/share/texmf-dist/tex/latex/tcolorbox/tcolorbox.sty
INPUT /usr/share/texmf-dist/tex/latex/tcolorbox/tcolorbox.sty
INPUT /usr/share/texmf-dist/tex/latex/tcolorbox/tcolorbox.sty
INPUT /usr/share/texmf-dist/tex/latex/tcolorbox/tcolorbox.sty
INPUT /usr/share/texmf-dist/tex/latex/tcolorbox/tcolorbox.sty
INPUT /usr/share/texmf-dist/tex/latex/tcolorbox/tcolorbox.sty
INPUT /usr/share/texmf-dist/tex/latex/tcolorbox/tcolorbox.sty
INPUT /usr/share/texmf-dist/tex/latex/tcolorbox/tcolorbox.sty
INPUT /usr/share/texmf-dist/tex/latex/tcolorbox/tcolorbox.sty
INPUT /usr/share/texmf-dist/tex/latex/pgf/basiclayer/pgf.sty
INPUT /usr/share/texmf-dist/tex/latex/pgf/basiclayer/pgf.sty
INPUT /usr/share/texmf-dist/tex/latex/pgf/basiclayer/pgf.sty
INPUT /usr/share/texmf-dist/tex/latex/pgf/basiclayer/pgf.sty
INPUT /usr/share/texmf-dist/tex/latex/pgf/basiclayer/pgf.sty
INPUT /usr/share/texmf-dist/tex/latex/pgf/basiclayer/pgf.sty
INPUT /usr/share/texmf-dist/tex/latex/pgf/basiclayer/pgf.sty
INPUT /usr/share/texmf-dist/tex/latex/pgf/basiclayer/pgf.sty
INPUT /usr/share/texmf-dist/tex/latex/pgf/basiclayer/pgf.sty
INPUT /usr/share/texmf-dist/tex/latex/pgf/basiclayer/pgf.sty
INPUT /usr/share/texmf-dist/tex/latex/pgf/basiclayer/pgf.sty
INPUT /usr/share/texmf-dist/tex/latex/pgf/utilities/pgfrcs.sty
INPUT /usr/share/texmf-dist/tex/latex/pgf/utilities/pgfrcs.sty
INPUT /usr/share/texmf-dist/tex/latex/pgf/utilities/pgfrcs.sty
INPUT /usr/share/texmf-dist/tex/latex/pgf/utilities/pgfrcs.sty
INPUT /usr/share/texmf-dist/tex/latex/pgf/utilities/pgfrcs.sty
INPUT /usr/share/texmf-dist/tex/latex/pgf/utilities/pgfrcs.sty
INPUT /usr/share/texmf-dist/tex/latex/pgf/utilities/pgfrcs.sty
INPUT /usr/share/texmf-dist/tex/latex/pgf/utilities/pgfrcs.sty
INPUT /usr/share/texmf-dist/tex/latex/pgf/utilities/pgfrcs.sty
INPUT /usr/share/texmf-dist/tex/latex/pgf/utilities/pgfrcs.sty
INPUT /usr/share/texmf-dist/tex/latex/pgf/utilities/pgfrcs.sty
INPUT /usr/share/texmf-dist/tex/generic/pgf/utilities/pgfutil-common.tex
INPUT /usr/share/texmf-dist/tex/generic/pgf/utilities/pgfutil-common-lists.tex
INPUT /usr/share/texmf-dist/tex/generic/pgf/utilities/pgfutil-latex.def
INPUT /usr/share/texmf-dist/tex/generic/pgf/utilities/pgfrcs.code.tex
INPUT /usr/share/texmf-dist/tex/generic/pgf/utilities/pgfrcs.code.tex
INPUT /usr/share/texmf-dist/tex/generic/pgf/utilities/pgfrcs.code.tex
INPUT /usr/share/texmf-dist/tex/generic/pgf/utilities/pgfrcs.code.tex
INPUT /usr/share/texmf-dist/tex/generic/pgf/pgf.revision.tex
INPUT /usr/share/texmf-dist/tex/generic/pgf/pgf.revision.tex
INPUT /usr/share/texmf-dist/tex/latex/pgf/basiclayer/pgfcore.sty
INPUT /usr/share/texmf-dist/tex/latex/pgf/basiclayer/pgfcore.sty
INPUT /usr/share/texmf-dist/tex/latex/pgf/basiclayer/pgfcore.sty
INPUT /usr/share/texmf-dist/tex/latex/pgf/basiclayer/pgfcore.sty
INPUT /usr/share/texmf-dist/tex/latex/pgf/basiclayer/pgfcore.sty
INPUT /usr/share/texmf-dist/tex/latex/pgf/basiclayer/pgfcore.sty
INPUT /usr/share/texmf-dist/tex/latex/pgf/basiclayer/pgfcore.sty
INPUT /usr/share/texmf-dist/tex/latex/pgf/basiclayer/pgfcore.sty
INPUT /usr/share/texmf-dist/tex/latex/pgf/basiclayer/pgfcore.sty
INPUT /usr/share/texmf-dist/tex/latex/pgf/basiclayer/pgfcore.sty
INPUT /usr/share/texmf-dist/tex/latex/pgf/basiclayer/pgfcore.sty
INPUT /usr/share/texmf-dist/tex/latex/graphics/graphicx.sty
INPUT /usr/share/texmf-dist/tex/latex/graphics/graphicx.sty
INPUT /usr/share/texmf-dist/tex/latex/graphics/graphicx.sty
INPUT /usr/share/texmf-dist/tex/latex/graphics/graphicx.sty
INPUT /usr/share/texmf-dist/tex/latex/graphics/graphicx.sty
INPUT /usr/share/texmf-dist/tex/latex/graphics/graphicx.sty
INPUT /usr/share/texmf-dist/tex/latex/graphics/graphicx.sty
INPUT /usr/share/texmf-dist/tex/latex/graphics/graphicx.sty
INPUT /usr/share/texmf-dist/tex/latex/graphics/graphicx.sty
INPUT /usr/share/texmf-dist/tex/latex/graphics/graphicx.sty
INPUT /usr/share/texmf-dist/tex/latex/graphics/graphicx.sty
INPUT /usr/share/texmf-dist/tex/latex/graphics/keyval.sty
INPUT /usr/share/texmf-dist/tex/latex/graphics/keyval.sty
INPUT /usr/share/texmf-dist/tex/latex/graphics/keyval.sty
INPUT /usr/share/texmf-dist/tex/latex/graphics/keyval.sty
INPUT /usr/share/texmf-dist/tex/latex/graphics/keyval.sty
INPUT /usr/share/texmf-dist/tex/latex/graphics/keyval.sty
INPUT /usr/share/texmf-dist/tex/latex/graphics/keyval.sty
INPUT /usr/share/texmf-dist/tex/latex/graphics/keyval.sty
INPUT /usr/share/texmf-dist/tex/latex/graphics/keyval.sty
INPUT /usr/share/texmf-dist/tex/latex/graphics/keyval.sty
INPUT /usr/share/texmf-dist/tex/latex/graphics/keyval.sty
INPUT /usr/share/texmf-dist/tex/latex/graphics/graphics.sty
INPUT /usr/share/texmf-dist/tex/latex/graphics/graphics.sty
INPUT /usr/share/texmf-dist/tex/latex/graphics/graphics.sty
INPUT /usr/share/texmf-dist/tex/latex/graphics/graphics.sty
INPUT /usr/share/texmf-dist/tex/latex/graphics/graphics.sty
INPUT /usr/share/texmf-dist/tex/latex/graphics/graphics.sty
INPUT /usr/share/texmf-dist/tex/latex/graphics/graphics.sty
INPUT /usr/share/texmf-dist/tex/latex/graphics/graphics.sty
INPUT /usr/share/texmf-dist/tex/latex/graphics/graphics.sty
INPUT /usr/share/texmf-dist/tex/latex/graphics/graphics.sty
INPUT /usr/share/texmf-dist/tex/latex/graphics/graphics.sty
INPUT /usr/share/texmf-dist/tex/latex/graphics/trig.sty
INPUT /usr/share/texmf-dist/tex/latex/graphics/trig.sty
INPUT /usr/share/texmf-dist/tex/latex/graphics/trig.sty
INPUT /usr/share/texmf-dist/tex/latex/graphics/trig.sty
INPUT /usr/share/texmf-dist/tex/latex/graphics/trig.sty
INPUT /usr/share/texmf-dist/tex/latex/graphics/trig.sty
INPUT /usr/share/texmf-dist/tex/latex/graphics/trig.sty
INPUT /usr/share/texmf-dist/tex/latex/graphics/trig.sty
INPUT /usr/share/texmf-dist/tex/latex/graphics/trig.sty
INPUT /usr/share/texmf-dist/tex/latex/graphics/trig.sty
INPUT /usr/share/texmf-dist/tex/latex/graphics/trig.sty
INPUT /usr/share/texmf-dist/tex/latex/graphics-cfg/graphics.cfg
INPUT /usr/share/texmf-dist/tex/latex/graphics-cfg/graphics.cfg
INPUT /usr/share/texmf-dist/tex/latex/graphics-cfg/graphics.cfg
INPUT /usr/share/texmf-dist/tex/latex/graphics-cfg/graphics.cfg
INPUT /usr/share/texmf-dist/tex/latex/graphics-def/pdftex.def
INPUT /usr/share/texmf-dist/tex/latex/graphics-def/pdftex.def
INPUT /usr/share/texmf-dist/tex/latex/graphics-def/pdftex.def
INPUT /usr/share/texmf-dist/tex/latex/graphics-def/pdftex.def
INPUT /usr/share/texmf-dist/tex/latex/pgf/systemlayer/pgfsys.sty
INPUT /usr/share/texmf-dist/tex/latex/pgf/systemlayer/pgfsys.sty
INPUT /usr/share/texmf-dist/tex/latex/pgf/systemlayer/pgfsys.sty
INPUT /usr/share/texmf-dist/tex/latex/pgf/systemlayer/pgfsys.sty
INPUT /usr/share/texmf-dist/tex/latex/pgf/systemlayer/pgfsys.sty
INPUT /usr/share/texmf-dist/tex/latex/pgf/systemlayer/pgfsys.sty
INPUT /usr/share/texmf-dist/tex/latex/pgf/systemlayer/pgfsys.sty
INPUT /usr/share/texmf-dist/tex/latex/pgf/systemlayer/pgfsys.sty
INPUT /usr/share/texmf-dist/tex/latex/pgf/systemlayer/pgfsys.sty
INPUT /usr/share/texmf-dist/tex/latex/pgf/systemlayer/pgfsys.sty
INPUT /usr/share/texmf-dist/tex/latex/pgf/systemlayer/pgfsys.sty
INPUT /usr/share/texmf-dist/tex/latex/pgf/utilities/pgfrcs.sty
INPUT /usr/share/texmf-dist/tex/generic/pgf/systemlayer/pgfsys.code.tex
INPUT /usr/share/texmf-dist/tex/generic/pgf/systemlayer/pgfsys.code.tex
INPUT /usr/share/texmf-dist/tex/generic/pgf/systemlayer/pgfsys.code.tex
INPUT /usr/share/texmf-dist/tex/generic/pgf/systemlayer/pgfsys.code.tex
INPUT /usr/share/texmf-dist/tex/generic/pgf/utilities/pgfkeys.code.tex
INPUT /usr/share/texmf-dist/tex/generic/pgf/utilities/pgfkeysfiltered.code.tex
INPUT /usr/share/texmf-dist/tex/generic/pgf/systemlayer/pgf.cfg
INPUT /usr/share/texmf-dist/tex/generic/pgf/systemlayer/pgfsys-pdftex.def
INPUT /usr/share/texmf-dist/tex/generic/pgf/systemlayer/pgfsys-pdftex.def
INPUT /usr/share/texmf-dist/tex/generic/pgf/systemlayer/pgfsys-common-pdf.def
INPUT /usr/share/texmf-dist/tex/generic/pgf/systemlayer/pgfsyssoftpath.code.tex
INPUT /usr/share/texmf-dist/tex/generic/pgf/systemlayer/pgfsyssoftpath.code.tex
INPUT /usr/share/texmf-dist/tex/generic/pgf/systemlayer/pgfsyssoftpath.code.tex
INPUT /usr/share/texmf-dist/tex/generic/pgf/systemlayer/pgfsyssoftpath.code.tex
INPUT /usr/share/texmf-dist/tex/generic/pgf/systemlayer/pgfsysprotocol.code.tex
INPUT /usr/share/texmf-dist/tex/generic/pgf/systemlayer/pgfsysprotocol.code.tex
INPUT /usr/share/texmf-dist/tex/generic/pgf/systemlayer/pgfsysprotocol.code.tex
INPUT /usr/share/texmf-dist/tex/generic/pgf/systemlayer/pgfsysprotocol.code.tex
INPUT /usr/share/texmf-dist/tex/latex/graphics/keyval.sty
INPUT /usr/share/texmf-dist/tex/latex/xcolor/xcolor.sty
INPUT /usr/share/texmf-dist/tex/latex/xcolor/xcolor.sty
INPUT /usr/share/texmf-dist/tex/latex/xcolor/xcolor.sty
INPUT /usr/share/texmf-dist/tex/latex/xcolor/xcolor.sty
INPUT /usr/share/texmf-dist/tex/latex/xcolor/xcolor.sty
INPUT /usr/share/texmf-dist/tex/latex/xcolor/xcolor.sty
INPUT /usr/share/texmf-dist/tex/latex/xcolor/xcolor.sty
INPUT /usr/share/texmf-dist/tex/latex/xcolor/xcolor.sty
INPUT /usr/share/texmf-dist/tex/latex/xcolor/xcolor.sty
INPUT /usr/share/texmf-dist/tex/latex/xcolor/xcolor.sty
INPUT /usr/share/texmf-dist/tex/latex/xcolor/xcolor.sty
INPUT /usr/share/texmf-dist/tex/latex/graphics-cfg/color.cfg
INPUT /usr/share/texmf-dist/tex/latex/graphics-cfg/color.cfg
INPUT /usr/share/texmf-dist/tex/latex/graphics-cfg/color.cfg
INPUT /usr/share/texmf-dist/tex/latex/graphics-cfg/color.cfg
INPUT /usr/share/texmf-dist/tex/generic/pgf/basiclayer/pgfcore.code.tex
INPUT /usr/share/texmf-dist/tex/generic/pgf/basiclayer/pgfcore.code.tex
INPUT /usr/share/texmf-dist/tex/generic/pgf/basiclayer/pgfcore.code.tex
INPUT /usr/share/texmf-dist/tex/generic/pgf/basiclayer/pgfcore.code.tex
INPUT /usr/share/texmf-dist/tex/generic/pgf/math/pgfmath.code.tex
INPUT /usr/share/texmf-dist/tex/generic/pgf/math/pgfmathcalc.code.tex
INPUT /usr/share/texmf-dist/tex/generic/pgf/math/pgfmathutil.code.tex
INPUT /usr/share/texmf-dist/tex/generic/pgf/math/pgfmathparser.code.tex
INPUT /usr/share/texmf-dist/tex/generic/pgf/math/pgfmathfunctions.code.tex
INPUT /usr/share/texmf-dist/tex/generic/pgf/math/pgfmathfunctions.basic.code.tex
INPUT /usr/share/texmf-dist/tex/generic/pgf/math/pgfmathfunctions.trigonometric.code.tex
INPUT /usr/share/texmf-dist/tex/generic/pgf/math/pgfmathfunctions.random.code.tex
INPUT /usr/share/texmf-dist/tex/generic/pgf/math/pgfmathfunctions.comparison.code.tex
INPUT /usr/share/texmf-dist/tex/generic/pgf/math/pgfmathfunctions.base.code.tex
INPUT /usr/share/texmf-dist/tex/generic/pgf/math/pgfmathfunctions.round.code.tex
INPUT /usr/share/texmf-dist/tex/generic/pgf/math/pgfmathfunctions.misc.code.tex
INPUT /usr/share/texmf-dist/tex/generic/pgf/math/pgfmathfunctions.integerarithmetics.code.tex
INPUT /usr/share/texmf-dist/tex/generic/pgf/math/pgfmathfloat.code.tex
INPUT /usr/share/texmf-dist/tex/generic/pgf/math/pgfint.code.tex
INPUT /usr/share/texmf-dist/tex/generic/pgf/basiclayer/pgfcorepoints.code.tex
INPUT /usr/share/texmf-dist/tex/generic/pgf/basiclayer/pgfcorepathconstruct.code.tex
INPUT /usr/share/texmf-dist/tex/generic/pgf/basiclayer/pgfcorepathusage.code.tex
INPUT /usr/share/texmf-dist/tex/generic/pgf/basiclayer/pgfcorescopes.code.tex
INPUT /usr/share/texmf-dist/tex/generic/pgf/basiclayer/pgfcoregraphicstate.code.tex
INPUT /usr/share/texmf-dist/tex/generic/pgf/basiclayer/pgfcoretransformations.code.tex
INPUT /usr/share/texmf-dist/tex/generic/pgf/basiclayer/pgfcorequick.code.tex
INPUT /usr/share/texmf-dist/tex/generic/pgf/basiclayer/pgfcoreobjects.code.tex
INPUT /usr/share/texmf-dist/tex/generic/pgf/basiclayer/pgfcorepathprocessing.code.tex
INPUT /usr/share/texmf-dist/tex/generic/pgf/basiclayer/pgfcorearrows.code.tex
INPUT /usr/share/texmf-dist/tex/generic/pgf/basiclayer/pgfcoreshade.code.tex
INPUT /usr/share/texmf-dist/tex/generic/pgf/basiclayer/pgfcoreimage.code.tex
INPUT /usr/share/texmf-dist/tex/generic/pgf/basiclayer/pgfcoreexternal.code.tex
INPUT /usr/share/texmf-dist/tex/generic/pgf/basiclayer/pgfcorelayers.code.tex
INPUT /usr/share/texmf-dist/tex/generic/pgf/basiclayer/pgfcoretransparency.code.tex
INPUT /usr/share/texmf-dist/tex/generic/pgf/basiclayer/pgfcorepatterns.code.tex
INPUT /usr/share/texmf-dist/tex/generic/pgf/basiclayer/pgfcorerdf.code.tex
INPUT /usr/share/texmf-dist/tex/generic/pgf/modules/pgfmoduleshapes.code.tex
INPUT /usr/share/texmf-dist/tex/generic/pgf/modules/pgfmoduleplot.code.tex
INPUT /usr/share/texmf-dist/tex/latex/pgf/compatibility/pgfcomp-version-0-65.sty
INPUT /usr/share/texmf-dist/tex/latex/pgf/compatibility/pgfcomp-version-0-65.sty
INPUT /usr/share/texmf-dist/tex/latex/pgf/compatibility/pgfcomp-version-0-65.sty
INPUT /usr/share/texmf-dist/tex/latex/pgf/compatibility/pgfcomp-version-0-65.sty
INPUT /usr/share/texmf-dist/tex/latex/pgf/compatibility/pgfcomp-version-0-65.sty
INPUT /usr/share/texmf-dist/tex/latex/pgf/compatibility/pgfcomp-version-0-65.sty
INPUT /usr/share/texmf-dist/tex/latex/pgf/compatibility/pgfcomp-version-0-65.sty
INPUT /usr/share/texmf-dist/tex/latex/pgf/compatibility/pgfcomp-version-0-65.sty
INPUT /usr/share/texmf-dist/tex/latex/pgf/compatibility/pgfcomp-version-0-65.sty
INPUT /usr/share/texmf-dist/tex/latex/pgf/compatibility/pgfcomp-version-0-65.sty
INPUT /usr/share/texmf-dist/tex/latex/pgf/compatibility/pgfcomp-version-0-65.sty
INPUT /usr/share/texmf-dist/tex/latex/pgf/utilities/pgfrcs.sty
INPUT /usr/share/texmf-dist/tex/latex/pgf/compatibility/pgfcomp-version-1-18.sty
INPUT /usr/share/texmf-dist/tex/latex/pgf/compatibility/pgfcomp-version-1-18.sty
INPUT /usr/share/texmf-dist/tex/latex/pgf/compatibility/pgfcomp-version-1-18.sty
INPUT /usr/share/texmf-dist/tex/latex/pgf/compatibility/pgfcomp-version-1-18.sty
INPUT /usr/share/texmf-dist/tex/latex/pgf/compatibility/pgfcomp-version-1-18.sty
INPUT /usr/share/texmf-dist/tex/latex/pgf/compatibility/pgfcomp-version-1-18.sty
INPUT /usr/share/texmf-dist/tex/latex/pgf/compatibility/pgfcomp-version-1-18.sty
INPUT /usr/share/texmf-dist/tex/latex/pgf/compatibility/pgfcomp-version-1-18.sty
INPUT /usr/share/texmf-dist/tex/latex/pgf/compatibility/pgfcomp-version-1-18.sty
INPUT /usr/share/texmf-dist/tex/latex/pgf/compatibility/pgfcomp-version-1-18.sty
INPUT /usr/share/texmf-dist/tex/latex/pgf/compatibility/pgfcomp-version-1-18.sty
INPUT /usr/share/texmf-dist/tex/latex/pgf/utilities/pgfrcs.sty
INPUT /usr/share/texmf-dist/tex/latex/tools/verbatim.sty
INPUT /usr/share/texmf-dist/tex/latex/tools/verbatim.sty
INPUT /usr/share/texmf-dist/tex/latex/tools/verbatim.sty
INPUT /usr/share/texmf-dist/tex/latex/tools/verbatim.sty
INPUT /usr/share/texmf-dist/tex/latex/tools/verbatim.sty
INPUT /usr/share/texmf-dist/tex/latex/tools/verbatim.sty
INPUT /usr/share/texmf-dist/tex/latex/tools/verbatim.sty
INPUT /usr/share/texmf-dist/tex/latex/tools/verbatim.sty
INPUT /usr/share/texmf-dist/tex/latex/tools/verbatim.sty
INPUT /usr/share/texmf-dist/tex/latex/tools/verbatim.sty
INPUT /usr/share/texmf-dist/tex/latex/tools/verbatim.sty
INPUT /usr/share/texmf-dist/tex/latex/environ/environ.sty
INPUT /usr/share/texmf-dist/tex/latex/environ/environ.sty
INPUT /usr/share/texmf-dist/tex/latex/environ/environ.sty
INPUT /usr/share/texmf-dist/tex/latex/environ/environ.sty
INPUT /usr/share/texmf-dist/tex/latex/environ/environ.sty
INPUT /usr/share/texmf-dist/tex/latex/environ/environ.sty
INPUT /usr/share/texmf-dist/tex/latex/environ/environ.sty
INPUT /usr/share/texmf-dist/tex/latex/environ/environ.sty
INPUT /usr/share/texmf-dist/tex/latex/environ/environ.sty
INPUT /usr/share/texmf-dist/tex/latex/environ/environ.sty
INPUT /usr/share/texmf-dist/tex/latex/environ/environ.sty
INPUT /usr/share/texmf-dist/tex/latex/trimspaces/trimspaces.sty
INPUT /usr/share/texmf-dist/tex/latex/trimspaces/trimspaces.sty
INPUT /usr/share/texmf-dist/tex/latex/trimspaces/trimspaces.sty
INPUT /usr/share/texmf-dist/tex/latex/trimspaces/trimspaces.sty
INPUT /usr/share/texmf-dist/tex/latex/trimspaces/trimspaces.sty
INPUT /usr/share/texmf-dist/tex/latex/trimspaces/trimspaces.sty
INPUT /usr/share/texmf-dist/tex/latex/trimspaces/trimspaces.sty
INPUT /usr/share/texmf-dist/tex/latex/trimspaces/trimspaces.sty
INPUT /usr/share/texmf-dist/tex/latex/trimspaces/trimspaces.sty
INPUT /usr/share/texmf-dist/tex/latex/trimspaces/trimspaces.sty
INPUT /usr/share/texmf-dist/tex/latex/trimspaces/trimspaces.sty
INPUT /usr/share/texmf-dist/tex/latex/etoolbox/etoolbox.sty
INPUT /usr/share/texmf-dist/tex/latex/etoolbox/etoolbox.sty
INPUT /usr/share/texmf-dist/tex/latex/etoolbox/etoolbox.sty
INPUT /usr/share/texmf-dist/tex/latex/etoolbox/etoolbox.sty
INPUT /usr/share/texmf-dist/tex/latex/etoolbox/etoolbox.sty
INPUT /usr/share/texmf-dist/tex/latex/etoolbox/etoolbox.sty
INPUT /usr/share/texmf-dist/tex/latex/etoolbox/etoolbox.sty
INPUT /usr/share/texmf-dist/tex/latex/etoolbox/etoolbox.sty
INPUT /usr/share/texmf-dist/tex/latex/etoolbox/etoolbox.sty
INPUT /usr/share/texmf-dist/tex/latex/etoolbox/etoolbox.sty
INPUT /usr/share/texmf-dist/tex/latex/etoolbox/etoolbox.sty
INPUT /usr/share/texmf-dist/tex/latex/tcolorbox/tcbbreakable.code.tex
INPUT /usr/share/texmf-dist/tex/generic/oberdiek/pdfcol.sty
INPUT /usr/share/texmf-dist/tex/generic/oberdiek/pdfcol.sty
INPUT /usr/share/texmf-dist/tex/generic/oberdiek/pdfcol.sty
INPUT /usr/share/texmf-dist/tex/generic/oberdiek/pdfcol.sty
INPUT /usr/share/texmf-dist/tex/generic/oberdiek/pdfcol.sty
INPUT /usr/share/texmf-dist/tex/generic/oberdiek/pdfcol.sty
INPUT /usr/share/texmf-dist/tex/generic/oberdiek/pdfcol.sty
INPUT /usr/share/texmf-dist/tex/generic/oberdiek/pdfcol.sty
INPUT /usr/share/texmf-dist/tex/generic/oberdiek/pdfcol.sty
INPUT /usr/share/texmf-dist/tex/generic/oberdiek/pdfcol.sty
INPUT /usr/share/texmf-dist/tex/generic/oberdiek/pdfcol.sty
INPUT /usr/share/texmf-dist/tex/generic/ltxcmds/ltxcmds.sty
INPUT /usr/share/texmf-dist/tex/generic/ltxcmds/ltxcmds.sty
INPUT /usr/share/texmf-dist/tex/generic/ltxcmds/ltxcmds.sty
INPUT /usr/share/texmf-dist/tex/generic/ltxcmds/ltxcmds.sty
INPUT /usr/share/texmf-dist/tex/generic/ltxcmds/ltxcmds.sty
INPUT /usr/share/texmf-dist/tex/generic/ltxcmds/ltxcmds.sty
INPUT /usr/share/texmf-dist/tex/generic/ltxcmds/ltxcmds.sty
INPUT /usr/share/texmf-dist/tex/generic/ltxcmds/ltxcmds.sty
INPUT /usr/share/texmf-dist/tex/generic/ltxcmds/ltxcmds.sty
INPUT /usr/share/texmf-dist/tex/generic/ltxcmds/ltxcmds.sty
INPUT /usr/share/texmf-dist/tex/generic/ltxcmds/ltxcmds.sty
INPUT /usr/share/texmf-dist/tex/generic/infwarerr/infwarerr.sty
INPUT /usr/share/texmf-dist/tex/generic/infwarerr/infwarerr.sty
INPUT /usr/share/texmf-dist/tex/generic/infwarerr/infwarerr.sty
INPUT /usr/share/texmf-dist/tex/generic/infwarerr/infwarerr.sty
INPUT /usr/share/texmf-dist/tex/generic/infwarerr/infwarerr.sty
INPUT /usr/share/texmf-dist/tex/generic/infwarerr/infwarerr.sty
INPUT /usr/share/texmf-dist/tex/generic/infwarerr/infwarerr.sty
INPUT /usr/share/texmf-dist/tex/generic/infwarerr/infwarerr.sty
INPUT /usr/share/texmf-dist/tex/generic/infwarerr/infwarerr.sty
INPUT /usr/share/texmf-dist/tex/generic/infwarerr/infwarerr.sty
INPUT /usr/share/texmf-dist/tex/generic/infwarerr/infwarerr.sty
INPUT /usr/share/texmf-dist/tex/generic/iftex/iftex.sty
INPUT /usr/share/texmf-dist/tex/generic/iftex/iftex.sty
INPUT /usr/share/texmf-dist/tex/generic/iftex/iftex.sty
INPUT /usr/share/texmf-dist/tex/generic/iftex/iftex.sty
INPUT /usr/share/texmf-dist/tex/generic/iftex/iftex.sty
INPUT /usr/share/texmf-dist/tex/generic/iftex/iftex.sty
INPUT /usr/share/texmf-dist/tex/generic/iftex/iftex.sty
INPUT /usr/share/texmf-dist/tex/generic/iftex/iftex.sty
INPUT /usr/share/texmf-dist/tex/generic/iftex/iftex.sty
INPUT /usr/share/texmf-dist/tex/generic/iftex/iftex.sty
INPUT /usr/share/texmf-dist/tex/generic/iftex/iftex.sty
INPUT /usr/share/texmf-dist/tex/latex/parskip/parskip.sty
INPUT /usr/share/texmf-dist/tex/latex/parskip/parskip.sty
INPUT /usr/share/texmf-dist/tex/latex/parskip/parskip.sty
INPUT /usr/share/texmf-dist/tex/latex/parskip/parskip.sty
INPUT /usr/share/texmf-dist/tex/latex/parskip/parskip.sty
INPUT /usr/share/texmf-dist/tex/latex/parskip/parskip.sty
INPUT /usr/share/texmf-dist/tex/latex/parskip/parskip.sty
INPUT /usr/share/texmf-dist/tex/latex/parskip/parskip.sty
INPUT /usr/share/texmf-dist/tex/latex/parskip/parskip.sty
INPUT /usr/share/texmf-dist/tex/latex/parskip/parskip.sty
INPUT /usr/share/texmf-dist/tex/latex/parskip/parskip.sty
INPUT /usr/share/texmf-dist/tex/latex/kvoptions/kvoptions.sty
INPUT /usr/share/texmf-dist/tex/latex/kvoptions/kvoptions.sty
INPUT /usr/share/texmf-dist/tex/latex/kvoptions/kvoptions.sty
INPUT /usr/share/texmf-dist/tex/latex/kvoptions/kvoptions.sty
INPUT /usr/share/texmf-dist/tex/latex/kvoptions/kvoptions.sty
INPUT /usr/share/texmf-dist/tex/latex/kvoptions/kvoptions.sty
INPUT /usr/share/texmf-dist/tex/latex/kvoptions/kvoptions.sty
INPUT /usr/share/texmf-dist/tex/latex/kvoptions/kvoptions.sty
INPUT /usr/share/texmf-dist/tex/latex/kvoptions/kvoptions.sty
INPUT /usr/share/texmf-dist/tex/latex/kvoptions/kvoptions.sty
INPUT /usr/share/texmf-dist/tex/latex/kvoptions/kvoptions.sty
INPUT /usr/share/texmf-dist/tex/generic/ltxcmds/ltxcmds.sty
INPUT /usr/share/texmf-dist/tex/generic/kvsetkeys/kvsetkeys.sty
INPUT /usr/share/texmf-dist/tex/generic/kvsetkeys/kvsetkeys.sty
INPUT /usr/share/texmf-dist/tex/generic/kvsetkeys/kvsetkeys.sty
INPUT /usr/share/texmf-dist/tex/generic/kvsetkeys/kvsetkeys.sty
INPUT /usr/share/texmf-dist/tex/generic/kvsetkeys/kvsetkeys.sty
INPUT /usr/share/texmf-dist/tex/generic/kvsetkeys/kvsetkeys.sty
INPUT /usr/share/texmf-dist/tex/generic/kvsetkeys/kvsetkeys.sty
INPUT /usr/share/texmf-dist/tex/generic/kvsetkeys/kvsetkeys.sty
INPUT /usr/share/texmf-dist/tex/generic/kvsetkeys/kvsetkeys.sty
INPUT /usr/share/texmf-dist/tex/generic/kvsetkeys/kvsetkeys.sty
INPUT /usr/share/texmf-dist/tex/generic/kvsetkeys/kvsetkeys.sty
INPUT /usr/share/texmf-dist/tex/latex/etoolbox/etoolbox.sty
INPUT /usr/share/texmf-dist/tex/latex/graphics/graphicx.sty
INPUT /usr/share/texmf-dist/tex/latex/caption/caption.sty
INPUT /usr/share/texmf-dist/tex/latex/caption/caption.sty
INPUT /usr/share/texmf-dist/tex/latex/caption/caption.sty
INPUT /usr/share/texmf-dist/tex/latex/caption/caption.sty
INPUT /usr/share/texmf-dist/tex/latex/caption/caption.sty
INPUT /usr/share/texmf-dist/tex/latex/caption/caption.sty
INPUT /usr/share/texmf-dist/tex/latex/caption/caption.sty
INPUT /usr/share/texmf-dist/tex/latex/caption/caption.sty
INPUT /usr/share/texmf-dist/tex/latex/caption/caption.sty
INPUT /usr/share/texmf-dist/tex/latex/caption/caption.sty
INPUT /usr/share/texmf-dist/tex/latex/caption/caption.sty
INPUT /usr/share/texmf-dist/tex/latex/caption/caption3.sty
INPUT /usr/share/texmf-dist/tex/latex/caption/caption3.sty
INPUT /usr/share/texmf-dist/tex/latex/caption/caption3.sty
INPUT /usr/share/texmf-dist/tex/latex/caption/caption3.sty
INPUT /usr/share/texmf-dist/tex/latex/caption/caption3.sty
INPUT /usr/share/texmf-dist/tex/latex/caption/caption3.sty
INPUT /usr/share/texmf-dist/tex/latex/caption/caption3.sty
INPUT /usr/share/texmf-dist/tex/latex/caption/caption3.sty
INPUT /usr/share/texmf-dist/tex/latex/caption/caption3.sty
INPUT /usr/share/texmf-dist/tex/latex/caption/caption3.sty
INPUT /usr/share/texmf-dist/tex/latex/caption/caption3.sty
INPUT /usr/share/texmf-dist/tex/latex/graphics/keyval.sty
INPUT /usr/share/texmf-dist/tex/latex/float/float.sty
INPUT /usr/share/texmf-dist/tex/latex/float/float.sty
INPUT /usr/share/texmf-dist/tex/latex/float/float.sty
INPUT /usr/share/texmf-dist/tex/latex/float/float.sty
INPUT /usr/share/texmf-dist/tex/latex/float/float.sty
INPUT /usr/share/texmf-dist/tex/latex/float/float.sty
INPUT /usr/share/texmf-dist/tex/latex/float/float.sty
INPUT /usr/share/texmf-dist/tex/latex/float/float.sty
INPUT /usr/share/texmf-dist/tex/latex/float/float.sty
INPUT /usr/share/texmf-dist/tex/latex/float/float.sty
INPUT /usr/share/texmf-dist/tex/latex/float/float.sty
INPUT /usr/share/texmf-dist/tex/latex/xcolor/xcolor.sty
INPUT /usr/share/texmf-dist/tex/latex/tools/enumerate.sty
INPUT /usr/share/texmf-dist/tex/latex/tools/enumerate.sty
INPUT /usr/share/texmf-dist/tex/latex/tools/enumerate.sty
INPUT /usr/share/texmf-dist/tex/latex/tools/enumerate.sty
INPUT /usr/share/texmf-dist/tex/latex/tools/enumerate.sty
INPUT /usr/share/texmf-dist/tex/latex/tools/enumerate.sty
INPUT /usr/share/texmf-dist/tex/latex/tools/enumerate.sty
INPUT /usr/share/texmf-dist/tex/latex/tools/enumerate.sty
INPUT /usr/share/texmf-dist/tex/latex/tools/enumerate.sty
INPUT /usr/share/texmf-dist/tex/latex/tools/enumerate.sty
INPUT /usr/share/texmf-dist/tex/latex/tools/enumerate.sty
INPUT /usr/share/texmf-dist/tex/latex/geometry/geometry.sty
INPUT /usr/share/texmf-dist/tex/latex/geometry/geometry.sty
INPUT /usr/share/texmf-dist/tex/latex/geometry/geometry.sty
INPUT /usr/share/texmf-dist/tex/latex/geometry/geometry.sty
INPUT /usr/share/texmf-dist/tex/latex/geometry/geometry.sty
INPUT /usr/share/texmf-dist/tex/latex/geometry/geometry.sty
INPUT /usr/share/texmf-dist/tex/latex/geometry/geometry.sty
INPUT /usr/share/texmf-dist/tex/latex/geometry/geometry.sty
INPUT /usr/share/texmf-dist/tex/latex/geometry/geometry.sty
INPUT /usr/share/texmf-dist/tex/latex/geometry/geometry.sty
INPUT /usr/share/texmf-dist/tex/latex/geometry/geometry.sty
INPUT /usr/share/texmf-dist/tex/latex/graphics/keyval.sty
INPUT /usr/share/texmf-dist/tex/generic/iftex/ifvtex.sty
INPUT /usr/share/texmf-dist/tex/generic/iftex/ifvtex.sty
INPUT /usr/share/texmf-dist/tex/generic/iftex/ifvtex.sty
INPUT /usr/share/texmf-dist/tex/generic/iftex/ifvtex.sty
INPUT /usr/share/texmf-dist/tex/generic/iftex/ifvtex.sty
INPUT /usr/share/texmf-dist/tex/generic/iftex/ifvtex.sty
INPUT /usr/share/texmf-dist/tex/generic/iftex/ifvtex.sty
INPUT /usr/share/texmf-dist/tex/generic/iftex/ifvtex.sty
INPUT /usr/share/texmf-dist/tex/generic/iftex/ifvtex.sty
INPUT /usr/share/texmf-dist/tex/generic/iftex/ifvtex.sty
INPUT /usr/share/texmf-dist/tex/generic/iftex/ifvtex.sty
INPUT /usr/share/texmf-dist/tex/generic/iftex/iftex.sty
INPUT /usr/share/texmf-dist/tex/latex/amsmath/amsmath.sty
INPUT /usr/share/texmf-dist/tex/latex/amsmath/amsmath.sty
INPUT /usr/share/texmf-dist/tex/latex/amsmath/amsmath.sty
INPUT /usr/share/texmf-dist/tex/latex/amsmath/amsmath.sty
INPUT /usr/share/texmf-dist/tex/latex/amsmath/amsmath.sty
INPUT /usr/share/texmf-dist/tex/latex/amsmath/amsmath.sty
INPUT /usr/share/texmf-dist/tex/latex/amsmath/amsmath.sty
INPUT /usr/share/texmf-dist/tex/latex/amsmath/amsmath.sty
INPUT /usr/share/texmf-dist/tex/latex/amsmath/amsmath.sty
INPUT /usr/share/texmf-dist/tex/latex/amsmath/amsmath.sty
INPUT /usr/share/texmf-dist/tex/latex/amsmath/amsmath.sty
INPUT /usr/share/texmf-dist/tex/latex/amsmath/amsopn.sty
INPUT /usr/share/texmf-dist/tex/latex/amsmath/amsopn.sty
INPUT /usr/share/texmf-dist/tex/latex/amsmath/amstext.sty
INPUT /usr/share/texmf-dist/tex/latex/amsmath/amstext.sty
INPUT /usr/share/texmf-dist/tex/latex/amsmath/amstext.sty
INPUT /usr/share/texmf-dist/tex/latex/amsmath/amstext.sty
INPUT /usr/share/texmf-dist/tex/latex/amsmath/amstext.sty
INPUT /usr/share/texmf-dist/tex/latex/amsmath/amstext.sty
INPUT /usr/share/texmf-dist/tex/latex/amsmath/amstext.sty
INPUT /usr/share/texmf-dist/tex/latex/amsmath/amstext.sty
INPUT /usr/share/texmf-dist/tex/latex/amsmath/amstext.sty
INPUT /usr/share/texmf-dist/tex/latex/amsmath/amstext.sty
INPUT /usr/share/texmf-dist/tex/latex/amsmath/amstext.sty
INPUT /usr/share/texmf-dist/tex/latex/amsmath/amsgen.sty
INPUT /usr/share/texmf-dist/tex/latex/amsmath/amsgen.sty
INPUT /usr/share/texmf-dist/tex/latex/amsmath/amsgen.sty
INPUT /usr/share/texmf-dist/tex/latex/amsmath/amsgen.sty
INPUT /usr/share/texmf-dist/tex/latex/amsmath/amsgen.sty
INPUT /usr/share/texmf-dist/tex/latex/amsmath/amsgen.sty
INPUT /usr/share/texmf-dist/tex/latex/amsmath/amsgen.sty
INPUT /usr/share/texmf-dist/tex/latex/amsmath/amsgen.sty
INPUT /usr/share/texmf-dist/tex/latex/amsmath/amsgen.sty
INPUT /usr/share/texmf-dist/tex/latex/amsmath/amsgen.sty
INPUT /usr/share/texmf-dist/tex/latex/amsmath/amsgen.sty
INPUT /usr/share/texmf-dist/tex/latex/amsmath/amsbsy.sty
INPUT /usr/share/texmf-dist/tex/latex/amsmath/amsbsy.sty
INPUT /usr/share/texmf-dist/tex/latex/amsmath/amsbsy.sty
INPUT /usr/share/texmf-dist/tex/latex/amsmath/amsbsy.sty
INPUT /usr/share/texmf-dist/tex/latex/amsmath/amsbsy.sty
INPUT /usr/share/texmf-dist/tex/latex/amsmath/amsbsy.sty
INPUT /usr/share/texmf-dist/tex/latex/amsmath/amsbsy.sty
INPUT /usr/share/texmf-dist/tex/latex/amsmath/amsbsy.sty
INPUT /usr/share/texmf-dist/tex/latex/amsmath/amsbsy.sty
INPUT /usr/share/texmf-dist/tex/latex/amsmath/amsbsy.sty
INPUT /usr/share/texmf-dist/tex/latex/amsmath/amsbsy.sty
INPUT /usr/share/texmf-dist/tex/latex/amsmath/amsgen.sty
INPUT /usr/share/texmf-dist/tex/latex/amsmath/amsopn.sty
INPUT /usr/share/texmf-dist/tex/latex/amsmath/amsopn.sty
INPUT /usr/share/texmf-dist/tex/latex/amsmath/amsopn.sty
INPUT /usr/share/texmf-dist/tex/latex/amsmath/amsopn.sty
INPUT /usr/share/texmf-dist/tex/latex/amsmath/amsopn.sty
INPUT /usr/share/texmf-dist/tex/latex/amsmath/amsopn.sty
INPUT /usr/share/texmf-dist/tex/latex/amsmath/amsopn.sty
INPUT /usr/share/texmf-dist/tex/latex/amsmath/amsopn.sty
INPUT /usr/share/texmf-dist/tex/latex/amsmath/amsopn.sty
INPUT /usr/share/texmf-dist/tex/latex/amsmath/amsopn.sty
INPUT /usr/share/texmf-dist/tex/latex/amsmath/amsopn.sty
INPUT /usr/share/texmf-dist/tex/latex/amsmath/amsgen.sty
INPUT /usr/share/texmf-dist/tex/latex/amsfonts/amssymb.sty
INPUT /usr/share/texmf-dist/tex/latex/amsfonts/amssymb.sty
INPUT /usr/share/texmf-dist/tex/latex/amsfonts/amssymb.sty
INPUT /usr/share/texmf-dist/tex/latex/amsfonts/amssymb.sty
INPUT /usr/share/texmf-dist/tex/latex/amsfonts/amssymb.sty
INPUT /usr/share/texmf-dist/tex/latex/amsfonts/amssymb.sty
INPUT /usr/share/texmf-dist/tex/latex/amsfonts/amssymb.sty
INPUT /usr/share/texmf-dist/tex/latex/amsfonts/amssymb.sty
INPUT /usr/share/texmf-dist/tex/latex/amsfonts/amssymb.sty
INPUT /usr/share/texmf-dist/tex/latex/amsfonts/amssymb.sty
INPUT /usr/share/texmf-dist/tex/latex/amsfonts/amssymb.sty
INPUT /usr/share/texmf-dist/tex/latex/amsfonts/amsfonts.sty
INPUT /usr/share/texmf-dist/tex/latex/amsfonts/amsfonts.sty
INPUT /usr/share/texmf-dist/tex/latex/amsfonts/amsfonts.sty
INPUT /usr/share/texmf-dist/tex/latex/amsfonts/amsfonts.sty
INPUT /usr/share/texmf-dist/tex/latex/amsfonts/amsfonts.sty
INPUT /usr/share/texmf-dist/tex/latex/amsfonts/amsfonts.sty
INPUT /usr/share/texmf-dist/tex/latex/amsfonts/amsfonts.sty
INPUT /usr/share/texmf-dist/tex/latex/amsfonts/amsfonts.sty
INPUT /usr/share/texmf-dist/tex/latex/amsfonts/amsfonts.sty
INPUT /usr/share/texmf-dist/tex/latex/amsfonts/amsfonts.sty
INPUT /usr/share/texmf-dist/tex/latex/amsfonts/amsfonts.sty
INPUT /usr/share/texmf-dist/tex/latex/base/textcomp.sty
INPUT /usr/share/texmf-dist/tex/latex/base/textcomp.sty
INPUT /usr/share/texmf-dist/tex/latex/base/textcomp.sty
INPUT /usr/share/texmf-dist/tex/latex/base/textcomp.sty
INPUT /usr/share/texmf-dist/tex/latex/base/textcomp.sty
INPUT /usr/share/texmf-dist/tex/latex/base/textcomp.sty
INPUT /usr/share/texmf-dist/tex/latex/base/textcomp.sty
INPUT /usr/share/texmf-dist/tex/latex/base/textcomp.sty
INPUT /usr/share/texmf-dist/tex/latex/base/textcomp.sty
INPUT /usr/share/texmf-dist/tex/latex/base/textcomp.sty
INPUT /usr/share/texmf-dist/tex/latex/base/textcomp.sty
INPUT /usr/share/texmf-dist/tex/latex/upquote/upquote.sty
INPUT /usr/share/texmf-dist/tex/latex/upquote/upquote.sty
INPUT /usr/share/texmf-dist/tex/latex/upquote/upquote.sty
INPUT /usr/share/texmf-dist/tex/latex/upquote/upquote.sty
INPUT /usr/share/texmf-dist/tex/latex/upquote/upquote.sty
INPUT /usr/share/texmf-dist/tex/latex/upquote/upquote.sty
INPUT /usr/share/texmf-dist/tex/latex/upquote/upquote.sty
INPUT /usr/share/texmf-dist/tex/latex/upquote/upquote.sty
INPUT /usr/share/texmf-dist/tex/latex/upquote/upquote.sty
INPUT /usr/share/texmf-dist/tex/latex/upquote/upquote.sty
INPUT /usr/share/texmf-dist/tex/latex/upquote/upquote.sty
INPUT /usr/share/texmf-dist/tex/latex/eurosym/eurosym.sty
INPUT /usr/share/texmf-dist/tex/latex/eurosym/eurosym.sty
INPUT /usr/share/texmf-dist/tex/latex/eurosym/eurosym.sty
INPUT /usr/share/texmf-dist/tex/latex/eurosym/eurosym.sty
INPUT /usr/share/texmf-dist/tex/latex/eurosym/eurosym.sty
INPUT /usr/share/texmf-dist/tex/latex/eurosym/eurosym.sty
INPUT /usr/share/texmf-dist/tex/latex/eurosym/eurosym.sty
INPUT /usr/share/texmf-dist/tex/latex/eurosym/eurosym.sty
INPUT /usr/share/texmf-dist/tex/latex/eurosym/eurosym.sty
INPUT /usr/share/texmf-dist/tex/latex/eurosym/eurosym.sty
INPUT /usr/share/texmf-dist/tex/latex/eurosym/eurosym.sty
INPUT /usr/share/texmf-dist/tex/generic/iftex/iftex.sty
INPUT /usr/share/texmf-dist/tex/latex/base/fontenc.sty
INPUT /usr/share/texmf-dist/tex/latex/base/fontenc.sty
INPUT /usr/share/texmf-dist/tex/latex/base/fontenc.sty
INPUT /usr/share/texmf-dist/tex/latex/base/fontenc.sty
INPUT /usr/share/texmf-dist/tex/latex/base/fontenc.sty
INPUT /usr/share/texmf-dist/tex/latex/base/fontenc.sty
INPUT /usr/share/texmf-dist/tex/latex/base/fontenc.sty
INPUT /usr/share/texmf-dist/tex/latex/base/fontenc.sty
INPUT /usr/share/texmf-dist/tex/latex/base/fontenc.sty
INPUT /usr/share/texmf-dist/tex/latex/base/fontenc.sty
INPUT /usr/share/texmf-dist/tex/latex/base/fontenc.sty
INPUT /usr/share/texmf-dist/fonts/tfm/jknappen/ec/ecrm1200.tfm
INPUT /usr/share/texmf-dist/tex/latex/ucs/ucs.sty
INPUT /usr/share/texmf-dist/tex/latex/ucs/ucs.sty
INPUT /usr/share/texmf-dist/tex/latex/ucs/ucs.sty
INPUT /usr/share/texmf-dist/tex/latex/ucs/ucs.sty
INPUT /usr/share/texmf-dist/tex/latex/ucs/ucs.sty
INPUT /usr/share/texmf-dist/tex/latex/ucs/ucs.sty
INPUT /usr/share/texmf-dist/tex/latex/ucs/ucs.sty
INPUT /usr/share/texmf-dist/tex/latex/ucs/ucs.sty
INPUT /usr/share/texmf-dist/tex/latex/ucs/ucs.sty
INPUT /usr/share/texmf-dist/tex/latex/ucs/ucs.sty
INPUT /usr/share/texmf-dist/tex/latex/ucs/ucs.sty
INPUT /usr/share/texmf-dist/tex/latex/ucs/data/uni-global.def
INPUT /usr/share/texmf-dist/tex/latex/ucs/data/uni-global.def
INPUT /usr/share/texmf-dist/tex/latex/ucs/data/uni-global.def
INPUT /usr/share/texmf-dist/tex/latex/ucs/data/uni-global.def
INPUT /usr/share/texmf-dist/tex/latex/base/inputenc.sty
INPUT /usr/share/texmf-dist/tex/latex/base/inputenc.sty
INPUT /usr/share/texmf-dist/tex/latex/base/inputenc.sty
INPUT /usr/share/texmf-dist/tex/latex/base/inputenc.sty
INPUT /usr/share/texmf-dist/tex/latex/base/inputenc.sty
INPUT /usr/share/texmf-dist/tex/latex/base/inputenc.sty
INPUT /usr/share/texmf-dist/tex/latex/base/inputenc.sty
INPUT /usr/share/texmf-dist/tex/latex/base/inputenc.sty
INPUT /usr/share/texmf-dist/tex/latex/base/inputenc.sty
INPUT /usr/share/texmf-dist/tex/latex/base/inputenc.sty
INPUT /usr/share/texmf-dist/tex/latex/base/inputenc.sty
INPUT /usr/share/texmf-dist/tex/latex/ucs/utf8x.def
INPUT /usr/share/texmf-dist/tex/latex/ucs/utf8x.def
INPUT /usr/share/texmf-dist/tex/latex/ucs/utf8x.def
INPUT /usr/share/texmf-dist/tex/latex/ucs/utf8x.def
INPUT /usr/share/texmf-dist/tex/latex/ucs/ucs.sty
INPUT /usr/share/texmf-dist/tex/latex/fancyvrb/fancyvrb.sty
INPUT /usr/share/texmf-dist/tex/latex/fancyvrb/fancyvrb.sty
INPUT /usr/share/texmf-dist/tex/latex/fancyvrb/fancyvrb.sty
INPUT /usr/share/texmf-dist/tex/latex/fancyvrb/fancyvrb.sty
INPUT /usr/share/texmf-dist/tex/latex/fancyvrb/fancyvrb.sty
INPUT /usr/share/texmf-dist/tex/latex/fancyvrb/fancyvrb.sty
INPUT /usr/share/texmf-dist/tex/latex/fancyvrb/fancyvrb.sty
INPUT /usr/share/texmf-dist/tex/latex/fancyvrb/fancyvrb.sty
INPUT /usr/share/texmf-dist/tex/latex/fancyvrb/fancyvrb.sty
INPUT /usr/share/texmf-dist/tex/latex/fancyvrb/fancyvrb.sty
INPUT /usr/share/texmf-dist/tex/latex/fancyvrb/fancyvrb.sty
INPUT /usr/share/texmf-dist/tex/latex/graphics/keyval.sty
INPUT /usr/share/texmf-dist/tex/latex/grffile/grffile.sty
INPUT /usr/share/texmf-dist/tex/latex/grffile/grffile.sty
INPUT /usr/share/texmf-dist/tex/latex/grffile/grffile.sty
INPUT /usr/share/texmf-dist/tex/latex/grffile/grffile.sty
INPUT /usr/share/texmf-dist/tex/latex/grffile/grffile.sty
INPUT /usr/share/texmf-dist/tex/latex/grffile/grffile.sty
INPUT /usr/share/texmf-dist/tex/latex/grffile/grffile.sty
INPUT /usr/share/texmf-dist/tex/latex/grffile/grffile.sty
INPUT /usr/share/texmf-dist/tex/latex/grffile/grffile.sty
INPUT /usr/share/texmf-dist/tex/latex/grffile/grffile.sty
INPUT /usr/share/texmf-dist/tex/latex/grffile/grffile.sty
INPUT /usr/share/texmf-dist/tex/latex/graphics/graphicx.sty
INPUT /usr/share/texmf-dist/tex/latex/adjustbox/adjustbox.sty
INPUT /usr/share/texmf-dist/tex/latex/adjustbox/adjustbox.sty
INPUT /usr/share/texmf-dist/tex/latex/adjustbox/adjustbox.sty
INPUT /usr/share/texmf-dist/tex/latex/adjustbox/adjustbox.sty
INPUT /usr/share/texmf-dist/tex/latex/adjustbox/adjustbox.sty
INPUT /usr/share/texmf-dist/tex/latex/adjustbox/adjustbox.sty
INPUT /usr/share/texmf-dist/tex/latex/adjustbox/adjustbox.sty
INPUT /usr/share/texmf-dist/tex/latex/adjustbox/adjustbox.sty
INPUT /usr/share/texmf-dist/tex/latex/adjustbox/adjustbox.sty
INPUT /usr/share/texmf-dist/tex/latex/adjustbox/adjustbox.sty
INPUT /usr/share/texmf-dist/tex/latex/adjustbox/adjustbox.sty
INPUT /usr/share/texmf-dist/tex/latex/xkeyval/xkeyval.sty
INPUT /usr/share/texmf-dist/tex/latex/xkeyval/xkeyval.sty
INPUT /usr/share/texmf-dist/tex/latex/xkeyval/xkeyval.sty
INPUT /usr/share/texmf-dist/tex/latex/xkeyval/xkeyval.sty
INPUT /usr/share/texmf-dist/tex/latex/xkeyval/xkeyval.sty
INPUT /usr/share/texmf-dist/tex/latex/xkeyval/xkeyval.sty
INPUT /usr/share/texmf-dist/tex/latex/xkeyval/xkeyval.sty
INPUT /usr/share/texmf-dist/tex/latex/xkeyval/xkeyval.sty
INPUT /usr/share/texmf-dist/tex/latex/xkeyval/xkeyval.sty
INPUT /usr/share/texmf-dist/tex/latex/xkeyval/xkeyval.sty
INPUT /usr/share/texmf-dist/tex/latex/xkeyval/xkeyval.sty
INPUT /usr/share/texmf-dist/tex/generic/xkeyval/xkeyval.tex
INPUT /usr/share/texmf-dist/tex/generic/xkeyval/xkvutils.tex
INPUT /usr/share/texmf-dist/tex/latex/adjustbox/adjcalc.sty
INPUT /usr/share/texmf-dist/tex/latex/adjustbox/adjcalc.sty
INPUT /usr/share/texmf-dist/tex/latex/adjustbox/adjcalc.sty
INPUT /usr/share/texmf-dist/tex/latex/adjustbox/adjcalc.sty
INPUT /usr/share/texmf-dist/tex/latex/adjustbox/adjcalc.sty
INPUT /usr/share/texmf-dist/tex/latex/adjustbox/adjcalc.sty
INPUT /usr/share/texmf-dist/tex/latex/adjustbox/adjcalc.sty
INPUT /usr/share/texmf-dist/tex/latex/adjustbox/adjcalc.sty
INPUT /usr/share/texmf-dist/tex/latex/adjustbox/adjcalc.sty
INPUT /usr/share/texmf-dist/tex/latex/adjustbox/adjcalc.sty
INPUT /usr/share/texmf-dist/tex/latex/adjustbox/adjcalc.sty
INPUT /usr/share/texmf-dist/tex/latex/xkeyval/xkeyval.sty
INPUT /usr/share/texmf-dist/tex/latex/adjustbox/trimclip.sty
INPUT /usr/share/texmf-dist/tex/latex/adjustbox/trimclip.sty
INPUT /usr/share/texmf-dist/tex/latex/adjustbox/trimclip.sty
INPUT /usr/share/texmf-dist/tex/latex/adjustbox/trimclip.sty
INPUT /usr/share/texmf-dist/tex/latex/adjustbox/trimclip.sty
INPUT /usr/share/texmf-dist/tex/latex/adjustbox/trimclip.sty
INPUT /usr/share/texmf-dist/tex/latex/adjustbox/trimclip.sty
INPUT /usr/share/texmf-dist/tex/latex/adjustbox/trimclip.sty
INPUT /usr/share/texmf-dist/tex/latex/adjustbox/trimclip.sty
INPUT /usr/share/texmf-dist/tex/latex/adjustbox/trimclip.sty
INPUT /usr/share/texmf-dist/tex/latex/adjustbox/trimclip.sty
INPUT /usr/share/texmf-dist/tex/latex/graphics/graphicx.sty
INPUT /usr/share/texmf-dist/tex/latex/collectbox/collectbox.sty
INPUT /usr/share/texmf-dist/tex/latex/collectbox/collectbox.sty
INPUT /usr/share/texmf-dist/tex/latex/collectbox/collectbox.sty
INPUT /usr/share/texmf-dist/tex/latex/collectbox/collectbox.sty
INPUT /usr/share/texmf-dist/tex/latex/collectbox/collectbox.sty
INPUT /usr/share/texmf-dist/tex/latex/collectbox/collectbox.sty
INPUT /usr/share/texmf-dist/tex/latex/collectbox/collectbox.sty
INPUT /usr/share/texmf-dist/tex/latex/collectbox/collectbox.sty
INPUT /usr/share/texmf-dist/tex/latex/collectbox/collectbox.sty
INPUT /usr/share/texmf-dist/tex/latex/collectbox/collectbox.sty
INPUT /usr/share/texmf-dist/tex/latex/collectbox/collectbox.sty
INPUT /usr/share/texmf-dist/tex/latex/adjustbox/adjcalc.sty
INPUT /usr/share/texmf-dist/tex/latex/adjustbox/tc-pdftex.def
INPUT /usr/share/texmf-dist/tex/latex/adjustbox/tc-pdftex.def
INPUT /usr/share/texmf-dist/tex/latex/adjustbox/tc-pdftex.def
INPUT /usr/share/texmf-dist/tex/latex/adjustbox/tc-pdftex.def
INPUT /usr/share/texmf-dist/tex/latex/graphics/graphicx.sty
INPUT /usr/share/texmf-dist/tex/latex/collectbox/collectbox.sty
INPUT /usr/share/texmf-dist/tex/latex/ifoddpage/ifoddpage.sty
INPUT /usr/share/texmf-dist/tex/latex/ifoddpage/ifoddpage.sty
INPUT /usr/share/texmf-dist/tex/latex/ifoddpage/ifoddpage.sty
INPUT /usr/share/texmf-dist/tex/latex/ifoddpage/ifoddpage.sty
INPUT /usr/share/texmf-dist/tex/latex/ifoddpage/ifoddpage.sty
INPUT /usr/share/texmf-dist/tex/latex/ifoddpage/ifoddpage.sty
INPUT /usr/share/texmf-dist/tex/latex/ifoddpage/ifoddpage.sty
INPUT /usr/share/texmf-dist/tex/latex/ifoddpage/ifoddpage.sty
INPUT /usr/share/texmf-dist/tex/latex/ifoddpage/ifoddpage.sty
INPUT /usr/share/texmf-dist/tex/latex/ifoddpage/ifoddpage.sty
INPUT /usr/share/texmf-dist/tex/latex/ifoddpage/ifoddpage.sty
INPUT /usr/share/texmf-dist/tex/latex/ifoddpage/ifoddpage.sty
INPUT /usr/share/texmf-dist/tex/latex/ifoddpage/ifoddpage.sty
INPUT /usr/share/texmf-dist/tex/latex/varwidth/varwidth.sty
INPUT /usr/share/texmf-dist/tex/latex/varwidth/varwidth.sty
INPUT /usr/share/texmf-dist/tex/latex/varwidth/varwidth.sty
INPUT /usr/share/texmf-dist/tex/latex/varwidth/varwidth.sty
INPUT /usr/share/texmf-dist/tex/latex/varwidth/varwidth.sty
INPUT /usr/share/texmf-dist/tex/latex/varwidth/varwidth.sty
INPUT /usr/share/texmf-dist/tex/latex/varwidth/varwidth.sty
INPUT /usr/share/texmf-dist/tex/latex/varwidth/varwidth.sty
INPUT /usr/share/texmf-dist/tex/latex/varwidth/varwidth.sty
INPUT /usr/share/texmf-dist/tex/latex/varwidth/varwidth.sty
INPUT /usr/share/texmf-dist/tex/latex/varwidth/varwidth.sty
INPUT /usr/share/texmf-dist/tex/latex/varwidth/varwidth.sty
INPUT /usr/share/texmf-dist/tex/latex/varwidth/varwidth.sty
INPUT /usr/share/texmf-dist/tex/latex/hyperref/hyperref.sty
INPUT /usr/share/texmf-dist/tex/latex/hyperref/hyperref.sty
INPUT /usr/share/texmf-dist/tex/latex/hyperref/hyperref.sty
INPUT /usr/share/texmf-dist/tex/latex/hyperref/hyperref.sty
INPUT /usr/share/texmf-dist/tex/latex/hyperref/hyperref.sty
INPUT /usr/share/texmf-dist/tex/latex/hyperref/hyperref.sty
INPUT /usr/share/texmf-dist/tex/latex/hyperref/hyperref.sty
INPUT /usr/share/texmf-dist/tex/latex/hyperref/hyperref.sty
INPUT /usr/share/texmf-dist/tex/latex/hyperref/hyperref.sty
INPUT /usr/share/texmf-dist/tex/latex/hyperref/hyperref.sty
INPUT /usr/share/texmf-dist/tex/latex/hyperref/hyperref.sty
INPUT /usr/share/texmf-dist/tex/generic/ltxcmds/ltxcmds.sty
INPUT /usr/share/texmf-dist/tex/generic/iftex/iftex.sty
INPUT /usr/share/texmf-dist/tex/generic/pdftexcmds/pdftexcmds.sty
INPUT /usr/share/texmf-dist/tex/generic/pdftexcmds/pdftexcmds.sty
INPUT /usr/share/texmf-dist/tex/generic/pdftexcmds/pdftexcmds.sty
INPUT /usr/share/texmf-dist/tex/generic/pdftexcmds/pdftexcmds.sty
INPUT /usr/share/texmf-dist/tex/generic/pdftexcmds/pdftexcmds.sty
INPUT /usr/share/texmf-dist/tex/generic/pdftexcmds/pdftexcmds.sty
INPUT /usr/share/texmf-dist/tex/generic/pdftexcmds/pdftexcmds.sty
INPUT /usr/share/texmf-dist/tex/generic/pdftexcmds/pdftexcmds.sty
INPUT /usr/share/texmf-dist/tex/generic/pdftexcmds/pdftexcmds.sty
INPUT /usr/share/texmf-dist/tex/generic/pdftexcmds/pdftexcmds.sty
INPUT /usr/share/texmf-dist/tex/generic/pdftexcmds/pdftexcmds.sty
INPUT /usr/share/texmf-dist/tex/generic/infwarerr/infwarerr.sty
INPUT /usr/share/texmf-dist/tex/generic/iftex/iftex.sty
INPUT /usr/share/texmf-dist/tex/generic/ltxcmds/ltxcmds.sty
INPUT /usr/share/texmf-dist/tex/generic/infwarerr/infwarerr.sty
INPUT /usr/share/texmf-dist/tex/latex/graphics/keyval.sty
INPUT /usr/share/texmf-dist/tex/generic/kvsetkeys/kvsetkeys.sty
INPUT /usr/share/texmf-dist/tex/generic/kvdefinekeys/kvdefinekeys.sty
INPUT /usr/share/texmf-dist/tex/generic/kvdefinekeys/kvdefinekeys.sty
INPUT /usr/share/texmf-dist/tex/generic/kvdefinekeys/kvdefinekeys.sty
INPUT /usr/share/texmf-dist/tex/generic/kvdefinekeys/kvdefinekeys.sty
INPUT /usr/share/texmf-dist/tex/generic/kvdefinekeys/kvdefinekeys.sty
INPUT /usr/share/texmf-dist/tex/generic/kvdefinekeys/kvdefinekeys.sty
INPUT /usr/share/texmf-dist/tex/generic/kvdefinekeys/kvdefinekeys.sty
INPUT /usr/share/texmf-dist/tex/generic/kvdefinekeys/kvdefinekeys.sty
INPUT /usr/share/texmf-dist/tex/generic/kvdefinekeys/kvdefinekeys.sty
INPUT /usr/share/texmf-dist/tex/generic/kvdefinekeys/kvdefinekeys.sty
INPUT /usr/share/texmf-dist/tex/generic/kvdefinekeys/kvdefinekeys.sty
INPUT /usr/share/texmf-dist/tex/generic/pdfescape/pdfescape.sty
INPUT /usr/share/texmf-dist/tex/generic/pdfescape/pdfescape.sty
INPUT /usr/share/texmf-dist/tex/generic/pdfescape/pdfescape.sty
INPUT /usr/share/texmf-dist/tex/generic/pdfescape/pdfescape.sty
INPUT /usr/share/texmf-dist/tex/generic/pdfescape/pdfescape.sty
INPUT /usr/share/texmf-dist/tex/generic/pdfescape/pdfescape.sty
INPUT /usr/share/texmf-dist/tex/generic/pdfescape/pdfescape.sty
INPUT /usr/share/texmf-dist/tex/generic/pdfescape/pdfescape.sty
INPUT /usr/share/texmf-dist/tex/generic/pdfescape/pdfescape.sty
INPUT /usr/share/texmf-dist/tex/generic/pdfescape/pdfescape.sty
INPUT /usr/share/texmf-dist/tex/generic/pdfescape/pdfescape.sty
INPUT /usr/share/texmf-dist/tex/generic/ltxcmds/ltxcmds.sty
INPUT /usr/share/texmf-dist/tex/generic/pdftexcmds/pdftexcmds.sty
INPUT /usr/share/texmf-dist/tex/latex/hycolor/hycolor.sty
INPUT /usr/share/texmf-dist/tex/latex/hycolor/hycolor.sty
INPUT /usr/share/texmf-dist/tex/latex/hycolor/hycolor.sty
INPUT /usr/share/texmf-dist/tex/latex/hycolor/hycolor.sty
INPUT /usr/share/texmf-dist/tex/latex/hycolor/hycolor.sty
INPUT /usr/share/texmf-dist/tex/latex/hycolor/hycolor.sty
INPUT /usr/share/texmf-dist/tex/latex/hycolor/hycolor.sty
INPUT /usr/share/texmf-dist/tex/latex/hycolor/hycolor.sty
INPUT /usr/share/texmf-dist/tex/latex/hycolor/hycolor.sty
INPUT /usr/share/texmf-dist/tex/latex/hycolor/hycolor.sty
INPUT /usr/share/texmf-dist/tex/latex/hycolor/hycolor.sty
INPUT /usr/share/texmf-dist/tex/latex/letltxmacro/letltxmacro.sty
INPUT /usr/share/texmf-dist/tex/latex/letltxmacro/letltxmacro.sty
INPUT /usr/share/texmf-dist/tex/latex/letltxmacro/letltxmacro.sty
INPUT /usr/share/texmf-dist/tex/latex/letltxmacro/letltxmacro.sty
INPUT /usr/share/texmf-dist/tex/latex/letltxmacro/letltxmacro.sty
INPUT /usr/share/texmf-dist/tex/latex/letltxmacro/letltxmacro.sty
INPUT /usr/share/texmf-dist/tex/latex/letltxmacro/letltxmacro.sty
INPUT /usr/share/texmf-dist/tex/latex/letltxmacro/letltxmacro.sty
INPUT /usr/share/texmf-dist/tex/latex/letltxmacro/letltxmacro.sty
INPUT /usr/share/texmf-dist/tex/latex/letltxmacro/letltxmacro.sty
INPUT /usr/share/texmf-dist/tex/latex/letltxmacro/letltxmacro.sty
INPUT /usr/share/texmf-dist/tex/latex/auxhook/auxhook.sty
INPUT /usr/share/texmf-dist/tex/latex/auxhook/auxhook.sty
INPUT /usr/share/texmf-dist/tex/latex/auxhook/auxhook.sty
INPUT /usr/share/texmf-dist/tex/latex/auxhook/auxhook.sty
INPUT /usr/share/texmf-dist/tex/latex/auxhook/auxhook.sty
INPUT /usr/share/texmf-dist/tex/latex/auxhook/auxhook.sty
INPUT /usr/share/texmf-dist/tex/latex/auxhook/auxhook.sty
INPUT /usr/share/texmf-dist/tex/latex/auxhook/auxhook.sty
INPUT /usr/share/texmf-dist/tex/latex/auxhook/auxhook.sty
INPUT /usr/share/texmf-dist/tex/latex/auxhook/auxhook.sty
INPUT /usr/share/texmf-dist/tex/latex/auxhook/auxhook.sty
INPUT /usr/share/texmf-dist/tex/latex/kvoptions/kvoptions.sty
INPUT /usr/share/texmf-dist/tex/latex/hyperref/pd1enc.def
INPUT /usr/share/texmf-dist/tex/latex/hyperref/pd1enc.def
INPUT /usr/share/texmf-dist/tex/latex/hyperref/pd1enc.def
INPUT /usr/share/texmf-dist/tex/latex/hyperref/pd1enc.def
INPUT /usr/share/texmf-dist/tex/generic/intcalc/intcalc.sty
INPUT /usr/share/texmf-dist/tex/generic/intcalc/intcalc.sty
INPUT /usr/share/texmf-dist/tex/generic/intcalc/intcalc.sty
INPUT /usr/share/texmf-dist/tex/generic/intcalc/intcalc.sty
INPUT /usr/share/texmf-dist/tex/generic/intcalc/intcalc.sty
INPUT /usr/share/texmf-dist/tex/generic/intcalc/intcalc.sty
INPUT /usr/share/texmf-dist/tex/generic/intcalc/intcalc.sty
INPUT /usr/share/texmf-dist/tex/generic/intcalc/intcalc.sty
INPUT /usr/share/texmf-dist/tex/generic/intcalc/intcalc.sty
INPUT /usr/share/texmf-dist/tex/generic/intcalc/intcalc.sty
INPUT /usr/share/texmf-dist/tex/generic/intcalc/intcalc.sty
INPUT /usr/share/texmf-dist/tex/generic/etexcmds/etexcmds.sty
INPUT /usr/share/texmf-dist/tex/generic/etexcmds/etexcmds.sty
INPUT /usr/share/texmf-dist/tex/generic/etexcmds/etexcmds.sty
INPUT /usr/share/texmf-dist/tex/generic/etexcmds/etexcmds.sty
INPUT /usr/share/texmf-dist/tex/generic/etexcmds/etexcmds.sty
INPUT /usr/share/texmf-dist/tex/generic/etexcmds/etexcmds.sty
INPUT /usr/share/texmf-dist/tex/generic/etexcmds/etexcmds.sty
INPUT /usr/share/texmf-dist/tex/generic/etexcmds/etexcmds.sty
INPUT /usr/share/texmf-dist/tex/generic/etexcmds/etexcmds.sty
INPUT /usr/share/texmf-dist/tex/generic/etexcmds/etexcmds.sty
INPUT /usr/share/texmf-dist/tex/generic/etexcmds/etexcmds.sty
INPUT /usr/share/texmf-dist/tex/generic/infwarerr/infwarerr.sty
INPUT /usr/share/texmf-dist/tex/generic/iftex/iftex.sty
INPUT /usr/share/texmf-dist/tex/latex/hyperref/puenc.def
INPUT /usr/share/texmf-dist/tex/latex/hyperref/puenc.def
INPUT /usr/share/texmf-dist/tex/latex/hyperref/puenc.def
INPUT /usr/share/texmf-dist/tex/latex/hyperref/puenc.def
INPUT /usr/share/texmf-dist/tex/latex/url/url.sty
INPUT /usr/share/texmf-dist/tex/latex/url/url.sty
INPUT /usr/share/texmf-dist/tex/latex/url/url.sty
INPUT /usr/share/texmf-dist/tex/latex/url/url.sty
INPUT /usr/share/texmf-dist/tex/latex/url/url.sty
INPUT /usr/share/texmf-dist/tex/latex/url/url.sty
INPUT /usr/share/texmf-dist/tex/latex/url/url.sty
INPUT /usr/share/texmf-dist/tex/latex/url/url.sty
INPUT /usr/share/texmf-dist/tex/latex/url/url.sty
INPUT /usr/share/texmf-dist/tex/latex/url/url.sty
INPUT /usr/share/texmf-dist/tex/latex/url/url.sty
INPUT /usr/share/texmf-dist/tex/generic/bitset/bitset.sty
INPUT /usr/share/texmf-dist/tex/generic/bitset/bitset.sty
INPUT /usr/share/texmf-dist/tex/generic/bitset/bitset.sty
INPUT /usr/share/texmf-dist/tex/generic/bitset/bitset.sty
INPUT /usr/share/texmf-dist/tex/generic/bitset/bitset.sty
INPUT /usr/share/texmf-dist/tex/generic/bitset/bitset.sty
INPUT /usr/share/texmf-dist/tex/generic/bitset/bitset.sty
INPUT /usr/share/texmf-dist/tex/generic/bitset/bitset.sty
INPUT /usr/share/texmf-dist/tex/generic/bitset/bitset.sty
INPUT /usr/share/texmf-dist/tex/generic/bitset/bitset.sty
INPUT /usr/share/texmf-dist/tex/generic/bitset/bitset.sty
INPUT /usr/share/texmf-dist/tex/generic/infwarerr/infwarerr.sty
INPUT /usr/share/texmf-dist/tex/generic/intcalc/intcalc.sty
INPUT /usr/share/texmf-dist/tex/generic/bigintcalc/bigintcalc.sty
INPUT /usr/share/texmf-dist/tex/generic/bigintcalc/bigintcalc.sty
INPUT /usr/share/texmf-dist/tex/generic/bigintcalc/bigintcalc.sty
INPUT /usr/share/texmf-dist/tex/generic/bigintcalc/bigintcalc.sty
INPUT /usr/share/texmf-dist/tex/generic/bigintcalc/bigintcalc.sty
INPUT /usr/share/texmf-dist/tex/generic/bigintcalc/bigintcalc.sty
INPUT /usr/share/texmf-dist/tex/generic/bigintcalc/bigintcalc.sty
INPUT /usr/share/texmf-dist/tex/generic/bigintcalc/bigintcalc.sty
INPUT /usr/share/texmf-dist/tex/generic/bigintcalc/bigintcalc.sty
INPUT /usr/share/texmf-dist/tex/generic/bigintcalc/bigintcalc.sty
INPUT /usr/share/texmf-dist/tex/generic/bigintcalc/bigintcalc.sty
INPUT /usr/share/texmf-dist/tex/generic/pdftexcmds/pdftexcmds.sty
INPUT /usr/share/texmf-dist/tex/generic/atbegshi/atbegshi.sty
INPUT /usr/share/texmf-dist/tex/generic/atbegshi/atbegshi.sty
INPUT /usr/share/texmf-dist/tex/generic/atbegshi/atbegshi.sty
INPUT /usr/share/texmf-dist/tex/latex/base/atbegshi-ltx.sty
INPUT /usr/share/texmf-dist/tex/generic/atbegshi/atbegshi.sty
INPUT /usr/share/texmf-dist/tex/generic/atbegshi/atbegshi.sty
INPUT /usr/share/texmf-dist/tex/latex/base/atbegshi-ltx.sty
INPUT /usr/share/texmf-dist/tex/generic/atbegshi/atbegshi.sty
INPUT /usr/share/texmf-dist/tex/latex/base/atbegshi-ltx.sty
INPUT /usr/share/texmf-dist/tex/latex/base/atbegshi-ltx.sty
INPUT /usr/share/texmf-dist/tex/generic/atbegshi/atbegshi.sty
INPUT /usr/share/texmf-dist/tex/generic/atbegshi/atbegshi.sty
INPUT /usr/share/texmf-dist/tex/latex/base/atbegshi-ltx.sty
INPUT /usr/share/texmf-dist/tex/latex/base/atbegshi-ltx.sty
INPUT /usr/share/texmf-dist/tex/generic/atbegshi/atbegshi.sty
INPUT /usr/share/texmf-dist/tex/latex/base/atbegshi-ltx.sty
INPUT /usr/share/texmf-dist/tex/latex/hyperref/hpdftex.def
INPUT /usr/share/texmf-dist/tex/latex/hyperref/hpdftex.def
INPUT /usr/share/texmf-dist/tex/latex/hyperref/hpdftex.def
INPUT /usr/share/texmf-dist/tex/latex/hyperref/hpdftex.def
INPUT /usr/share/texmf-dist/tex/latex/atveryend/atveryend.sty
INPUT /usr/share/texmf-dist/tex/latex/atveryend/atveryend.sty
INPUT /usr/share/texmf-dist/tex/latex/atveryend/atveryend.sty
INPUT /usr/share/texmf-dist/tex/latex/base/atveryend-ltx.sty
INPUT /usr/share/texmf-dist/tex/latex/atveryend/atveryend.sty
INPUT /usr/share/texmf-dist/tex/latex/atveryend/atveryend.sty
INPUT /usr/share/texmf-dist/tex/latex/base/atveryend-ltx.sty
INPUT /usr/share/texmf-dist/tex/latex/atveryend/atveryend.sty
INPUT /usr/share/texmf-dist/tex/latex/base/atveryend-ltx.sty
INPUT /usr/share/texmf-dist/tex/latex/base/atveryend-ltx.sty
INPUT /usr/share/texmf-dist/tex/latex/atveryend/atveryend.sty
INPUT /usr/share/texmf-dist/tex/latex/atveryend/atveryend.sty
INPUT /usr/share/texmf-dist/tex/latex/base/atveryend-ltx.sty
INPUT /usr/share/texmf-dist/tex/latex/base/atveryend-ltx.sty
INPUT /usr/share/texmf-dist/tex/latex/atveryend/atveryend.sty
INPUT /usr/share/texmf-dist/tex/latex/base/atveryend-ltx.sty
INPUT /usr/share/texmf-dist/tex/latex/rerunfilecheck/rerunfilecheck.sty
INPUT /usr/share/texmf-dist/tex/latex/rerunfilecheck/rerunfilecheck.sty
INPUT /usr/share/texmf-dist/tex/latex/rerunfilecheck/rerunfilecheck.sty
INPUT /usr/share/texmf-dist/tex/latex/rerunfilecheck/rerunfilecheck.sty
INPUT /usr/share/texmf-dist/tex/latex/rerunfilecheck/rerunfilecheck.sty
INPUT /usr/share/texmf-dist/tex/latex/rerunfilecheck/rerunfilecheck.sty
INPUT /usr/share/texmf-dist/tex/latex/rerunfilecheck/rerunfilecheck.sty
INPUT /usr/share/texmf-dist/tex/latex/rerunfilecheck/rerunfilecheck.sty
INPUT /usr/share/texmf-dist/tex/latex/rerunfilecheck/rerunfilecheck.sty
INPUT /usr/share/texmf-dist/tex/latex/rerunfilecheck/rerunfilecheck.sty
INPUT /usr/share/texmf-dist/tex/latex/rerunfilecheck/rerunfilecheck.sty
INPUT /usr/share/texmf-dist/tex/latex/kvoptions/kvoptions.sty
INPUT /usr/share/texmf-dist/tex/generic/infwarerr/infwarerr.sty
INPUT /usr/share/texmf-dist/tex/generic/pdftexcmds/pdftexcmds.sty
INPUT /usr/share/texmf-dist/tex/latex/atveryend/atveryend.sty
INPUT /usr/share/texmf-dist/tex/generic/uniquecounter/uniquecounter.sty
INPUT /usr/share/texmf-dist/tex/generic/uniquecounter/uniquecounter.sty
INPUT /usr/share/texmf-dist/tex/generic/uniquecounter/uniquecounter.sty
INPUT /usr/share/texmf-dist/tex/generic/uniquecounter/uniquecounter.sty
INPUT /usr/share/texmf-dist/tex/generic/uniquecounter/uniquecounter.sty
INPUT /usr/share/texmf-dist/tex/generic/uniquecounter/uniquecounter.sty
INPUT /usr/share/texmf-dist/tex/generic/uniquecounter/uniquecounter.sty
INPUT /usr/share/texmf-dist/tex/generic/uniquecounter/uniquecounter.sty
INPUT /usr/share/texmf-dist/tex/generic/uniquecounter/uniquecounter.sty
INPUT /usr/share/texmf-dist/tex/generic/uniquecounter/uniquecounter.sty
INPUT /usr/share/texmf-dist/tex/generic/uniquecounter/uniquecounter.sty
INPUT /usr/share/texmf-dist/tex/generic/bigintcalc/bigintcalc.sty
INPUT /usr/share/texmf-dist/tex/generic/infwarerr/infwarerr.sty
INPUT /usr/share/texmf-dist/tex/latex/titling/titling.sty
INPUT /usr/share/texmf-dist/tex/latex/titling/titling.sty
INPUT /usr/share/texmf-dist/tex/latex/titling/titling.sty
INPUT /usr/share/texmf-dist/tex/latex/titling/titling.sty
INPUT /usr/share/texmf-dist/tex/latex/titling/titling.sty
INPUT /usr/share/texmf-dist/tex/latex/titling/titling.sty
INPUT /usr/share/texmf-dist/tex/latex/titling/titling.sty
INPUT /usr/share/texmf-dist/tex/latex/titling/titling.sty
INPUT /usr/share/texmf-dist/tex/latex/titling/titling.sty
INPUT /usr/share/texmf-dist/tex/latex/titling/titling.sty
INPUT /usr/share/texmf-dist/tex/latex/titling/titling.sty
INPUT /usr/share/texmf-dist/tex/latex/tools/longtable.sty
INPUT /usr/share/texmf-dist/tex/latex/tools/longtable.sty
INPUT /usr/share/texmf-dist/tex/latex/tools/longtable.sty
INPUT /usr/share/texmf-dist/tex/latex/tools/longtable.sty
INPUT /usr/share/texmf-dist/tex/latex/tools/longtable.sty
INPUT /usr/share/texmf-dist/tex/latex/tools/longtable.sty
INPUT /usr/share/texmf-dist/tex/latex/tools/longtable.sty
INPUT /usr/share/texmf-dist/tex/latex/tools/longtable.sty
INPUT /usr/share/texmf-dist/tex/latex/tools/longtable.sty
INPUT /usr/share/texmf-dist/tex/latex/tools/longtable.sty
INPUT /usr/share/texmf-dist/tex/latex/tools/longtable.sty
INPUT /usr/share/texmf-dist/tex/latex/booktabs/booktabs.sty
INPUT /usr/share/texmf-dist/tex/latex/booktabs/booktabs.sty
INPUT /usr/share/texmf-dist/tex/latex/booktabs/booktabs.sty
INPUT /usr/share/texmf-dist/tex/latex/booktabs/booktabs.sty
INPUT /usr/share/texmf-dist/tex/latex/booktabs/booktabs.sty
INPUT /usr/share/texmf-dist/tex/latex/booktabs/booktabs.sty
INPUT /usr/share/texmf-dist/tex/latex/booktabs/booktabs.sty
INPUT /usr/share/texmf-dist/tex/latex/booktabs/booktabs.sty
INPUT /usr/share/texmf-dist/tex/latex/booktabs/booktabs.sty
INPUT /usr/share/texmf-dist/tex/latex/booktabs/booktabs.sty
INPUT /usr/share/texmf-dist/tex/latex/booktabs/booktabs.sty
INPUT /usr/share/texmf-dist/tex/latex/tools/array.sty
INPUT /usr/share/texmf-dist/tex/latex/tools/array.sty
INPUT /usr/share/texmf-dist/tex/latex/tools/array.sty
INPUT /usr/share/texmf-dist/tex/latex/tools/array.sty
INPUT /usr/share/texmf-dist/tex/latex/tools/array.sty
INPUT /usr/share/texmf-dist/tex/latex/tools/array.sty
INPUT /usr/share/texmf-dist/tex/latex/tools/array.sty
INPUT /usr/share/texmf-dist/tex/latex/tools/array.sty
INPUT /usr/share/texmf-dist/tex/latex/tools/array.sty
INPUT /usr/share/texmf-dist/tex/latex/tools/array.sty
INPUT /usr/share/texmf-dist/tex/latex/tools/array.sty
INPUT /usr/share/texmf-dist/tex/latex/tools/calc.sty
INPUT /usr/share/texmf-dist/tex/latex/tools/calc.sty
INPUT /usr/share/texmf-dist/tex/latex/tools/calc.sty
INPUT /usr/share/texmf-dist/tex/latex/tools/calc.sty
INPUT /usr/share/texmf-dist/tex/latex/tools/calc.sty
INPUT /usr/share/texmf-dist/tex/latex/tools/calc.sty
INPUT /usr/share/texmf-dist/tex/latex/tools/calc.sty
INPUT /usr/share/texmf-dist/tex/latex/tools/calc.sty
INPUT /usr/share/texmf-dist/tex/latex/tools/calc.sty
INPUT /usr/share/texmf-dist/tex/latex/tools/calc.sty
INPUT /usr/share/texmf-dist/tex/latex/tools/calc.sty
INPUT /usr/share/texmf-dist/tex/latex/enumitem/enumitem.sty
INPUT /usr/share/texmf-dist/tex/latex/enumitem/enumitem.sty
INPUT /usr/share/texmf-dist/tex/latex/enumitem/enumitem.sty
INPUT /usr/share/texmf-dist/tex/latex/enumitem/enumitem.sty
INPUT /usr/share/texmf-dist/tex/latex/enumitem/enumitem.sty
INPUT /usr/share/texmf-dist/tex/latex/enumitem/enumitem.sty
INPUT /usr/share/texmf-dist/tex/latex/enumitem/enumitem.sty
INPUT /usr/share/texmf-dist/tex/latex/enumitem/enumitem.sty
INPUT /usr/share/texmf-dist/tex/latex/enumitem/enumitem.sty
INPUT /usr/share/texmf-dist/tex/latex/enumitem/enumitem.sty
INPUT /usr/share/texmf-dist/tex/latex/enumitem/enumitem.sty
INPUT /usr/share/texmf-dist/tex/generic/ulem/ulem.sty
INPUT /usr/share/texmf-dist/tex/generic/ulem/ulem.sty
INPUT /usr/share/texmf-dist/tex/generic/ulem/ulem.sty
INPUT /usr/share/texmf-dist/tex/generic/ulem/ulem.sty
INPUT /usr/share/texmf-dist/tex/generic/ulem/ulem.sty
INPUT /usr/share/texmf-dist/tex/generic/ulem/ulem.sty
INPUT /usr/share/texmf-dist/tex/generic/ulem/ulem.sty
INPUT /usr/share/texmf-dist/tex/generic/ulem/ulem.sty
INPUT /usr/share/texmf-dist/tex/generic/ulem/ulem.sty
INPUT /usr/share/texmf-dist/tex/generic/ulem/ulem.sty
INPUT /usr/share/texmf-dist/tex/generic/ulem/ulem.sty
INPUT /usr/share/texmf-dist/fonts/tfm/public/latex-fonts/lasy6.tfm
INPUT /usr/share/texmf-dist/tex/latex/jknapltx/mathrsfs.sty
INPUT /usr/share/texmf-dist/tex/latex/jknapltx/mathrsfs.sty
INPUT /usr/share/texmf-dist/tex/latex/jknapltx/mathrsfs.sty
INPUT /usr/share/texmf-dist/tex/latex/jknapltx/mathrsfs.sty
INPUT /usr/share/texmf-dist/tex/latex/jknapltx/mathrsfs.sty
INPUT /usr/share/texmf-dist/tex/latex/jknapltx/mathrsfs.sty
INPUT /usr/share/texmf-dist/tex/latex/jknapltx/mathrsfs.sty
INPUT /usr/share/texmf-dist/tex/latex/jknapltx/mathrsfs.sty
INPUT /usr/share/texmf-dist/tex/latex/jknapltx/mathrsfs.sty
INPUT /usr/share/texmf-dist/tex/latex/jknapltx/mathrsfs.sty
INPUT /usr/share/texmf-dist/tex/latex/jknapltx/mathrsfs.sty
INPUT /usr/share/texmf-dist/tex/generic/babel/babel.sty
INPUT /usr/share/texmf-dist/tex/generic/babel/babel.sty
INPUT /usr/share/texmf-dist/tex/generic/babel/babel.sty
INPUT /usr/share/texmf-dist/tex/generic/babel/babel.sty
INPUT /usr/share/texmf-dist/tex/generic/babel/babel.sty
INPUT /usr/share/texmf-dist/tex/generic/babel/babel.sty
INPUT /usr/share/texmf-dist/tex/generic/babel/babel.sty
INPUT /usr/share/texmf-dist/tex/generic/babel/babel.sty
INPUT /usr/share/texmf-dist/tex/generic/babel/babel.sty
INPUT /usr/share/texmf-dist/tex/generic/babel/babel.sty
INPUT /usr/share/texmf-dist/tex/generic/babel/babel.sty
INPUT /usr/share/texmf-dist/tex/generic/babel/txtbabel.def
INPUT /usr/share/texmf-dist/tex/generic/babel-spanish/spanish.ldf
INPUT /usr/share/texmf-dist/tex/generic/babel-spanish/spanish.ldf
INPUT /usr/share/texmf-dist/tex/generic/babel-spanish/spanish.ldf
INPUT /usr/share/texmf-dist/tex/generic/babel-spanish/spanish.ldf
INPUT /usr/share/texmf-dist/tex/latex/l3backend/l3backend-pdftex.def
INPUT /usr/share/texmf-dist/tex/latex/l3backend/l3backend-pdftex.def
INPUT /usr/share/texmf-dist/tex/latex/l3backend/l3backend-pdftex.def
INPUT /usr/share/texmf-dist/tex/latex/l3backend/l3backend-pdftex.def
INPUT /usr/share/texmf-dist/tex/latex/l3backend/l3backend-pdftex.def
INPUT /usr/share/texmf-dist/tex/latex/l3backend/l3backend-pdftex.def
INPUT /usr/share/texmf-dist/tex/latex/l3backend/l3backend-pdftex.def
INPUT /usr/share/texmf-dist/tex/latex/l3backend/l3backend-pdftex.def
INPUT /usr/share/texmf-dist/tex/latex/l3backend/l3backend-pdftex.def
INPUT /usr/share/texmf-dist/tex/latex/l3backend/l3backend-pdftex.def
INPUT /usr/share/texmf-dist/tex/latex/l3backend/l3backend-pdftex.def
INPUT ./informe.aux
INPUT informe.aux
INPUT informe.aux
OUTPUT informe.aux
INPUT /usr/share/texmf-dist/tex/context/base/mkii/supp-pdf.mkii
INPUT /usr/share/texmf-dist/tex/context/base/mkii/supp-pdf.mkii
INPUT /usr/share/texmf-dist/tex/context/base/mkii/supp-pdf.mkii
INPUT /usr/share/texmf-dist/tex/context/base/mkii/supp-pdf.mkii
INPUT /usr/share/texmf-dist/tex/latex/epstopdf-pkg/epstopdf-base.sty
INPUT /usr/share/texmf-dist/tex/latex/epstopdf-pkg/epstopdf-base.sty
INPUT /usr/share/texmf-dist/tex/latex/epstopdf-pkg/epstopdf-base.sty
INPUT /usr/share/texmf-dist/tex/latex/epstopdf-pkg/epstopdf-base.sty
INPUT /usr/share/texmf-dist/tex/latex/epstopdf-pkg/epstopdf-base.sty
INPUT /usr/share/texmf-dist/tex/latex/epstopdf-pkg/epstopdf-base.sty
INPUT /usr/share/texmf-dist/tex/latex/epstopdf-pkg/epstopdf-base.sty
INPUT /usr/share/texmf-dist/tex/latex/epstopdf-pkg/epstopdf-base.sty
INPUT /usr/share/texmf-dist/tex/latex/epstopdf-pkg/epstopdf-base.sty
INPUT /usr/share/texmf-dist/tex/latex/epstopdf-pkg/epstopdf-base.sty
INPUT /usr/share/texmf-dist/tex/latex/epstopdf-pkg/epstopdf-base.sty
INPUT /usr/share/texmf-dist/tex/generic/infwarerr/infwarerr.sty
INPUT /usr/share/texmf-dist/tex/latex/grfext/grfext.sty
INPUT /usr/share/texmf-dist/tex/latex/grfext/grfext.sty
INPUT /usr/share/texmf-dist/tex/latex/grfext/grfext.sty
INPUT /usr/share/texmf-dist/tex/latex/grfext/grfext.sty
INPUT /usr/share/texmf-dist/tex/latex/grfext/grfext.sty
INPUT /usr/share/texmf-dist/tex/latex/grfext/grfext.sty
INPUT /usr/share/texmf-dist/tex/latex/grfext/grfext.sty
INPUT /usr/share/texmf-dist/tex/latex/grfext/grfext.sty
INPUT /usr/share/texmf-dist/tex/latex/grfext/grfext.sty
INPUT /usr/share/texmf-dist/tex/latex/grfext/grfext.sty
INPUT /usr/share/texmf-dist/tex/latex/grfext/grfext.sty
INPUT /usr/share/texmf-dist/tex/generic/infwarerr/infwarerr.sty
INPUT /usr/share/texmf-dist/tex/generic/kvdefinekeys/kvdefinekeys.sty
INPUT /usr/share/texmf-dist/tex/latex/kvoptions/kvoptions.sty
INPUT /usr/share/texmf-dist/tex/generic/pdftexcmds/pdftexcmds.sty
INPUT /usr/share/texmf-dist/tex/latex/latexconfig/epstopdf-sys.cfg
INPUT /usr/share/texmf-dist/tex/latex/latexconfig/epstopdf-sys.cfg
INPUT /usr/share/texmf-dist/tex/latex/latexconfig/epstopdf-sys.cfg
INPUT /usr/share/texmf-dist/tex/latex/latexconfig/epstopdf-sys.cfg
INPUT /usr/share/texmf-dist/tex/latex/caption/ltcaption.sty
INPUT /usr/share/texmf-dist/tex/latex/caption/ltcaption.sty
INPUT /usr/share/texmf-dist/tex/latex/caption/ltcaption.sty
INPUT /usr/share/texmf-dist/tex/latex/caption/ltcaption.sty
INPUT /usr/share/texmf-dist/tex/latex/caption/ltcaption.sty
INPUT /usr/share/texmf-dist/tex/latex/caption/ltcaption.sty
INPUT /usr/share/texmf-dist/tex/latex/caption/ltcaption.sty
INPUT /usr/share/texmf-dist/tex/latex/caption/ltcaption.sty
INPUT /usr/share/texmf-dist/tex/latex/caption/ltcaption.sty
INPUT /usr/share/texmf-dist/tex/latex/caption/ltcaption.sty
INPUT /usr/share/texmf-dist/tex/latex/caption/ltcaption.sty
INPUT /usr/share/texmf-dist/tex/latex/ucs/ucsencs.def
INPUT /usr/share/texmf-dist/tex/latex/ucs/ucsencs.def
INPUT /usr/share/texmf-dist/tex/latex/ucs/ucsencs.def
INPUT /usr/share/texmf-dist/tex/latex/ucs/ucsencs.def
INPUT /usr/share/texmf-dist/tex/latex/graphics/color.sty
INPUT /usr/share/texmf-dist/tex/latex/hyperref/nameref.sty
INPUT /usr/share/texmf-dist/tex/latex/hyperref/nameref.sty
INPUT /usr/share/texmf-dist/tex/latex/hyperref/nameref.sty
INPUT /usr/share/texmf-dist/tex/latex/hyperref/nameref.sty
INPUT /usr/share/texmf-dist/tex/latex/hyperref/nameref.sty
INPUT /usr/share/texmf-dist/tex/latex/hyperref/nameref.sty
INPUT /usr/share/texmf-dist/tex/latex/hyperref/nameref.sty
INPUT /usr/share/texmf-dist/tex/latex/hyperref/nameref.sty
INPUT /usr/share/texmf-dist/tex/latex/hyperref/nameref.sty
INPUT /usr/share/texmf-dist/tex/latex/hyperref/nameref.sty
INPUT /usr/share/texmf-dist/tex/latex/hyperref/nameref.sty
INPUT /usr/share/texmf-dist/tex/latex/refcount/refcount.sty
INPUT /usr/share/texmf-dist/tex/latex/refcount/refcount.sty
INPUT /usr/share/texmf-dist/tex/latex/refcount/refcount.sty
INPUT /usr/share/texmf-dist/tex/latex/refcount/refcount.sty
INPUT /usr/share/texmf-dist/tex/latex/refcount/refcount.sty
INPUT /usr/share/texmf-dist/tex/latex/refcount/refcount.sty
INPUT /usr/share/texmf-dist/tex/latex/refcount/refcount.sty
INPUT /usr/share/texmf-dist/tex/latex/refcount/refcount.sty
INPUT /usr/share/texmf-dist/tex/latex/refcount/refcount.sty
INPUT /usr/share/texmf-dist/tex/latex/refcount/refcount.sty
INPUT /usr/share/texmf-dist/tex/latex/refcount/refcount.sty
INPUT /usr/share/texmf-dist/tex/generic/ltxcmds/ltxcmds.sty
INPUT /usr/share/texmf-dist/tex/generic/infwarerr/infwarerr.sty
INPUT /usr/share/texmf-dist/tex/generic/gettitlestring/gettitlestring.sty
INPUT /usr/share/texmf-dist/tex/generic/gettitlestring/gettitlestring.sty
INPUT /usr/share/texmf-dist/tex/generic/gettitlestring/gettitlestring.sty
INPUT /usr/share/texmf-dist/tex/generic/gettitlestring/gettitlestring.sty
INPUT /usr/share/texmf-dist/tex/generic/gettitlestring/gettitlestring.sty
INPUT /usr/share/texmf-dist/tex/generic/gettitlestring/gettitlestring.sty
INPUT /usr/share/texmf-dist/tex/generic/gettitlestring/gettitlestring.sty
INPUT /usr/share/texmf-dist/tex/generic/gettitlestring/gettitlestring.sty
INPUT /usr/share/texmf-dist/tex/generic/gettitlestring/gettitlestring.sty
INPUT /usr/share/texmf-dist/tex/generic/gettitlestring/gettitlestring.sty
INPUT /usr/share/texmf-dist/tex/generic/gettitlestring/gettitlestring.sty
INPUT /usr/share/texmf-dist/tex/latex/kvoptions/kvoptions.sty
INPUT /usr/share/texmf-dist/tex/generic/ltxcmds/ltxcmds.sty
INPUT ./informe.out
INPUT informe.out
INPUT ./informe.out
INPUT informe.out
INPUT ./informe.out
INPUT informe.out
INPUT ./informe.out
INPUT informe.out
OUTPUT informe.pdf
INPUT ./informe.out
INPUT ./informe.out
OUTPUT informe.out
INPUT /usr/share/texmf-dist/tex/latex/psnfss/t1phv.fd
INPUT /usr/share/texmf-dist/tex/latex/psnfss/t1phv.fd
INPUT /usr/share/texmf-dist/tex/latex/psnfss/t1phv.fd
INPUT /usr/share/texmf-dist/tex/latex/psnfss/t1phv.fd
INPUT /usr/share/texmf-dist/fonts/tfm/adobe/helvetic/phvr8t.tfm
INPUT ./img//UCT_logo.png
INPUT ./img//UCT_logo.png
INPUT img//UCT_logo.png
INPUT ./img//UCT_logo.png
INPUT ./img//UCT_logo.png
INPUT /usr/share/texmf-dist/fonts/tfm/adobe/helvetic/phvb8t.tfm
INPUT /usr/share/texmf-dist/fonts/tfm/adobe/helvetic/phvb8t.tfm
INPUT /usr/share/texmf-dist/tex/latex/ucs/data/uni-0.def
INPUT /usr/share/texmf-dist/tex/latex/ucs/data/uni-0.def
INPUT /usr/share/texmf-dist/tex/latex/ucs/data/uni-0.def
INPUT /usr/share/texmf-dist/tex/latex/ucs/data/uni-0.def
INPUT /usr/share/texmf-dist/fonts/tfm/adobe/helvetic/phvrc8t.tfm
INPUT /usr/share/texmf-dist/fonts/tfm/adobe/helvetic/phvrc8t.tfm
INPUT /usr/share/texmf-dist/fonts/tfm/adobe/helvetic/phvrc8t.tfm
INPUT /usr/share/texmf-dist/fonts/tfm/adobe/helvetic/phvro8t.tfm
INPUT /usr/share/texmf-dist/fonts/tfm/adobe/helvetic/phvro8t.tfm
INPUT /usr/share/texmf-dist/fonts/tfm/adobe/helvetic/phvr8t.tfm
INPUT /usr/share/texmf-dist/fonts/vf/adobe/helvetic/phvb8t.vf
INPUT /usr/share/texmf-dist/fonts/tfm/adobe/helvetic/phvb8r.tfm
INPUT /var/lib/texmf/fonts/map/pdftex/updmap/pdftex.map
INPUT /usr/share/texmf-dist/fonts/vf/adobe/helvetic/phvrc8t.vf
INPUT /usr/share/texmf-dist/fonts/tfm/adobe/helvetic/phvr8r.tfm
INPUT /usr/share/texmf-dist/fonts/tfm/adobe/helvetic/phvr8r.tfm
INPUT /usr/share/texmf-dist/fonts/vf/adobe/helvetic/phvrc8t.vf
INPUT /usr/share/texmf-dist/fonts/tfm/adobe/helvetic/phvr8r.tfm
INPUT /usr/share/texmf-dist/fonts/tfm/adobe/helvetic/phvr8r.tfm
INPUT /usr/share/texmf-dist/fonts/vf/adobe/helvetic/phvro8t.vf
INPUT /usr/share/texmf-dist/fonts/tfm/adobe/helvetic/phvro8r.tfm
INPUT /usr/share/texmf-dist/fonts/vf/adobe/helvetic/phvr8t.vf
INPUT /usr/share/texmf-dist/fonts/tfm/jknappen/ec/ecrm1728.tfm
INPUT /usr/share/texmf-dist/fonts/tfm/jknappen/ec/ecbx1728.tfm
INPUT /usr/share/texmf-dist/fonts/vf/adobe/helvetic/phvr8t.vf
INPUT /usr/share/texmf-dist/fonts/tfm/adobe/helvetic/phvr8r.tfm
INPUT /usr/share/texmf-dist/fonts/vf/adobe/helvetic/phvro8t.vf
INPUT /usr/share/texmf-dist/fonts/tfm/adobe/helvetic/phvro8r.tfm
INPUT /usr/share/texmf-dist/fonts/tfm/public/cm/cmr8.tfm
INPUT /usr/share/texmf-dist/fonts/tfm/public/cm/cmr6.tfm
INPUT /usr/share/texmf-dist/fonts/tfm/public/cm/cmmi12.tfm
INPUT /usr/share/texmf-dist/fonts/tfm/public/cm/cmmi8.tfm
INPUT /usr/share/texmf-dist/fonts/tfm/public/cm/cmmi6.tfm
INPUT /usr/share/texmf-dist/fonts/tfm/public/cm/cmsy10.tfm
INPUT /usr/share/texmf-dist/fonts/tfm/public/cm/cmsy8.tfm
INPUT /usr/share/texmf-dist/fonts/tfm/public/cm/cmsy6.tfm
INPUT /usr/share/texmf-dist/fonts/tfm/public/cm/cmex10.tfm
INPUT /usr/share/texmf-dist/fonts/tfm/public/amsfonts/cmextra/cmex8.tfm
INPUT /usr/share/texmf-dist/fonts/tfm/public/amsfonts/cmextra/cmex7.tfm
INPUT /usr/share/texmf-dist/tex/latex/amsfonts/umsa.fd
INPUT /usr/share/texmf-dist/tex/latex/amsfonts/umsa.fd
INPUT /usr/share/texmf-dist/tex/latex/amsfonts/umsa.fd
INPUT /usr/share/texmf-dist/tex/latex/amsfonts/umsa.fd
INPUT /usr/share/texmf-dist/fonts/tfm/public/amsfonts/symbols/msam10.tfm
INPUT /usr/share/texmf-dist/fonts/tfm/public/amsfonts/symbols/msam10.tfm
INPUT /usr/share/texmf-dist/fonts/tfm/public/amsfonts/symbols/msam7.tfm
INPUT /usr/share/texmf-dist/tex/latex/amsfonts/umsb.fd
INPUT /usr/share/texmf-dist/tex/latex/amsfonts/umsb.fd
INPUT /usr/share/texmf-dist/tex/latex/amsfonts/umsb.fd
INPUT /usr/share/texmf-dist/tex/latex/amsfonts/umsb.fd
INPUT /usr/share/texmf-dist/fonts/tfm/public/amsfonts/symbols/msbm10.tfm
INPUT /usr/share/texmf-dist/fonts/tfm/public/amsfonts/symbols/msbm10.tfm
INPUT /usr/share/texmf-dist/fonts/tfm/public/amsfonts/symbols/msbm7.tfm
INPUT /usr/share/texmf-dist/tex/latex/jknapltx/ursfs.fd
INPUT /usr/share/texmf-dist/tex/latex/jknapltx/ursfs.fd
INPUT /usr/share/texmf-dist/tex/latex/jknapltx/ursfs.fd
INPUT /usr/share/texmf-dist/tex/latex/jknapltx/ursfs.fd
INPUT /usr/share/texmf-dist/fonts/tfm/public/rsfs/rsfs10.tfm
INPUT /usr/share/texmf-dist/fonts/tfm/public/rsfs/rsfs10.tfm
INPUT /usr/share/texmf-dist/fonts/tfm/public/rsfs/rsfs5.tfm
INPUT /usr/share/texmf-dist/fonts/tfm/jknappen/ec/ecrm0800.tfm
INPUT /usr/share/texmf-dist/fonts/tfm/jknappen/ec/ecrm1000.tfm
INPUT /usr/share/texmf-dist/fonts/tfm/public/amsfonts/cmextra/cmex7.tfm
INPUT /usr/share/texmf-dist/fonts/tfm/public/amsfonts/cmextra/cmex7.tfm
INPUT /usr/share/texmf-dist/fonts/tfm/public/amsfonts/symbols/msam10.tfm
INPUT /usr/share/texmf-dist/fonts/tfm/public/amsfonts/symbols/msam7.tfm
INPUT /usr/share/texmf-dist/fonts/tfm/public/amsfonts/symbols/msam5.tfm
INPUT /usr/share/texmf-dist/fonts/tfm/public/amsfonts/symbols/msbm10.tfm
INPUT /usr/share/texmf-dist/fonts/tfm/public/amsfonts/symbols/msbm7.tfm
INPUT /usr/share/texmf-dist/fonts/tfm/public/amsfonts/symbols/msbm5.tfm
INPUT /usr/share/texmf-dist/fonts/tfm/public/rsfs/rsfs10.tfm
INPUT /usr/share/texmf-dist/fonts/tfm/public/rsfs/rsfs7.tfm
INPUT /usr/share/texmf-dist/fonts/tfm/public/rsfs/rsfs5.tfm
INPUT /usr/share/texmf-dist/fonts/tfm/jknappen/ec/ecrm0700.tfm
INPUT ./informe.bbl
INPUT informe.bbl
INPUT ./informe.bbl
INPUT informe.bbl
INPUT informe.aux
INPUT ./informe.out
INPUT ./informe.out
INPUT /usr/share/texmf-dist/fonts/enc/dvips/cm-super/cm-super-t1.enc
INPUT /usr/share/texmf-dist/fonts/enc/dvips/base/8r.enc
INPUT /usr/share/texmf-dist/fonts/type1/public/cm-super/sfbx1728.pfb
INPUT /usr/share/texmf-dist/fonts/type1/public/cm-super/sfrm0700.pfb
INPUT /usr/share/texmf-dist/fonts/type1/public/cm-super/sfrm0800.pfb
INPUT /usr/share/texmf-dist/fonts/type1/public/cm-super/sfrm1000.pfb
INPUT /usr/share/texmf-dist/fonts/type1/public/cm-super/sfrm1200.pfb
INPUT /usr/share/texmf-dist/fonts/type1/urw/helvetic/uhvb8a.pfb
INPUT /usr/share/texmf-dist/fonts/type1/urw/helvetic/uhvr8a.pfb
INPUT /usr/share/texmf-dist/fonts/type1/urw/helvetic/uhvro8a.pfb
