\relax 
\providecommand\hyper@newdestlabel[2]{}
\providecommand\HyperFirstAtBeginDocument{\AtBeginDocument}
\HyperFirstAtBeginDocument{\ifx\hyper@anchor\@undefined
\global\let\oldcontentsline\contentsline
\gdef\contentsline#1#2#3#4{\oldcontentsline{#1}{#2}{#3}}
\global\let\oldnewlabel\newlabel
\gdef\newlabel#1#2{\newlabelxx{#1}#2}
\gdef\newlabelxx#1#2#3#4#5#6{\oldnewlabel{#1}{{#2}{#3}}}
\AtEndDocument{\ifx\hyper@anchor\@undefined
\let\contentsline\oldcontentsline
\let\newlabel\oldnewlabel
\fi}
\fi}
\global\let\hyper@last\relax 
\gdef\HyperFirstAtBeginDocument#1{#1}
\providecommand\HyField@AuxAddToFields[1]{}
\providecommand\HyField@AuxAddToCoFields[2]{}
\providecommand \oddpage@label [2]{}
\newlabel{uxe1rbol-binario}{{}{1}{Árbol binario}{section*.1}{}}
\newlabel{quuxe9-es}{{}{1}{Qué es?}{section*.2}{}}
\newlabel{implementaciuxf3n-en-el-lenguaje-c}{{}{1}{Implementación en el lenguaje C}{section*.3}{}}
\newlabel{lista-enlazada}{{}{5}{Lista enlazada}{section*.4}{}}
\newlabel{quuxe9-es}{{}{5}{Qué es?}{section*.5}{}}
\newlabel{implementaciuxf3n-en-lenguaje-c}{{}{5}{Implementación en lenguaje C}{section*.6}{}}
\newlabel{tablas-de-hash}{{}{7}{Tablas de hash}{section*.7}{}}
\newlabel{quuxe9-es}{{}{7}{Qué es?}{section*.8}{}}
\newlabel{implementaciuxf3n-en-el-lenguaje-c}{{}{7}{Implementación en el lenguaje C}{section*.9}{}}
\gdef \@abspage@last{10}
