[0] Config.pm:307> INFO - This is Biber 2.19
[0] Config.pm:310> INFO - Logfile is 'informe.blg'
[46] biber:340> INFO - === dom jun  4, 2023, 22:57:46
[55] Biber.pm:419> INFO - Reading 'informe.bcf'
[104] Biber.pm:979> INFO - Found 11 citekeys in bib section 0
[116] Biber.pm:4419> INFO - Processing section 0
[123] Biber.pm:4610> INFO - Looking for bibtex file 'referencias.bib' for section 0
[124] bibtex.pm:1713> INFO - LaTeX decoding ...
[129] bibtex.pm:1519> INFO - Found BibTeX data source 'referencias.bib'
[183] UCollate.pm:68> INFO - Overriding locale 'es-ES' defaults 'normalization = NFD' with 'normalization = prenormalized'
[184] UCollate.pm:68> INFO - Overriding locale 'es-ES' defaults 'variable = shifted' with 'variable = non-ignorable'
[184] Biber.pm:4239> INFO - Sorting list 'ynt/apasortcite//global/global' of type 'entry' with template 'ynt' and locale 'es-ES'
[198] UCollate.pm:68> INFO - Overriding locale 'es-ES' defaults 'normalization = NFD' with 'normalization = prenormalized'
[198] UCollate.pm:68> INFO - Overriding locale 'es-ES' defaults 'variable = shifted' with 'variable = non-ignorable'
[198] Biber.pm:4239> INFO - Sorting list 'ynt/global//global/global' of type 'entry' with template 'ynt' and locale 'es-ES'
[207] bbl.pm:660> INFO - Writing 'informe.bbl' with encoding 'UTF-8'
[214] bbl.pm:763> INFO - Output to informe.bbl
