\relax 
\providecommand\hyper@newdestlabel[2]{}
\providecommand\HyperFirstAtBeginDocument{\AtBeginDocument}
\HyperFirstAtBeginDocument{\ifx\hyper@anchor\@undefined
\global\let\oldnewlabel\newlabel
\gdef\newlabel#1#2{\newlabelxx{#1}#2}
\gdef\newlabelxx#1#2#3#4#5#6{\oldnewlabel{#1}{{#2}{#3}}}
\AtEndDocument{\ifx\hyper@anchor\@undefined
\let\newlabel\oldnewlabel
\fi}
\fi}
\global\let\hyper@last\relax 
\gdef\HyperFirstAtBeginDocument#1{#1}
\providecommand\HyField@AuxAddToFields[1]{}
\providecommand\HyField@AuxAddToCoFields[2]{}
\providecommand\babel@aux[2]{}
\@nameuse{bbl@beforestart}
\catcode `"\active 
\catcode `<\active 
\catcode `>\active 
\@nameuse{es@quoting}
\abx@aux@refcontext{ynt/global//global/global}
\babel@aux{spanish}{}
\abx@aux@refcontext{ynt/apasortcite//global/global}
\abx@aux@cite{0}{gonzalez2007sistemas}
\abx@aux@segm{0}{0}{gonzalez2007sistemas}
\abx@aux@refcontext{ynt/apasortcite//global/global}
\abx@aux@cite{0}{groth2005network+}
\abx@aux@segm{0}{0}{groth2005network+}
\@writefile{toc}{\contentsline {section}{\numberline {1}Resumen}{3}{section.1}\protected@file@percent }
\@writefile{toc}{\contentsline {section}{\numberline {2}Introducción}{3}{section.2}\protected@file@percent }
\abx@aux@page{1}{3}
\abx@aux@page{2}{3}
\abx@aux@refcontext{ynt/apasortcite//global/global}
\abx@aux@cite{0}{li20215g}
\abx@aux@segm{0}{0}{li20215g}
\abx@aux@refcontext{ynt/apasortcite//global/global}
\abx@aux@cite{0}{5gnetwork2019}
\abx@aux@segm{0}{0}{5gnetwork2019}
\@writefile{toc}{\contentsline {section}{\numberline {3}Marco teórico}{4}{section.3}\protected@file@percent }
\@writefile{toc}{\contentsline {subsection}{\numberline {3.1}Servicios residenciales}{4}{subsection.3.1}\protected@file@percent }
\@writefile{toc}{\contentsline {subsection}{\numberline {3.2}Redes 4G}{4}{subsection.3.2}\protected@file@percent }
\abx@aux@page{3}{4}
\@writefile{toc}{\contentsline {subsection}{\numberline {3.3}Redes 5G}{4}{subsection.3.3}\protected@file@percent }
\abx@aux@refcontext{ynt/apasortcite//global/global}
\abx@aux@cite{0}{mpls}
\abx@aux@segm{0}{0}{mpls}
\abx@aux@refcontext{ynt/apasortcite//global/global}
\abx@aux@cite{0}{thaler2013ieee}
\abx@aux@segm{0}{0}{thaler2013ieee}
\abx@aux@refcontext{ynt/apasortcite//global/global}
\abx@aux@cite{0}{scott1999virtual}
\abx@aux@segm{0}{0}{scott1999virtual}
\abx@aux@refcontext{ynt/apasortcite//global/global}
\abx@aux@cite{0}{vpncisco2021}
\abx@aux@segm{0}{0}{vpncisco2021}
\abx@aux@refcontext{ynt/apasortcite//global/global}
\abx@aux@cite{0}{mason2001cisco}
\abx@aux@segm{0}{0}{mason2001cisco}
\abx@aux@page{4}{5}
\@writefile{toc}{\contentsline {subsection}{\numberline {3.4}Redes MPLS}{5}{subsection.3.4}\protected@file@percent }
\abx@aux@page{5}{5}
\@writefile{toc}{\contentsline {subsection}{\numberline {3.5}Redes VLAN}{5}{subsection.3.5}\protected@file@percent }
\abx@aux@page{6}{5}
\@writefile{toc}{\contentsline {subsection}{\numberline {3.6}Redes VPN}{5}{subsection.3.6}\protected@file@percent }
\abx@aux@page{7}{5}
\abx@aux@refcontext{ynt/apasortcite//global/global}
\abx@aux@cite{0}{starlink}
\abx@aux@segm{0}{0}{starlink}
\abx@aux@page{8}{6}
\abx@aux@page{9}{6}
\@writefile{toc}{\contentsline {section}{\numberline {4}Desarrollo}{6}{section.4}\protected@file@percent }
\@writefile{toc}{\contentsline {subsection}{\numberline {4.1}Servicio residencial de StarLink}{6}{subsection.4.1}\protected@file@percent }
\@writefile{toc}{\contentsline {subsubsection}{\numberline {4.1.1}Medios físicos utilizados}{6}{subsubsection.4.1.1}\protected@file@percent }
\abx@aux@page{10}{6}
\@writefile{lof}{\contentsline {figure}{\numberline {1}{\ignorespaces Imágenes del AP del kit básico de StarLink.}}{6}{figure.1}\protected@file@percent }
\newlabel{fig:my_label}{{1}{6}{Imágenes del AP del kit básico de StarLink}{figure.1}{}}
\@writefile{toc}{\contentsline {subsubsection}{\numberline {4.1.2}Principales características del nivel de enlace}{7}{subsubsection.4.1.2}\protected@file@percent }
\@writefile{toc}{\contentsline {subsubsection}{\numberline {4.1.3}Equipamiento utilizado}{7}{subsubsection.4.1.3}\protected@file@percent }
\@writefile{toc}{\contentsline {subsubsection}{\numberline {4.1.4}Estructura de la red}{7}{subsubsection.4.1.4}\protected@file@percent }
\@writefile{lof}{\contentsline {figure}{\numberline {2}{\ignorespaces Diagrama de la red de StarLink.}}{7}{figure.2}\protected@file@percent }
\newlabel{fig:my_label}{{2}{7}{Diagrama de la red de StarLink}{figure.2}{}}
\@writefile{toc}{\contentsline {subsubsection}{\numberline {4.1.5}Asignación de direcciones IP}{7}{subsubsection.4.1.5}\protected@file@percent }
\@writefile{lof}{\contentsline {figure}{\numberline {3}{\ignorespaces Comando \textbf  {ifconfig} utilizado para ver las direcciones IP asginadas al dispositivo.}}{8}{figure.3}\protected@file@percent }
\newlabel{fig:my_label}{{3}{8}{Comando \textbf {ifconfig} utilizado para ver las direcciones IP asginadas al dispositivo}{figure.3}{}}
\@writefile{toc}{\contentsline {subsubsection}{\numberline {4.1.6}Capacidades y tipos de servicios}{8}{subsubsection.4.1.6}\protected@file@percent }
\abx@aux@refcontext{ynt/apasortcite//global/global}
\abx@aux@cite{0}{evolution4Glte}
\abx@aux@segm{0}{0}{evolution4Glte}
\@writefile{toc}{\contentsline {subsection}{\numberline {4.2}Redes 4G}{9}{subsection.4.2}\protected@file@percent }
\@writefile{toc}{\contentsline {subsubsection}{\numberline {4.2.1}Medios físicos utilizados}{9}{subsubsection.4.2.1}\protected@file@percent }
\@writefile{toc}{\contentsline {subsubsection}{\numberline {4.2.2}Principales características del nivel de enlace}{9}{subsubsection.4.2.2}\protected@file@percent }
\abx@aux@page{11}{9}
\@writefile{toc}{\contentsline {subsubsection}{\numberline {4.2.3}Equipamiento utilizado}{9}{subsubsection.4.2.3}\protected@file@percent }
\@writefile{toc}{\contentsline {subsubsection}{\numberline {4.2.4}Estructura de la red}{10}{subsubsection.4.2.4}\protected@file@percent }
\@writefile{lof}{\contentsline {figure}{\numberline {4}{\ignorespaces Diagrama de una red 4G.}}{10}{figure.4}\protected@file@percent }
\newlabel{fig:my_label}{{4}{10}{Diagrama de una red 4G}{figure.4}{}}
\@writefile{toc}{\contentsline {subsubsection}{\numberline {4.2.5}Asignación de direcciones IP}{11}{subsubsection.4.2.5}\protected@file@percent }
\@writefile{toc}{\contentsline {subsubsection}{\numberline {4.2.6}Capacidades y tipos de servicios}{11}{subsubsection.4.2.6}\protected@file@percent }
\@writefile{toc}{\contentsline {subsection}{\numberline {4.3}Redes 5G}{12}{subsection.4.3}\protected@file@percent }
\@writefile{toc}{\contentsline {subsubsection}{\numberline {4.3.1}Medios físicos utilizados}{12}{subsubsection.4.3.1}\protected@file@percent }
\@writefile{toc}{\contentsline {subsubsection}{\numberline {4.3.2}Principales características del nivel de enlace}{12}{subsubsection.4.3.2}\protected@file@percent }
\@writefile{toc}{\contentsline {subsubsection}{\numberline {4.3.3}Equipamiento utilizado}{12}{subsubsection.4.3.3}\protected@file@percent }
\@writefile{toc}{\contentsline {subsubsection}{\numberline {4.3.4}Estructura de la red}{14}{subsubsection.4.3.4}\protected@file@percent }
\@writefile{lof}{\contentsline {figure}{\numberline {5}{\ignorespaces Diagrama de una red 5G.}}{14}{figure.5}\protected@file@percent }
\newlabel{fig:my_label}{{5}{14}{Diagrama de una red 5G}{figure.5}{}}
\@writefile{toc}{\contentsline {subsubsection}{\numberline {4.3.5}Asignación de direcciones IP}{14}{subsubsection.4.3.5}\protected@file@percent }
\@writefile{toc}{\contentsline {subsubsection}{\numberline {4.3.6}Capacidades y tipos de servicios}{15}{subsubsection.4.3.6}\protected@file@percent }
\@writefile{toc}{\contentsline {subsection}{\numberline {4.4}Redes MPLS}{16}{subsection.4.4}\protected@file@percent }
\@writefile{toc}{\contentsline {subsubsection}{\numberline {4.4.1}Medios físicos utilizados}{16}{subsubsection.4.4.1}\protected@file@percent }
\@writefile{toc}{\contentsline {subsubsection}{\numberline {4.4.2}Principales características del nivel de enlace}{17}{subsubsection.4.4.2}\protected@file@percent }
\@writefile{toc}{\contentsline {subsubsection}{\numberline {4.4.3}Equipamiento utilizado}{17}{subsubsection.4.4.3}\protected@file@percent }
\@writefile{toc}{\contentsline {subsubsection}{\numberline {4.4.4}Estructura de la red}{19}{subsubsection.4.4.4}\protected@file@percent }
\@writefile{lof}{\contentsline {figure}{\numberline {6}{\ignorespaces Diagrama de una red MPLS.}}{19}{figure.6}\protected@file@percent }
\newlabel{fig:my_label}{{6}{19}{Diagrama de una red MPLS}{figure.6}{}}
\@writefile{toc}{\contentsline {subsubsection}{\numberline {4.4.5}Asignación de direcciones IP y etiquetas}{19}{subsubsection.4.4.5}\protected@file@percent }
\@writefile{toc}{\contentsline {subsubsection}{\numberline {4.4.6}Capacidades y tipos de servicios}{20}{subsubsection.4.4.6}\protected@file@percent }
\@writefile{toc}{\contentsline {subsection}{\numberline {4.5}Redes VLAN}{21}{subsection.4.5}\protected@file@percent }
\@writefile{toc}{\contentsline {subsubsection}{\numberline {4.5.1}Medios físicos utilizados}{21}{subsubsection.4.5.1}\protected@file@percent }
\@writefile{toc}{\contentsline {subsubsection}{\numberline {4.5.2}Principales características del nivel de enlace}{21}{subsubsection.4.5.2}\protected@file@percent }
\@writefile{toc}{\contentsline {subsubsection}{\numberline {4.5.3}Equipamiento utilizado}{22}{subsubsection.4.5.3}\protected@file@percent }
\@writefile{toc}{\contentsline {subsubsection}{\numberline {4.5.4}Estructura de la red}{23}{subsubsection.4.5.4}\protected@file@percent }
\@writefile{lof}{\contentsline {figure}{\numberline {7}{\ignorespaces Diagrama de una red VLAN.}}{23}{figure.7}\protected@file@percent }
\newlabel{fig:my_label}{{7}{23}{Diagrama de una red VLAN}{figure.7}{}}
\@writefile{toc}{\contentsline {subsubsection}{\numberline {4.5.5}Asignación de direcciones IP}{23}{subsubsection.4.5.5}\protected@file@percent }
\@writefile{toc}{\contentsline {subsubsection}{\numberline {4.5.6}Capacidades y tipos de servicios}{24}{subsubsection.4.5.6}\protected@file@percent }
\@writefile{toc}{\contentsline {subsection}{\numberline {4.6}Redes VPN}{25}{subsection.4.6}\protected@file@percent }
\@writefile{toc}{\contentsline {subsubsection}{\numberline {4.6.1}Medios físicos utilizados}{25}{subsubsection.4.6.1}\protected@file@percent }
\@writefile{toc}{\contentsline {subsubsection}{\numberline {4.6.2}Principales características del nivel de enlace}{26}{subsubsection.4.6.2}\protected@file@percent }
\@writefile{toc}{\contentsline {subsubsection}{\numberline {4.6.3}Equipamiento utilizado}{27}{subsubsection.4.6.3}\protected@file@percent }
\@writefile{toc}{\contentsline {subsubsection}{\numberline {4.6.4}Estructura de la red}{28}{subsubsection.4.6.4}\protected@file@percent }
\@writefile{lof}{\contentsline {figure}{\numberline {8}{\ignorespaces Diagrama de una red VLAN.}}{28}{figure.8}\protected@file@percent }
\newlabel{fig:my_label}{{8}{28}{Diagrama de una red VLAN}{figure.8}{}}
\@writefile{toc}{\contentsline {subsubsection}{\numberline {4.6.5}Asignación de direcciones IP}{28}{subsubsection.4.6.5}\protected@file@percent }
\@writefile{toc}{\contentsline {subsubsection}{\numberline {4.6.6}Capacidades y tipos de servicios}{29}{subsubsection.4.6.6}\protected@file@percent }
\@writefile{toc}{\contentsline {section}{\numberline {5}Conclusiones}{31}{section.5}\protected@file@percent }
\abx@aux@page{12}{32}
\abx@aux@page{13}{32}
\abx@aux@page{14}{32}
\abx@aux@page{15}{32}
\abx@aux@page{16}{32}
\abx@aux@page{17}{32}
\abx@aux@page{18}{32}
\abx@aux@page{19}{32}
\abx@aux@page{20}{32}
\abx@aux@page{21}{32}
\abx@aux@page{22}{32}
\abx@aux@read@bbl@mdfivesum{D625DB86864A0605E16EFAF52493DA08}
\abx@aux@defaultrefcontext{0}{scott1999virtual}{ynt/global//global/global}
\abx@aux@defaultrefcontext{0}{mason2001cisco}{ynt/global//global/global}
\abx@aux@defaultrefcontext{0}{groth2005network+}{ynt/global//global/global}
\abx@aux@defaultrefcontext{0}{gonzalez2007sistemas}{ynt/global//global/global}
\abx@aux@defaultrefcontext{0}{thaler2013ieee}{ynt/global//global/global}
\abx@aux@defaultrefcontext{0}{5gnetwork2019}{ynt/global//global/global}
\abx@aux@defaultrefcontext{0}{li20215g}{ynt/global//global/global}
\abx@aux@defaultrefcontext{0}{vpncisco2021}{ynt/global//global/global}
\abx@aux@defaultrefcontext{0}{evolution4Glte}{ynt/global//global/global}
\abx@aux@defaultrefcontext{0}{starlink}{ynt/global//global/global}
\abx@aux@defaultrefcontext{0}{mpls}{ynt/global//global/global}
\gdef \@abspage@last{33}
