\relax 
\providecommand\hyper@newdestlabel[2]{}
\providecommand\HyperFirstAtBeginDocument{\AtBeginDocument}
\HyperFirstAtBeginDocument{\ifx\hyper@anchor\@undefined
\global\let\oldcontentsline\contentsline
\gdef\contentsline#1#2#3#4{\oldcontentsline{#1}{#2}{#3}}
\global\let\oldnewlabel\newlabel
\gdef\newlabel#1#2{\newlabelxx{#1}#2}
\gdef\newlabelxx#1#2#3#4#5#6{\oldnewlabel{#1}{{#2}{#3}}}
\AtEndDocument{\ifx\hyper@anchor\@undefined
\let\contentsline\oldcontentsline
\let\newlabel\oldnewlabel
\fi}
\fi}
\global\let\hyper@last\relax 
\gdef\HyperFirstAtBeginDocument#1{#1}
\providecommand\HyField@AuxAddToFields[1]{}
\providecommand\HyField@AuxAddToCoFields[2]{}
\providecommand \oddpage@label [2]{}
\newlabel{importaciuxf3n-de-libreruxedas}{{}{1}{Importación de librerías}{section*.1}{}}
\newlabel{clase-persona}{{}{1}{Clase persona}{section*.2}{}}
\newlabel{funciones}{{}{2}{Funciones}{section*.3}{}}
\newlabel{conectarse-a-la-base-de-datos}{{}{2}{Conectarse a la base de datos}{section*.4}{}}
\newlabel{importar-los-registros-desde-la-base-de-datos}{{}{2}{Importar los registros desde la base de datos}{section*.5}{}}
\newlabel{procesar-los-datos}{{}{2}{Procesar los datos}{section*.6}{}}
\newlabel{funciuxf3n-auxiliar-para-la-representaciuxf3n-de-los-datos}{{}{3}{Función auxiliar para la representación de los datos}{section*.7}{}}
\newlabel{representaciuxf3n-de-los-datos}{{}{3}{Representación de los datos}{section*.8}{}}
\newlabel{guardar-los-datos-en-un-archivo}{{}{4}{Guardar los datos en un archivo}{section*.9}{}}
\newlabel{funciuxf3n-main}{{}{4}{Función main}{section*.10}{}}
\gdef \@abspage@last{5}
