\relax 
\providecommand\hyper@newdestlabel[2]{}
\providecommand\HyperFirstAtBeginDocument{\AtBeginDocument}
\HyperFirstAtBeginDocument{\ifx\hyper@anchor\@undefined
\global\let\oldcontentsline\contentsline
\gdef\contentsline#1#2#3#4{\oldcontentsline{#1}{#2}{#3}}
\global\let\oldnewlabel\newlabel
\gdef\newlabel#1#2{\newlabelxx{#1}#2}
\gdef\newlabelxx#1#2#3#4#5#6{\oldnewlabel{#1}{{#2}{#3}}}
\AtEndDocument{\ifx\hyper@anchor\@undefined
\let\contentsline\oldcontentsline
\let\newlabel\oldnewlabel
\fi}
\fi}
\global\let\hyper@last\relax 
\gdef\HyperFirstAtBeginDocument#1{#1}
\providecommand\HyField@AuxAddToFields[1]{}
\providecommand\HyField@AuxAddToCoFields[2]{}
\providecommand \oddpage@label [2]{}
\newlabel{lenguaje-de-programaciuxf3n-java}{{}{1}{Lenguaje de programación Java:}{section*.1}{}}
\newlabel{sintaxis-en-conectivos-luxf3gicos}{{}{1}{Sintaxis en conectivos lógicos:}{section*.2}{}}
\newlabel{cuxf3digo}{{}{2}{Código:}{section*.3}{}}
\newlabel{ejecuciuxf3n}{{}{4}{Ejecución:}{section*.4}{}}
\newlabel{lenguaje-de-programaciuxf3n-php}{{}{5}{Lenguaje de programación php:}{section*.5}{}}
\newlabel{sintaxis-en-conectivos-luxf3gicos-1}{{}{5}{Sintaxis en conectivos lógicos:}{section*.6}{}}
\newlabel{cuxf3digo-1}{{}{5}{Código:}{section*.7}{}}
\newlabel{ejecuciuxf3n-1}{{}{7}{Ejecución:}{section*.8}{}}
\newlabel{lenguaje-de-programaciuxf3n-r}{{}{8}{Lenguaje de programación R:}{section*.9}{}}
\newlabel{sintaxis-en-conectivos-luxf3gicos-2}{{}{8}{Sintaxis en conectivos lógicos:}{section*.10}{}}
\newlabel{cuxf3digo-2}{{}{8}{Código:}{section*.11}{}}
\newlabel{ejecuciuxf3n-2}{{}{10}{Ejecución:}{section*.12}{}}
\gdef \@abspage@last{10}
