\relax 
\providecommand\hyper@newdestlabel[2]{}
\providecommand\HyperFirstAtBeginDocument{\AtBeginDocument}
\HyperFirstAtBeginDocument{\ifx\hyper@anchor\@undefined
\global\let\oldcontentsline\contentsline
\gdef\contentsline#1#2#3#4{\oldcontentsline{#1}{#2}{#3}}
\global\let\oldnewlabel\newlabel
\gdef\newlabel#1#2{\newlabelxx{#1}#2}
\gdef\newlabelxx#1#2#3#4#5#6{\oldnewlabel{#1}{{#2}{#3}}}
\AtEndDocument{\ifx\hyper@anchor\@undefined
\let\contentsline\oldcontentsline
\let\newlabel\oldnewlabel
\fi}
\fi}
\global\let\hyper@last\relax 
\gdef\HyperFirstAtBeginDocument#1{#1}
\providecommand\HyField@AuxAddToFields[1]{}
\providecommand\HyField@AuxAddToCoFields[2]{}
\providecommand \oddpage@label [2]{}
\newlabel{primer-procedimiento}{{}{1}{Primer procedimiento almacenado:}{section*.1}{}}
\newlabel{segundo-procedimiento}{{}{1}{Segundo procedimiento almacenado:}{section*.2}{}}
\newlabel{tercer-procedimiento}{{}{1}{Tercer procedimiento almacenado:}{section*.3}{}}
\newlabel{primer-trigger}{{}{1}{Primer trigger}{section*.4}{}}
\newlabel{segundo-trigger}{{}{1}{Segundo trigger}{section*.5}{}}
\gdef \@abspage@last{1}
