\relax 
\providecommand\hyper@newdestlabel[2]{}
\providecommand\HyperFirstAtBeginDocument{\AtBeginDocument}
\HyperFirstAtBeginDocument{\ifx\hyper@anchor\@undefined
\global\let\oldcontentsline\contentsline
\gdef\contentsline#1#2#3#4{\oldcontentsline{#1}{#2}{#3}}
\global\let\oldnewlabel\newlabel
\gdef\newlabel#1#2{\newlabelxx{#1}#2}
\gdef\newlabelxx#1#2#3#4#5#6{\oldnewlabel{#1}{{#2}{#3}}}
\AtEndDocument{\ifx\hyper@anchor\@undefined
\let\contentsline\oldcontentsline
\let\newlabel\oldnewlabel
\fi}
\fi}
\global\let\hyper@last\relax 
\gdef\HyperFirstAtBeginDocument#1{#1}
\providecommand\HyField@AuxAddToFields[1]{}
\providecommand\HyField@AuxAddToCoFields[2]{}
\providecommand\babel@aux[2]{}
\@nameuse{bbl@beforestart}
\catcode `"\active 
\catcode `<\active 
\catcode `>\active 
\@nameuse{es@quoting}
\providecommand \oddpage@label [2]{}
\babel@aux{spanish}{}
\citation{ssh1}
\citation{ssh}
\citation{ssh22}
\citation{ssh1}
\citation{scp}
\citation{scp1}
\citation{scphistory}
\citation{vnc}
\citation{terminalS}
\bibstyle{apalike}
\bibdata{referencias}
\bibcite{scp}{{Computer Hope}, 2019}
\bibcite{scp1}{{Equipo de openSSH}, 2019}
\bibcite{scphistory}{{Equipo de openSSH}, 2022a}
\bibcite{ssh}{{Equipo de openSSH}, 2022b}
\bibcite{terminalS}{{QuinnRadich}, 2020}
\bibcite{vnc}{{T. Richardson, Q. Stafford-Fraser, K. R. Wood, A. Hopper}, 1998}
\bibcite{ssh22}{{Tatu Ylonen}, 2017}
\bibcite{ssh1}{{Ylonen \& Lonvick}, 2006}
\gdef \@abspage@last{10}
