# Fdb version 3
["bibtex reporte"] 1669687465 "reporte.aux" "reporte.bbl" "reporte" 1669687511
  "/usr/share/texmf-dist/bibtex/bst/base/apalike.bst" 1650183167 24635 604dafcc79f521a11ea73e506e1fbd98 ""
  "referencias.bib" 1669678228 1923 6282dffc74bb5dcec74e51ada22e0a5e ""
  "reporte.aux" 1669687511 1450 f2da42a33bb4e7a4cad3805f3f724c25 "pdflatex"
  (generated)
  "reporte.bbl"
  "reporte.blg"
["pdflatex"] 1669687510 "reporte.tex" "reporte.pdf" "reporte" 1669687511
  "/usr/share/texmf-dist/fonts/enc/dvips/base/8r.enc" 1650183167 4850 80dc9bab7f31fb78a000ccfed0e27cab ""
  "/usr/share/texmf-dist/fonts/enc/dvips/cm-super/cm-super-t1.enc" 1650183167 2971 def0b6c1f0b107b3b936def894055589 ""
  "/usr/share/texmf-dist/fonts/map/fontname/texfonts.map" 1650183167 3524 cb3e574dea2d1052e39280babc910dc8 ""
  "/usr/share/texmf-dist/fonts/tfm/adobe/helvetic/phvb8r.tfm" 1650183167 4484 b828043cbd581d289d955903c1339981 ""
  "/usr/share/texmf-dist/fonts/tfm/adobe/helvetic/phvb8t.tfm" 1650183167 6628 34c39492c0adc454c1c199922bba8363 ""
  "/usr/share/texmf-dist/fonts/tfm/adobe/helvetic/phvr8r.tfm" 1650183167 4712 9ef4d7d106579d4b136e1529e1a4533c ""
  "/usr/share/texmf-dist/fonts/tfm/adobe/helvetic/phvr8t.tfm" 1650183167 7040 b2bd27e2bfe6f6948cbc3239cae7444f ""
  "/usr/share/texmf-dist/fonts/tfm/adobe/helvetic/phvrc8t.tfm" 1650183167 16152 ab9d47b69dd04cab59fcf780bd0eed36 ""
  "/usr/share/texmf-dist/fonts/tfm/adobe/helvetic/phvro8r.tfm" 1650183167 4964 f223217e5e1f85fa3742fb0480aba9e8 ""
  "/usr/share/texmf-dist/fonts/tfm/adobe/helvetic/phvro8t.tfm" 1650183167 7292 d408122871055bbc541d7280c154e210 ""
  "/usr/share/texmf-dist/fonts/tfm/jknappen/ec/ecbx1200.tfm" 1650183167 3584 402da0b29eafbad07963b1224b222f18 ""
  "/usr/share/texmf-dist/fonts/tfm/jknappen/ec/ecbx1440.tfm" 1650183167 3584 13049b61b922a28b158a38aeff75ee9b ""
  "/usr/share/texmf-dist/fonts/tfm/jknappen/ec/ecrm0600.tfm" 1650183167 3584 291a5713401683441e0a8c8f4417b17b ""
  "/usr/share/texmf-dist/fonts/tfm/jknappen/ec/ecrm0800.tfm" 1650183167 3584 49064b465390a8e316a3c8417a050403 ""
  "/usr/share/texmf-dist/fonts/tfm/jknappen/ec/ecrm0900.tfm" 1650183167 3584 d3d8ac8b25ca19c0a40b86a5db1e8ccc ""
  "/usr/share/texmf-dist/fonts/tfm/jknappen/ec/ecrm1095.tfm" 1650183167 3584 929cdff2b7a8c11bd4d49fd68cb0ae70 ""
  "/usr/share/texmf-dist/fonts/tfm/jknappen/ec/ecrm1200.tfm" 1650183167 3584 f80ddd985bd00e29e9a6047ebd9d4781 ""
  "/usr/share/texmf-dist/fonts/tfm/jknappen/ec/ecrm1440.tfm" 1650183167 3584 3169d30142b88a27d4ab0e3468e963a2 ""
  "/usr/share/texmf-dist/fonts/tfm/jknappen/ec/ectt1095.tfm" 1650183167 1536 a988bfe554c1f79514bd46d13c3c64ce ""
  "/usr/share/texmf-dist/fonts/tfm/public/amsfonts/cmextra/cmex7.tfm" 1650183167 1004 54797486969f23fa377b128694d548df ""
  "/usr/share/texmf-dist/fonts/tfm/public/amsfonts/cmextra/cmex8.tfm" 1650183167 988 bdf658c3bfc2d96d3c8b02cfc1c94c20 ""
  "/usr/share/texmf-dist/fonts/tfm/public/amsfonts/cmextra/cmex9.tfm" 1650183167 996 a18840b13b499c08ac2de96a99eda4bc ""
  "/usr/share/texmf-dist/fonts/tfm/public/amsfonts/symbols/msam10.tfm" 1650183167 916 f87d7c45f9c908e672703b83b72241a3 ""
  "/usr/share/texmf-dist/fonts/tfm/public/amsfonts/symbols/msam5.tfm" 1650183167 924 9904cf1d39e9767e7a3622f2a125a565 ""
  "/usr/share/texmf-dist/fonts/tfm/public/amsfonts/symbols/msam7.tfm" 1650183167 928 2dc8d444221b7a635bb58038579b861a ""
  "/usr/share/texmf-dist/fonts/tfm/public/amsfonts/symbols/msbm10.tfm" 1650183167 908 2921f8a10601f252058503cc6570e581 ""
  "/usr/share/texmf-dist/fonts/tfm/public/amsfonts/symbols/msbm5.tfm" 1650183167 940 75ac932a52f80982a9f8ea75d03a34cf ""
  "/usr/share/texmf-dist/fonts/tfm/public/amsfonts/symbols/msbm7.tfm" 1650183167 940 228d6584342e91276bf566bcf9716b83 ""
  "/usr/share/texmf-dist/fonts/tfm/public/cm/cmex10.tfm" 1650183167 992 662f679a0b3d2d53c1b94050fdaa3f50 ""
  "/usr/share/texmf-dist/fonts/tfm/public/cm/cmmi10.tfm" 1650183167 1528 abec98dbc43e172678c11b3b9031252a ""
  "/usr/share/texmf-dist/fonts/tfm/public/cm/cmmi6.tfm" 1650183167 1512 f21f83efb36853c0b70002322c1ab3ad ""
  "/usr/share/texmf-dist/fonts/tfm/public/cm/cmmi8.tfm" 1650183167 1520 eccf95517727cb11801f4f1aee3a21b4 ""
  "/usr/share/texmf-dist/fonts/tfm/public/cm/cmmi9.tfm" 1650183167 1524 d89e2d087a9828407a196f428428ef4a ""
  "/usr/share/texmf-dist/fonts/tfm/public/cm/cmr10.tfm" 1650183167 1296 45809c5a464d5f32c8f98ba97c1bb47f ""
  "/usr/share/texmf-dist/fonts/tfm/public/cm/cmr6.tfm" 1650183167 1300 b62933e007d01cfd073f79b963c01526 ""
  "/usr/share/texmf-dist/fonts/tfm/public/cm/cmr8.tfm" 1650183167 1292 21c1c5bfeaebccffdb478fd231a0997d ""
  "/usr/share/texmf-dist/fonts/tfm/public/cm/cmr9.tfm" 1650183167 1292 6b21b9c2c7bebb38aa2273f7ca0fb3af ""
  "/usr/share/texmf-dist/fonts/tfm/public/cm/cmsy10.tfm" 1650183167 1124 6c73e740cf17375f03eec0ee63599741 ""
  "/usr/share/texmf-dist/fonts/tfm/public/cm/cmsy6.tfm" 1650183167 1116 933a60c408fc0a863a92debe84b2d294 ""
  "/usr/share/texmf-dist/fonts/tfm/public/cm/cmsy8.tfm" 1650183167 1120 8b7d695260f3cff42e636090a8002094 ""
  "/usr/share/texmf-dist/fonts/tfm/public/cm/cmsy9.tfm" 1650183167 1116 25a7bf822c58caf309a702ef79f4afbb ""
  "/usr/share/texmf-dist/fonts/tfm/public/latex-fonts/lasy6.tfm" 1650183167 520 4889cce2180234b97cad636b6039c722 ""
  "/usr/share/texmf-dist/fonts/tfm/public/rsfs/rsfs10.tfm" 1650183167 688 37338d6ab346c2f1466b29e195316aa4 ""
  "/usr/share/texmf-dist/fonts/tfm/public/rsfs/rsfs5.tfm" 1650183167 684 3a51bd4fd9600428d5264cf25f04bb9a ""
  "/usr/share/texmf-dist/fonts/type1/public/cm-super/sfbx1200.pfb" 1650183167 140176 d4962f948b4cc0adf4d3dde77a128c95 ""
  "/usr/share/texmf-dist/fonts/type1/public/cm-super/sfbx1440.pfb" 1650183167 135942 859a90cad7494a1e79c94baf546d7de5 ""
  "/usr/share/texmf-dist/fonts/type1/public/cm-super/sfrm0600.pfb" 1650183167 162624 9dcc92cd3b1dfe2ecc80e6da7f2eb6bd ""
  "/usr/share/texmf-dist/fonts/type1/public/cm-super/sfrm0800.pfb" 1650183167 164227 3df942b4ff2124425d8fb1b6d3e01c7a ""
  "/usr/share/texmf-dist/fonts/type1/public/cm-super/sfrm0900.pfb" 1650183167 149037 995a6f1e12c1d647b99b1cf55db78699 ""
  "/usr/share/texmf-dist/fonts/type1/public/cm-super/sfrm1095.pfb" 1650183167 145929 f25e56369a345c4ff583b067cd87ce8e ""
  "/usr/share/texmf-dist/fonts/type1/public/cm-super/sftt1095.pfb" 1650183167 169670 48d12e69c9a3b23c81f6d703ccbd4554 ""
  "/usr/share/texmf-dist/fonts/type1/urw/helvetic/uhvb8a.pfb" 1650183167 35941 f27169cc74234d5bd5e4cca5abafaabb ""
  "/usr/share/texmf-dist/fonts/type1/urw/helvetic/uhvr8a.pfb" 1650183167 44648 23115b2a545ebfe2c526c3ca99db8b95 ""
  "/usr/share/texmf-dist/fonts/type1/urw/helvetic/uhvro8a.pfb" 1650183167 48169 b4fd9d908b9ee8c65d4305ad39071c5e ""
  "/usr/share/texmf-dist/fonts/vf/adobe/helvetic/phvb8t.vf" 1650183167 2340 0efed6a948c3c37d870e4e7ddb85c7c3 ""
  "/usr/share/texmf-dist/fonts/vf/adobe/helvetic/phvr8t.vf" 1650183167 2344 44ff28c9ef2fc97180cd884f900fee71 ""
  "/usr/share/texmf-dist/fonts/vf/adobe/helvetic/phvrc8t.vf" 1650183167 3612 a448b9c1ed57bed50ea118ae6680e645 ""
  "/usr/share/texmf-dist/fonts/vf/adobe/helvetic/phvro8t.vf" 1650183167 2348 717f0e01beff9c30c0df4945e471886f ""
  "/usr/share/texmf-dist/tex/context/base/mkii/supp-pdf.mkii" 1650183167 71627 94eb9990bed73c364d7f53f960cc8c5b ""
  "/usr/share/texmf-dist/tex/generic/atbegshi/atbegshi.sty" 1650183167 24708 5584a51a7101caf7e6bbf1fc27d8f7b1 ""
  "/usr/share/texmf-dist/tex/generic/babel-spanish/spanish.ldf" 1650183167 26965 3b6d1655ad716f98e788b1fb9f2e87b8 ""
  "/usr/share/texmf-dist/tex/generic/babel/babel.sty" 1650183167 147649 823237dc86e8acfaa45204ca8085a60e ""
  "/usr/share/texmf-dist/tex/generic/babel/txtbabel.def" 1650183167 5233 d5e383ed66bf272b71b1a90b596e21c6 ""
  "/usr/share/texmf-dist/tex/generic/bigintcalc/bigintcalc.sty" 1650183167 40635 c40361e206be584d448876bba8a64a3b ""
  "/usr/share/texmf-dist/tex/generic/bitset/bitset.sty" 1650183167 33961 6b5c75130e435b2bfdb9f480a09a39f9 ""
  "/usr/share/texmf-dist/tex/generic/etexcmds/etexcmds.sty" 1650183167 7734 b98cbb34c81f667027c1e3ebdbfce34b ""
  "/usr/share/texmf-dist/tex/generic/gettitlestring/gettitlestring.sty" 1650183167 8371 9d55b8bd010bc717624922fb3477d92e ""
  "/usr/share/texmf-dist/tex/generic/iftex/iftex.sty" 1650183167 7237 bdd120a32c8fdb4b433cf9ca2e7cd98a ""
  "/usr/share/texmf-dist/tex/generic/iftex/ifvtex.sty" 1650183167 1057 525c2192b5febbd8c1f662c9468335bb ""
  "/usr/share/texmf-dist/tex/generic/infwarerr/infwarerr.sty" 1650183167 8356 7bbb2c2373aa810be568c29e333da8ed ""
  "/usr/share/texmf-dist/tex/generic/intcalc/intcalc.sty" 1650183167 31769 002a487f55041f8e805cfbf6385ffd97 ""
  "/usr/share/texmf-dist/tex/generic/kvdefinekeys/kvdefinekeys.sty" 1650183167 5412 d5a2436094cd7be85769db90f29250a6 ""
  "/usr/share/texmf-dist/tex/generic/kvsetkeys/kvsetkeys.sty" 1650183167 13807 952b0226d4efca026f0e19dd266dcc22 ""
  "/usr/share/texmf-dist/tex/generic/ltxcmds/ltxcmds.sty" 1650183167 17859 4409f8f50cd365c68e684407e5350b1b ""
  "/usr/share/texmf-dist/tex/generic/oberdiek/pdfcol.sty" 1650183167 9610 e6a49e3e1565f75e68811ac72c53ff0c ""
  "/usr/share/texmf-dist/tex/generic/pdfescape/pdfescape.sty" 1650183167 19007 15924f7228aca6c6d184b115f4baa231 ""
  "/usr/share/texmf-dist/tex/generic/pdftexcmds/pdftexcmds.sty" 1650183167 20089 80423eac55aa175305d35b49e04fe23b ""
  "/usr/share/texmf-dist/tex/generic/pgf/basiclayer/pgfcore.code.tex" 1650183167 992 855ff26741653ab54814101ca36e153c ""
  "/usr/share/texmf-dist/tex/generic/pgf/basiclayer/pgfcorearrows.code.tex" 1650183167 43820 1fef971b75380574ab35a0d37fd92608 ""
  "/usr/share/texmf-dist/tex/generic/pgf/basiclayer/pgfcoreexternal.code.tex" 1650183167 19324 f4e4c6403dd0f1605fd20ed22fa79dea ""
  "/usr/share/texmf-dist/tex/generic/pgf/basiclayer/pgfcoregraphicstate.code.tex" 1650183167 6038 ccb406740cc3f03bbfb58ad504fe8c27 ""
  "/usr/share/texmf-dist/tex/generic/pgf/basiclayer/pgfcoreimage.code.tex" 1650183167 6944 e12f8f7a7364ddf66f93ba30fb3a3742 ""
  "/usr/share/texmf-dist/tex/generic/pgf/basiclayer/pgfcorelayers.code.tex" 1650183167 4883 42daaf41e27c3735286e23e48d2d7af9 ""
  "/usr/share/texmf-dist/tex/generic/pgf/basiclayer/pgfcoreobjects.code.tex" 1650183167 2544 8c06d2a7f0f469616ac9e13db6d2f842 ""
  "/usr/share/texmf-dist/tex/generic/pgf/basiclayer/pgfcorepathconstruct.code.tex" 1650183167 44195 5e390c414de027626ca5e2df888fa68d ""
  "/usr/share/texmf-dist/tex/generic/pgf/basiclayer/pgfcorepathprocessing.code.tex" 1650183167 17311 2ef6b2e29e2fc6a2fc8d6d652176e257 ""
  "/usr/share/texmf-dist/tex/generic/pgf/basiclayer/pgfcorepathusage.code.tex" 1650183167 21302 788a79944eb22192a4929e46963a3067 ""
  "/usr/share/texmf-dist/tex/generic/pgf/basiclayer/pgfcorepatterns.code.tex" 1650183167 9690 01feb7cde25d4293ef36eef45123eb80 ""
  "/usr/share/texmf-dist/tex/generic/pgf/basiclayer/pgfcorepoints.code.tex" 1650183167 33335 dd1fa4814d4e51f18be97d88bf0da60c ""
  "/usr/share/texmf-dist/tex/generic/pgf/basiclayer/pgfcorequick.code.tex" 1650183167 2965 4c2b1f4e0826925746439038172e5d6f ""
  "/usr/share/texmf-dist/tex/generic/pgf/basiclayer/pgfcorerdf.code.tex" 1650183167 5196 2cc249e0ee7e03da5f5f6589257b1e5b ""
  "/usr/share/texmf-dist/tex/generic/pgf/basiclayer/pgfcorescopes.code.tex" 1650183167 20726 d4c8db1e2e53b72721d29916314a22ea ""
  "/usr/share/texmf-dist/tex/generic/pgf/basiclayer/pgfcoreshade.code.tex" 1650183167 35249 abd4adf948f960299a4b3d27c5dddf46 ""
  "/usr/share/texmf-dist/tex/generic/pgf/basiclayer/pgfcoretransformations.code.tex" 1650183167 21989 fdc867d05d228316de137a9fc5ec3bbe ""
  "/usr/share/texmf-dist/tex/generic/pgf/basiclayer/pgfcoretransparency.code.tex" 1650183167 8893 e851de2175338fdf7c17f3e091d94618 ""
  "/usr/share/texmf-dist/tex/generic/pgf/math/pgfint.code.tex" 1650183167 3063 8c415c68a0f3394e45cfeca0b65f6ee6 ""
  "/usr/share/texmf-dist/tex/generic/pgf/math/pgfmath.code.tex" 1650183167 521 8e224a7af69b7fee4451d1bf76b46654 ""
  "/usr/share/texmf-dist/tex/generic/pgf/math/pgfmathcalc.code.tex" 1650183167 13391 84d29568c13bdce4133ab4a214711112 ""
  "/usr/share/texmf-dist/tex/generic/pgf/math/pgfmathfloat.code.tex" 1650183167 104935 184ed87524e76d4957860df4ce0cd1c3 ""
  "/usr/share/texmf-dist/tex/generic/pgf/math/pgfmathfunctions.base.code.tex" 1650183167 10165 cec5fa73d49da442e56efc2d605ef154 ""
  "/usr/share/texmf-dist/tex/generic/pgf/math/pgfmathfunctions.basic.code.tex" 1650183167 28178 41c17713108e0795aac6fef3d275fbca ""
  "/usr/share/texmf-dist/tex/generic/pgf/math/pgfmathfunctions.code.tex" 1650183167 9989 c55967bf45126ff9b061fa2ca0c4694f ""
  "/usr/share/texmf-dist/tex/generic/pgf/math/pgfmathfunctions.comparison.code.tex" 1650183167 3865 ac538ab80c5cf82b345016e474786549 ""
  "/usr/share/texmf-dist/tex/generic/pgf/math/pgfmathfunctions.integerarithmetics.code.tex" 1650183167 3177 27d85c44fbfe09ff3b2cf2879e3ea434 ""
  "/usr/share/texmf-dist/tex/generic/pgf/math/pgfmathfunctions.misc.code.tex" 1650183167 11024 0179538121bc2dba172013a3ef89519f ""
  "/usr/share/texmf-dist/tex/generic/pgf/math/pgfmathfunctions.random.code.tex" 1650183167 7854 4176998eeefd8745ac6d2d4bd9c98451 ""
  "/usr/share/texmf-dist/tex/generic/pgf/math/pgfmathfunctions.round.code.tex" 1650183167 3379 781797a101f647bab82741a99944a229 ""
  "/usr/share/texmf-dist/tex/generic/pgf/math/pgfmathfunctions.trigonometric.code.tex" 1650183167 92405 f515f31275db273f97b9d8f52e1b0736 ""
  "/usr/share/texmf-dist/tex/generic/pgf/math/pgfmathparser.code.tex" 1650183167 37376 11cd75aac3da1c1b152b2848f30adc14 ""
  "/usr/share/texmf-dist/tex/generic/pgf/math/pgfmathutil.code.tex" 1650183167 8471 c2883569d03f69e8e1cabfef4999cfd7 ""
  "/usr/share/texmf-dist/tex/generic/pgf/modules/pgfmoduleplot.code.tex" 1650183167 16121 346f9013d34804439f7436ff6786cef7 ""
  "/usr/share/texmf-dist/tex/generic/pgf/modules/pgfmoduleshapes.code.tex" 1650183167 44784 cedaa399d15f95e68e22906e2cc09ef8 ""
  "/usr/share/texmf-dist/tex/generic/pgf/pgf.revision.tex" 1650183167 465 d68603f8b820ea4a08cce534944db581 ""
  "/usr/share/texmf-dist/tex/generic/pgf/systemlayer/pgf.cfg" 1650183167 926 2963ea0dcf6cc6c0a770b69ec46a477b ""
  "/usr/share/texmf-dist/tex/generic/pgf/systemlayer/pgfsys-common-pdf.def" 1650183167 5546 f3f24d7898386cb7daac70bdd2c4d6dc ""
  "/usr/share/texmf-dist/tex/generic/pgf/systemlayer/pgfsys-pdftex.def" 1650183167 12601 4786e597516eddd82097506db7cfa098 ""
  "/usr/share/texmf-dist/tex/generic/pgf/systemlayer/pgfsys.code.tex" 1650183167 61163 9b2eefc24e021323e0fc140e9826d016 ""
  "/usr/share/texmf-dist/tex/generic/pgf/systemlayer/pgfsysprotocol.code.tex" 1650183167 1896 b8e0ca0ac371d74c0ca05583f6313c91 ""
  "/usr/share/texmf-dist/tex/generic/pgf/systemlayer/pgfsyssoftpath.code.tex" 1650183167 7778 53c8b5623d80238f6a20aa1df1868e63 ""
  "/usr/share/texmf-dist/tex/generic/pgf/utilities/pgfkeys.code.tex" 1650183167 37060 797782f0eb50075c9bc952374d9a659a ""
  "/usr/share/texmf-dist/tex/generic/pgf/utilities/pgfkeysfiltered.code.tex" 1650183167 37431 9abe862035de1b29c7a677f3205e3d9f ""
  "/usr/share/texmf-dist/tex/generic/pgf/utilities/pgfrcs.code.tex" 1650183167 4494 af17fb7efeafe423710479858e42fa7e ""
  "/usr/share/texmf-dist/tex/generic/pgf/utilities/pgfutil-common-lists.tex" 1650183167 7251 fb18c67117e09c64de82267e12cd8aa4 ""
  "/usr/share/texmf-dist/tex/generic/pgf/utilities/pgfutil-common.tex" 1650183167 29274 e15c5b7157d21523bd9c9f1dfa146b8e ""
  "/usr/share/texmf-dist/tex/generic/pgf/utilities/pgfutil-latex.def" 1650183167 6825 a2b0ea5b539dda0625e99dd15785ab59 ""
  "/usr/share/texmf-dist/tex/generic/ulem/ulem.sty" 1650183167 15682 94f55b803e160cf7fb6e4d77d07cfe1d ""
  "/usr/share/texmf-dist/tex/generic/uniquecounter/uniquecounter.sty" 1650183167 7008 f92eaa0a3872ed622bbf538217cd2ab7 ""
  "/usr/share/texmf-dist/tex/generic/xkeyval/xkeyval.tex" 1650183167 19231 3cbf682090baecad8e17a66b7a271ed1 ""
  "/usr/share/texmf-dist/tex/generic/xkeyval/xkvutils.tex" 1650183167 7677 cf3e6aa6a8d444f55327f61df80bfa0c ""
  "/usr/share/texmf-dist/tex/latex/adjustbox/adjcalc.sty" 1650181202 5608 e823b3adfbc2ea70e453a21ea6e2ee12 ""
  "/usr/share/texmf-dist/tex/latex/adjustbox/adjustbox.sty" 1650181202 56912 8e897e69259d91e3f48a398c5d3ba08f ""
  "/usr/share/texmf-dist/tex/latex/adjustbox/tc-pdftex.def" 1650181202 4076 8581b1ee97fe4a61e6907d7106f85141 ""
  "/usr/share/texmf-dist/tex/latex/adjustbox/trimclip.sty" 1650181202 7250 a32c09a7494ab7f6b44688804f84e5d6 ""
  "/usr/share/texmf-dist/tex/latex/amsfonts/amsfonts.sty" 1650183167 5949 3f3fd50a8cc94c3d4cbf4fc66cd3df1c ""
  "/usr/share/texmf-dist/tex/latex/amsfonts/amssymb.sty" 1650183167 13829 94730e64147574077f8ecfea9bb69af4 ""
  "/usr/share/texmf-dist/tex/latex/amsfonts/umsa.fd" 1650183167 961 6518c6525a34feb5e8250ffa91731cff ""
  "/usr/share/texmf-dist/tex/latex/amsfonts/umsb.fd" 1650183167 961 d02606146ba5601b5645f987c92e6193 ""
  "/usr/share/texmf-dist/tex/latex/amsmath/amsbsy.sty" 1650183167 2222 da905dc1db75412efd2d8f67739f0596 ""
  "/usr/share/texmf-dist/tex/latex/amsmath/amsgen.sty" 1650183167 4173 bc0410bcccdff806d6132d3c1ef35481 ""
  "/usr/share/texmf-dist/tex/latex/amsmath/amsmath.sty" 1650183167 87648 07fbb6e9169e00cb2a2f40b31b2dbf3c ""
  "/usr/share/texmf-dist/tex/latex/amsmath/amsopn.sty" 1650183167 4128 8eea906621b6639f7ba476a472036bbe ""
  "/usr/share/texmf-dist/tex/latex/amsmath/amstext.sty" 1650183167 2444 926f379cc60fcf0c6e3fee2223b4370d ""
  "/usr/share/texmf-dist/tex/latex/atveryend/atveryend.sty" 1650183167 19336 ce7ae9438967282886b3b036cfad1e4d ""
  "/usr/share/texmf-dist/tex/latex/auxhook/auxhook.sty" 1650183167 3935 57aa3c3e203a5c2effb4d2bd2efbc323 ""
  "/usr/share/texmf-dist/tex/latex/base/article.cls" 1650183167 20144 8a7de377ae7a11ee924a7499611f5a9d ""
  "/usr/share/texmf-dist/tex/latex/base/atbegshi-ltx.sty" 1650183167 3034 3bfb87122e6fa8758225c0dd3cbaceba ""
  "/usr/share/texmf-dist/tex/latex/base/atveryend-ltx.sty" 1650183167 2462 754d6b31b2ab5a09bb72c348ace2ec75 ""
  "/usr/share/texmf-dist/tex/latex/base/fontenc.sty" 1650183167 4946 461cc78f6f26901410d9f1d725079cc6 ""
  "/usr/share/texmf-dist/tex/latex/base/inputenc.sty" 1650183167 5049 969aec05d5f39c43f8005910498fcf90 ""
  "/usr/share/texmf-dist/tex/latex/base/size11.clo" 1650183167 8464 74db94825c407b51399ca17d9bd38a3d ""
  "/usr/share/texmf-dist/tex/latex/base/t1cmtt.fd" 1650183167 2443 6dd9a5deeddddfcceb01d1932590ebad ""
  "/usr/share/texmf-dist/tex/latex/base/textcomp.sty" 1650183167 2894 55431114fc0e491ecee275edafd6c881 ""
  "/usr/share/texmf-dist/tex/latex/booktabs/booktabs.sty" 1650183167 6078 f1cb470c9199e7110a27851508ed7a5c ""
  "/usr/share/texmf-dist/tex/latex/caption/caption.sty" 1650183167 54291 b8e5c600d4aa37b48a740dd2a6c26163 ""
  "/usr/share/texmf-dist/tex/latex/caption/caption3.sty" 1650183167 71241 d2cd3a1c5acef9cb31f945b93c0bb6e3 ""
  "/usr/share/texmf-dist/tex/latex/caption/ltcaption.sty" 1650183167 7418 021d7c4eb11bde94592761855a3d046e ""
  "/usr/share/texmf-dist/tex/latex/collectbox/collectbox.sty" 1650181202 9116 495d44b5a3e7be0c46c5d1f053f457f0 ""
  "/usr/share/texmf-dist/tex/latex/enumitem/enumitem.sty" 1650181202 51697 f8f08183cd2080d9d18a41432d651dfb ""
  "/usr/share/texmf-dist/tex/latex/environ/environ.sty" 1650181202 4378 f429f0da968c278653359293040a8f52 ""
  "/usr/share/texmf-dist/tex/latex/epstopdf-pkg/epstopdf-base.sty" 1650183167 13886 d1306dcf79a944f6988e688c1785f9ce ""
  "/usr/share/texmf-dist/tex/latex/etoolbox/etoolbox.sty" 1650183167 46845 3b58f70c6e861a13d927bff09d35ecbc ""
  "/usr/share/texmf-dist/tex/latex/eurosym/eurosym.sty" 1650183167 3028 8faeef64adee9b964b5e7f5e45921024 ""
  "/usr/share/texmf-dist/tex/latex/fancyvrb/fancyvrb.sty" 1650183167 44020 81e985253f43a03ce2683caca98d0d1b ""
  "/usr/share/texmf-dist/tex/latex/float/float.sty" 1650183167 6749 16d2656a1984957e674b149555f1ea1d ""
  "/usr/share/texmf-dist/tex/latex/geometry/geometry.sty" 1650183167 41601 9cf6c5257b1bc7af01a58859749dd37a ""
  "/usr/share/texmf-dist/tex/latex/graphics-cfg/color.cfg" 1650183167 1213 620bba36b25224fa9b7e1ccb4ecb76fd ""
  "/usr/share/texmf-dist/tex/latex/graphics-cfg/graphics.cfg" 1650183167 1224 978390e9c2234eab29404bc21b268d1e ""
  "/usr/share/texmf-dist/tex/latex/graphics-def/pdftex.def" 1650183167 19103 48d29b6e2a64cb717117ef65f107b404 ""
  "/usr/share/texmf-dist/tex/latex/graphics/color.sty" 1650183167 7197 eb6c1ebf41667a05cb50c23c19d5e8bc ""
  "/usr/share/texmf-dist/tex/latex/graphics/graphics.sty" 1650183167 18399 7e40f80366dffb22c0e7b70517db5cb4 ""
  "/usr/share/texmf-dist/tex/latex/graphics/graphicx.sty" 1650183167 7996 a8fb260d598dcaf305a7ae7b9c3e3229 ""
  "/usr/share/texmf-dist/tex/latex/graphics/keyval.sty" 1650183167 2671 4de6781a30211fe0ea4c672e4a2a8166 ""
  "/usr/share/texmf-dist/tex/latex/graphics/trig.sty" 1650183167 4009 187ea2dc3194cd5a76cd99a8d7a6c4d0 ""
  "/usr/share/texmf-dist/tex/latex/grfext/grfext.sty" 1650183167 7133 b94bbacbee6e4fdccdc7f810b2aec370 ""
  "/usr/share/texmf-dist/tex/latex/grffile/grffile.sty" 1650183167 1499 e43bb281163d9895e141f684cfc2da7e ""
  "/usr/share/texmf-dist/tex/latex/hycolor/hycolor.sty" 1650183167 17914 4c28a13fc3d975e6e81c9bea1d697276 ""
  "/usr/share/texmf-dist/tex/latex/hyperref/hpdftex.def" 1650183167 49029 7c9e5115b2217efbeb7828ac0d1bf1a0 ""
  "/usr/share/texmf-dist/tex/latex/hyperref/hyperref.sty" 1650183167 220999 6145ea83914c186e178d1d31c50b37df ""
  "/usr/share/texmf-dist/tex/latex/hyperref/nameref.sty" 1650183167 13242 133e617c5eebffdd05e421624022b267 ""
  "/usr/share/texmf-dist/tex/latex/hyperref/pd1enc.def" 1650183167 14132 e8e7e61e51ade521a7238fac8362786c ""
  "/usr/share/texmf-dist/tex/latex/hyperref/puenc.def" 1650183167 117004 ed1c2cc82bb9836e9d59549dd8c33098 ""
  "/usr/share/texmf-dist/tex/latex/ifoddpage/ifoddpage.sty" 1650181202 2148 0426cd8bb94163c1e23726d0c15e2c21 ""
  "/usr/share/texmf-dist/tex/latex/jknapltx/mathrsfs.sty" 1650183167 300 12fa6f636b617656f2810ee82cb05015 ""
  "/usr/share/texmf-dist/tex/latex/jknapltx/ursfs.fd" 1650183167 548 cc4e3557704bfed27c7002773fad6c90 ""
  "/usr/share/texmf-dist/tex/latex/kvoptions/kvoptions.sty" 1650183167 22521 d2fceb764a442a2001d257ef11db7618 ""
  "/usr/share/texmf-dist/tex/latex/l3backend/l3backend-pdftex.def" 1650183167 31644 9b75b7ffdb38fbd7bb4502cd6b086a3c ""
  "/usr/share/texmf-dist/tex/latex/latexconfig/epstopdf-sys.cfg" 1650183167 678 4792914a8f45be57bb98413425e4c7af ""
  "/usr/share/texmf-dist/tex/latex/letltxmacro/letltxmacro.sty" 1650183167 5766 13a9e8766c47f30327caf893ece86ac8 ""
  "/usr/share/texmf-dist/tex/latex/parskip/parskip.sty" 1650183167 4288 94714aa7f535440f33181fec52a31963 ""
  "/usr/share/texmf-dist/tex/latex/pgf/basiclayer/pgf.sty" 1650183167 1090 bae35ef70b3168089ef166db3e66f5b2 ""
  "/usr/share/texmf-dist/tex/latex/pgf/basiclayer/pgfcore.sty" 1650183167 410 615550c46f918fcbee37641b02a862d9 ""
  "/usr/share/texmf-dist/tex/latex/pgf/compatibility/pgfcomp-version-0-65.sty" 1650183167 21013 f4ff83d25bb56552493b030f27c075ae ""
  "/usr/share/texmf-dist/tex/latex/pgf/compatibility/pgfcomp-version-1-18.sty" 1650183167 989 c49c8ae06d96f8b15869da7428047b1e ""
  "/usr/share/texmf-dist/tex/latex/pgf/systemlayer/pgfsys.sty" 1650183167 443 8c872229db56122037e86bcda49e14f3 ""
  "/usr/share/texmf-dist/tex/latex/pgf/utilities/pgfrcs.sty" 1650183167 325 f9f16d12354225b7dd52a3321f085955 ""
  "/usr/share/texmf-dist/tex/latex/psnfss/t1phv.fd" 1650183167 1483 47067fbe7c3ffed1ede7aaa7b8549d7a ""
  "/usr/share/texmf-dist/tex/latex/refcount/refcount.sty" 1650183167 9878 9e94e8fa600d95f9c7731bb21dfb67a4 ""
  "/usr/share/texmf-dist/tex/latex/rerunfilecheck/rerunfilecheck.sty" 1650183167 9715 b051d5b493d9fe5f4bc251462d039e5f ""
  "/usr/share/texmf-dist/tex/latex/tcolorbox/tcbbreakable.code.tex" 1650181202 34192 d3120de665288c926b2f82d0f0f0010a ""
  "/usr/share/texmf-dist/tex/latex/tcolorbox/tcolorbox.sty" 1650181202 90399 93200a4832e517564b5aa5dc46e12177 ""
  "/usr/share/texmf-dist/tex/latex/titling/titling.sty" 1650181202 7358 95ac619994bd30d405a74f3eca431c84 ""
  "/usr/share/texmf-dist/tex/latex/tools/array.sty" 1650183167 12694 6c23725d50ab9d1e2d3ce482c58ffcf3 ""
  "/usr/share/texmf-dist/tex/latex/tools/calc.sty" 1650183167 10214 00ce62e730d0cfe22b35e8f1c84949c7 ""
  "/usr/share/texmf-dist/tex/latex/tools/enumerate.sty" 1650183167 3468 068d84ef9735e15f11c5a120c0a1a139 ""
  "/usr/share/texmf-dist/tex/latex/tools/longtable.sty" 1650183167 12892 3ffe092fc7f5d1cb9866f1bcb071d0d6 ""
  "/usr/share/texmf-dist/tex/latex/tools/verbatim.sty" 1650183167 7392 39729ae6a807e217edf1442cf8fab2c2 ""
  "/usr/share/texmf-dist/tex/latex/trimspaces/trimspaces.sty" 1650181202 1380 971a51b00a14503ddf754cab24c3f209 ""
  "/usr/share/texmf-dist/tex/latex/ucs/data/uni-0.def" 1650181202 7784 086a50b784a20762a031889b73f97126 ""
  "/usr/share/texmf-dist/tex/latex/ucs/data/uni-global.def" 1650181202 1375 8a855db83af5d6753ccbbd32e6a8a901 ""
  "/usr/share/texmf-dist/tex/latex/ucs/ucs.sty" 1650181202 27982 5723d81d568db410592a59b85fb3eaae ""
  "/usr/share/texmf-dist/tex/latex/ucs/ucsencs.def" 1650181202 22368 c53c9d0d16c65bef2b157515c9d9f658 ""
  "/usr/share/texmf-dist/tex/latex/ucs/utf8x.def" 1650181202 8036 21f7ac37aafb6cfeddbb196b8bfd6280 ""
  "/usr/share/texmf-dist/tex/latex/upquote/upquote.sty" 1650181202 1048 517e01cde97c1c0baf72e69d43aa5a2e ""
  "/usr/share/texmf-dist/tex/latex/url/url.sty" 1650183167 12796 8edb7d69a20b857904dd0ea757c14ec9 ""
  "/usr/share/texmf-dist/tex/latex/varwidth/varwidth.sty" 1650181202 10894 d359a13923460b2a73d4312d613554c8 ""
  "/usr/share/texmf-dist/tex/latex/xcolor/xcolor.sty" 1650183167 56029 3f7889dab51d620aa43177c391b7b190 ""
  "/usr/share/texmf-dist/tex/latex/xkeyval/xkeyval.sty" 1650183167 4902 efb3d66683a2da2a232f71e3a571a899 ""
  "/usr/share/texmf-dist/web2c/texmf.cnf" 1650183167 39911 2da6c67557ec033436fe5418a70a8a61 ""
  "/var/lib/texmf/fonts/map/pdftex/updmap/pdftex.map" 1667868161 4278762 af3ac1370db81a450c1118eabf1fe718 ""
  "/var/lib/texmf/web2c/pdftex/pdflatex.fmt" 1667868147 2927662 ef3de451278b3f2b6cce2ddb3df5876f ""
  "img//UCT_logo.png" 1669639240 114046 ba463660e2eb7a786dd932c2df12b179 ""
  "img//scp1.png" 1669664592 129731 70adf33862824a95a0ddd4961d1c5d6e ""
  "img//scp2.png" 1669664744 130006 191dad8b2698a722424fcb25b3ce76d7 ""
  "img//scp3.png" 1669665709 195349 e0d7b4f3a2209cfbebf4eafe04ca040d ""
  "img//ssh1.png" 1669658220 439659 3291aae5e019d2a69e21f34a15ad0808 ""
  "img//terminalserver1.png" 1669682746 61383 aa814eb8bf88b1e46c7314c8430bc2bd ""
  "img//terminalserver9.png" 1669682522 45352 dded12775e358c67a4636012a8535deb ""
  "img//vnc0.png" 1669671530 40599 252d9c028fc31981bf50c0311c0e02ce ""
  "img//vnc1.png" 1669672386 25850 025323b6f582c8354ac5144c21b9e83b ""
  "reporte.aux" 1669687511 1450 f2da42a33bb4e7a4cad3805f3f724c25 "pdflatex"
  "reporte.bbl" 1669687465 1863 8932588e32b8a7dc620443eb70753342 "bibtex reporte"
  "reporte.out" 0 -1 0 "pdflatex"
  "reporte.tex" 1669687510 29329 6041f33612cba4336df0a590aebe6d4b ""
  (generated)
  "reporte.aux"
  "reporte.log"
  "reporte.out"
  "reporte.pdf"
