\relax 
\providecommand\hyper@newdestlabel[2]{}
\providecommand\HyperFirstAtBeginDocument{\AtBeginDocument}
\HyperFirstAtBeginDocument{\ifx\hyper@anchor\@undefined
\global\let\oldcontentsline\contentsline
\gdef\contentsline#1#2#3#4{\oldcontentsline{#1}{#2}{#3}}
\global\let\oldnewlabel\newlabel
\gdef\newlabel#1#2{\newlabelxx{#1}#2}
\gdef\newlabelxx#1#2#3#4#5#6{\oldnewlabel{#1}{{#2}{#3}}}
\AtEndDocument{\ifx\hyper@anchor\@undefined
\let\contentsline\oldcontentsline
\let\newlabel\oldnewlabel
\fi}
\fi}
\global\let\hyper@last\relax 
\gdef\HyperFirstAtBeginDocument#1{#1}
\providecommand\HyField@AuxAddToFields[1]{}
\providecommand\HyField@AuxAddToCoFields[2]{}
\providecommand \oddpage@label [2]{}
\newlabel{proyecto-3-de-programaciuxf3n-de-robot}{{}{1}{Proyecto 3 de programación de robot}{section*.1}{}}
\newlabel{libreruxedas}{{}{1}{Librerías}{section*.2}{}}
\newlabel{variables-y-constantes-globales}{{}{1}{Variables y constantes globales}{section*.3}{}}
\newlabel{clases}{{}{1}{Clases}{section*.4}{}}
\newlabel{funciones}{{}{2}{Funciones}{section*.5}{}}
\newlabel{cargar-imuxe1genes}{{}{2}{Cargar imágenes}{section*.6}{}}
\newlabel{inicializar-pygame}{{}{3}{Inicializar pygame}{section*.7}{}}
\newlabel{inicializar-el-robot}{{}{3}{Inicializar el robot}{section*.8}{}}
\newlabel{inicializar-las-imuxe1genes}{{}{3}{Inicializar las imágenes}{section*.9}{}}
\newlabel{inicializar-el-mapa}{{}{4}{Inicializar el mapa}{section*.10}{}}
\newlabel{pintar-el-mapa}{{}{4}{Pintar el mapa}{section*.11}{}}
\newlabel{pintar-el-robot}{{}{4}{Pintar el robot}{section*.12}{}}
\newlabel{mover-el-robot}{{}{4}{Mover el robot}{section*.13}{}}
\newlabel{pintar-el-mouse}{{}{5}{Pintar el mouse}{section*.14}{}}
\newlabel{mandar-imuxe1genes}{{}{5}{Mandar imágenes}{section*.15}{}}
\newlabel{llamar-las-funciones-init}{{}{6}{Llamar las funciones init}{section*.16}{}}
\newlabel{variables-generales}{{}{6}{Variables generales}{section*.17}{}}
\newlabel{bucle-principal}{{}{7}{Bucle principal}{section*.18}{}}
\gdef \@abspage@last{7}
