\relax 
\providecommand\hyper@newdestlabel[2]{}
\providecommand\HyperFirstAtBeginDocument{\AtBeginDocument}
\HyperFirstAtBeginDocument{\ifx\hyper@anchor\@undefined
\global\let\oldcontentsline\contentsline
\gdef\contentsline#1#2#3#4{\oldcontentsline{#1}{#2}{#3}}
\global\let\oldnewlabel\newlabel
\gdef\newlabel#1#2{\newlabelxx{#1}#2}
\gdef\newlabelxx#1#2#3#4#5#6{\oldnewlabel{#1}{{#2}{#3}}}
\AtEndDocument{\ifx\hyper@anchor\@undefined
\let\contentsline\oldcontentsline
\let\newlabel\oldnewlabel
\fi}
\fi}
\global\let\hyper@last\relax 
\gdef\HyperFirstAtBeginDocument#1{#1}
\providecommand\HyField@AuxAddToFields[1]{}
\providecommand\HyField@AuxAddToCoFields[2]{}
\providecommand\babel@aux[2]{}
\@nameuse{bbl@beforestart}
\catcode `"\active 
\catcode `<\active 
\catcode `>\active 
\@nameuse{es@quoting}
\providecommand \oddpage@label [2]{}
\babel@aux{spanish}{}
\citation{ac}
\citation{DC}
\citation{dbDC}
\citation{workload}
\citation{estructuraAc}
\citation{netbiosvuln}
\bibstyle{apalike}
\bibdata{referencias}
\bibcite{workload}{{Equipo de microsoft}, 2012}
\bibcite{estructuraAc}{{Equipo de microsoft}, 2021}
\bibcite{dbDC}{{Equipo de microsoft}, 2022}
\bibcite{netbiosvuln}{{hmong}, }
\bibcite{ac}{{Iain Foulds}, 2022}
\bibcite{DC}{{techopedia}, 2020}
\gdef \@abspage@last{21}
