\relax 
\providecommand\hyper@newdestlabel[2]{}
\providecommand\HyperFirstAtBeginDocument{\AtBeginDocument}
\HyperFirstAtBeginDocument{\ifx\hyper@anchor\@undefined
\global\let\oldcontentsline\contentsline
\gdef\contentsline#1#2#3#4{\oldcontentsline{#1}{#2}{#3}}
\global\let\oldnewlabel\newlabel
\gdef\newlabel#1#2{\newlabelxx{#1}#2}
\gdef\newlabelxx#1#2#3#4#5#6{\oldnewlabel{#1}{{#2}{#3}}}
\AtEndDocument{\ifx\hyper@anchor\@undefined
\let\contentsline\oldcontentsline
\let\newlabel\oldnewlabel
\fi}
\fi}
\global\let\hyper@last\relax 
\gdef\HyperFirstAtBeginDocument#1{#1}
\providecommand\HyField@AuxAddToFields[1]{}
\providecommand\HyField@AuxAddToCoFields[2]{}
\providecommand \oddpage@label [2]{}
\newlabel{cuxf3digo-app.py}{{}{1}{Código app.py}{section*.1}{}}
\newlabel{libreruxedas}{{}{1}{Librerías}{section*.2}{}}
\newlabel{variable-globales}{{}{1}{Variable globales}{section*.3}{}}
\newlabel{definiciuxf3n-de-la-estructuras}{{}{2}{Definición de la estructuras}{section*.4}{}}
\newlabel{funciones}{{}{3}{Funciones}{section*.5}{}}
\newlabel{cargar-imuxe1genes}{{}{3}{Cargar imágenes}{section*.6}{}}
\newlabel{inicializar-el-arreglo-de-imuxe1genes}{{}{3}{Inicializar el arreglo de imágenes}{section*.7}{}}
\newlabel{inicializar-pygame}{{}{3}{Inicializar pygame}{section*.8}{}}
\newlabel{inicializar-el-robot}{{}{4}{Inicializar el robot}{section*.9}{}}
\newlabel{leer-el-archivo-mapa.dat}{{}{4}{Leer el archivo mapa.dat}{section*.10}{}}
\newlabel{dibujar-el-robot}{{}{5}{Dibujar el robot}{section*.11}{}}
\newlabel{dibujar-el-mapa}{{}{5}{Dibujar el mapa}{section*.12}{}}
\newlabel{dibujar-el-mouse}{{}{5}{Dibujar el mouse}{section*.13}{}}
\newlabel{funciuxf3n-auxiliar-del-movimiento-del-robot}{{}{5}{Función auxiliar del movimiento del robot}{section*.14}{}}
\newlabel{obtener-y-enviar-la-informaciuxf3n-de-la-baldosa}{{}{6}{Obtener y enviar la información de la baldosa}{section*.15}{}}
\newlabel{escribir-en-el-archivo-.txt}{{}{7}{Escribir en el archivo .txt}{section*.16}{}}
\newlabel{escribir-en-el-archivo-.dat}{{}{7}{Escribir en el archivo .dat}{section*.17}{}}
\newlabel{mover-el-robot}{{}{8}{Mover el robot}{section*.18}{}}
\newlabel{funciuxf3n-main}{{}{8}{Función main}{section*.19}{}}
\newlabel{limpiar-el-archivo-recursos.txt}{{}{8}{Limpiar el archivo recursos.txt}{section*.20}{}}
\newlabel{luxf3gica-principal}{{}{9}{Lógica principal}{section*.21}{}}
\newlabel{bucle-principal}{{}{9}{Bucle principal}{section*.22}{}}
\newlabel{cuxf3digo-app2.py}{{}{10}{Código app2.py}{section*.23}{}}
\newlabel{libreruxedas}{{}{10}{Librerías}{section*.24}{}}
\newlabel{estructura-ecelda}{{}{10}{Estructura eCelda}{section*.25}{}}
\newlabel{funciones}{{}{11}{Funciones}{section*.26}{}}
\newlabel{oreja}{{}{11}{Oreja}{section*.27}{}}
\newlabel{gruxe1ficos}{{}{11}{Gráficos}{section*.28}{}}
\newlabel{funciuxf3n-main}{{}{12}{Función main}{section*.29}{}}
\gdef \@abspage@last{12}
