\relax 
\providecommand\hyper@newdestlabel[2]{}
\providecommand\HyperFirstAtBeginDocument{\AtBeginDocument}
\HyperFirstAtBeginDocument{\ifx\hyper@anchor\@undefined
\global\let\oldcontentsline\contentsline
\gdef\contentsline#1#2#3#4{\oldcontentsline{#1}{#2}{#3}}
\global\let\oldnewlabel\newlabel
\gdef\newlabel#1#2{\newlabelxx{#1}#2}
\gdef\newlabelxx#1#2#3#4#5#6{\oldnewlabel{#1}{{#2}{#3}}}
\AtEndDocument{\ifx\hyper@anchor\@undefined
\let\contentsline\oldcontentsline
\let\newlabel\oldnewlabel
\fi}
\fi}
\global\let\hyper@last\relax 
\gdef\HyperFirstAtBeginDocument#1{#1}
\providecommand\HyField@AuxAddToFields[1]{}
\providecommand\HyField@AuxAddToCoFields[2]{}
\providecommand \oddpage@label [2]{}
\newlabel{archivo-mapa.py}{{}{1}{Archivo mapa.py}{section*.1}{}}
\newlabel{archivo-ajedres.py}{{}{1}{Archivo ajedres.py}{section*.2}{}}
\newlabel{libreruxedas}{{}{1}{Librerías}{section*.3}{}}
\newlabel{clase-pieza}{{}{2}{Clase pieza}{section*.4}{}}
\newlabel{funciones}{{}{2}{Funciones}{section*.5}{}}
\newlabel{inicializar-pygame}{{}{2}{Inicializar pygame}{section*.6}{}}
\newlabel{cargar-la-imuxe1genes}{{}{2}{Cargar la imágenes}{section*.7}{}}
\newlabel{guardar-las-imuxe1genes-en-un-arreglo}{{}{3}{Guardar las imágenes en un arreglo}{section*.8}{}}
\newlabel{inicializar-las-piezas}{{}{3}{Inicializar las piezas}{section*.9}{}}
\newlabel{dibujar-el-mapa}{{}{3}{Dibujar el mapa}{section*.10}{}}
\newlabel{dibujar-las-piezas}{{}{4}{Dibujar las piezas}{section*.11}{}}
\newlabel{seleccionar-la-pieza}{{}{4}{Seleccionar la pieza}{section*.12}{}}
\newlabel{mover-la-pieza}{{}{4}{Mover la pieza}{section*.13}{}}
\newlabel{funciuxf3n-main}{{}{4}{Función main}{section*.14}{}}
\newlabel{llamar-las-funciones-de-inicio}{{}{4}{Llamar las funciones de inicio}{section*.15}{}}
\newlabel{variables-de-control}{{}{5}{Variables de control}{section*.16}{}}
\newlabel{bucle-principal}{{}{5}{Bucle principal}{section*.17}{}}
\newlabel{llamar-las-funciones-de-actualizaciuxf3n}{{}{5}{Llamar las funciones de actualización}{section*.18}{}}
\gdef \@abspage@last{5}
