PWD /home/oscar/weas/u/INFO1154/tareas/tarea3/informe
INPUT /usr/share/texmf-dist/web2c/texmf.cnf
INPUT /var/lib/texmf/web2c/pdftex/pdflatex.fmt
INPUT informe.tex
OUTPUT informe.log
INPUT /usr/share/texmf-dist/tex/latex/base/article.cls
INPUT /usr/share/texmf-dist/tex/latex/base/article.cls
INPUT /usr/share/texmf-dist/tex/latex/base/article.cls
INPUT /usr/share/texmf-dist/tex/latex/base/article.cls
INPUT /usr/share/texmf-dist/tex/latex/base/article.cls
INPUT /usr/share/texmf-dist/tex/latex/base/article.cls
INPUT /usr/share/texmf-dist/tex/latex/base/article.cls
INPUT /usr/share/texmf-dist/tex/latex/base/article.cls
INPUT /usr/share/texmf-dist/tex/latex/base/article.cls
INPUT /usr/share/texmf-dist/tex/latex/base/article.cls
INPUT /usr/share/texmf-dist/tex/latex/base/article.cls
INPUT /usr/share/texmf-dist/tex/latex/base/size12.clo
INPUT /usr/share/texmf-dist/tex/latex/base/size12.clo
INPUT /usr/share/texmf-dist/tex/latex/base/size12.clo
INPUT /usr/share/texmf-dist/tex/latex/base/size12.clo
INPUT /usr/share/texmf-dist/fonts/map/fontname/texfonts.map
INPUT /usr/share/texmf-dist/fonts/tfm/public/cm/cmr12.tfm
INPUT ./config.sty
INPUT ./config.sty
INPUT config.sty
INPUT ./config.sty
INPUT ./config.sty
INPUT ./config.sty
INPUT ./config.sty
INPUT ./config.sty
INPUT config.sty
INPUT ./config.sty
INPUT config.sty
INPUT /usr/share/texmf-dist/tex/latex/graphics/graphics.sty
INPUT /usr/share/texmf-dist/tex/latex/graphics/graphics.sty
INPUT /usr/share/texmf-dist/tex/latex/graphics/graphics.sty
INPUT /usr/share/texmf-dist/tex/latex/graphics/graphics.sty
INPUT /usr/share/texmf-dist/tex/latex/graphics/graphics.sty
INPUT /usr/share/texmf-dist/tex/latex/graphics/graphics.sty
INPUT /usr/share/texmf-dist/tex/latex/graphics/graphics.sty
INPUT /usr/share/texmf-dist/tex/latex/graphics/graphics.sty
INPUT /usr/share/texmf-dist/tex/latex/graphics/graphics.sty
INPUT /usr/share/texmf-dist/tex/latex/graphics/graphics.sty
INPUT /usr/share/texmf-dist/tex/latex/graphics/graphics.sty
INPUT /usr/share/texmf-dist/tex/latex/graphics/trig.sty
INPUT /usr/share/texmf-dist/tex/latex/graphics/trig.sty
INPUT /usr/share/texmf-dist/tex/latex/graphics/trig.sty
INPUT /usr/share/texmf-dist/tex/latex/graphics/trig.sty
INPUT /usr/share/texmf-dist/tex/latex/graphics/trig.sty
INPUT /usr/share/texmf-dist/tex/latex/graphics/trig.sty
INPUT /usr/share/texmf-dist/tex/latex/graphics/trig.sty
INPUT /usr/share/texmf-dist/tex/latex/graphics/trig.sty
INPUT /usr/share/texmf-dist/tex/latex/graphics/trig.sty
INPUT /usr/share/texmf-dist/tex/latex/graphics/trig.sty
INPUT /usr/share/texmf-dist/tex/latex/graphics/trig.sty
INPUT /usr/share/texmf-dist/tex/latex/graphics-cfg/graphics.cfg
INPUT /usr/share/texmf-dist/tex/latex/graphics-cfg/graphics.cfg
INPUT /usr/share/texmf-dist/tex/latex/graphics-cfg/graphics.cfg
INPUT /usr/share/texmf-dist/tex/latex/graphics-cfg/graphics.cfg
INPUT /usr/share/texmf-dist/tex/latex/graphics-def/pdftex.def
INPUT /usr/share/texmf-dist/tex/latex/graphics-def/pdftex.def
INPUT /usr/share/texmf-dist/tex/latex/graphics-def/pdftex.def
INPUT /usr/share/texmf-dist/tex/latex/graphics-def/pdftex.def
INPUT /usr/share/texmf-dist/tex/latex/pdfpages/pdfpages.sty
INPUT /usr/share/texmf-dist/tex/latex/pdfpages/pdfpages.sty
INPUT /usr/share/texmf-dist/tex/latex/pdfpages/pdfpages.sty
INPUT /usr/share/texmf-dist/tex/latex/pdfpages/pdfpages.sty
INPUT /usr/share/texmf-dist/tex/latex/pdfpages/pdfpages.sty
INPUT /usr/share/texmf-dist/tex/latex/pdfpages/pdfpages.sty
INPUT /usr/share/texmf-dist/tex/latex/pdfpages/pdfpages.sty
INPUT /usr/share/texmf-dist/tex/latex/pdfpages/pdfpages.sty
INPUT /usr/share/texmf-dist/tex/latex/pdfpages/pdfpages.sty
INPUT /usr/share/texmf-dist/tex/latex/pdfpages/pdfpages.sty
INPUT /usr/share/texmf-dist/tex/latex/pdfpages/pdfpages.sty
INPUT /usr/share/texmf-dist/tex/latex/base/ifthen.sty
INPUT /usr/share/texmf-dist/tex/latex/base/ifthen.sty
INPUT /usr/share/texmf-dist/tex/latex/base/ifthen.sty
INPUT /usr/share/texmf-dist/tex/latex/base/ifthen.sty
INPUT /usr/share/texmf-dist/tex/latex/base/ifthen.sty
INPUT /usr/share/texmf-dist/tex/latex/base/ifthen.sty
INPUT /usr/share/texmf-dist/tex/latex/base/ifthen.sty
INPUT /usr/share/texmf-dist/tex/latex/base/ifthen.sty
INPUT /usr/share/texmf-dist/tex/latex/base/ifthen.sty
INPUT /usr/share/texmf-dist/tex/latex/base/ifthen.sty
INPUT /usr/share/texmf-dist/tex/latex/base/ifthen.sty
INPUT /usr/share/texmf-dist/tex/latex/tools/calc.sty
INPUT /usr/share/texmf-dist/tex/latex/tools/calc.sty
INPUT /usr/share/texmf-dist/tex/latex/tools/calc.sty
INPUT /usr/share/texmf-dist/tex/latex/tools/calc.sty
INPUT /usr/share/texmf-dist/tex/latex/tools/calc.sty
INPUT /usr/share/texmf-dist/tex/latex/tools/calc.sty
INPUT /usr/share/texmf-dist/tex/latex/tools/calc.sty
INPUT /usr/share/texmf-dist/tex/latex/tools/calc.sty
INPUT /usr/share/texmf-dist/tex/latex/tools/calc.sty
INPUT /usr/share/texmf-dist/tex/latex/tools/calc.sty
INPUT /usr/share/texmf-dist/tex/latex/tools/calc.sty
INPUT /usr/share/texmf-dist/tex/latex/eso-pic/eso-pic.sty
INPUT /usr/share/texmf-dist/tex/latex/eso-pic/eso-pic.sty
INPUT /usr/share/texmf-dist/tex/latex/eso-pic/eso-pic.sty
INPUT /usr/share/texmf-dist/tex/latex/eso-pic/eso-pic.sty
INPUT /usr/share/texmf-dist/tex/latex/eso-pic/eso-pic.sty
INPUT /usr/share/texmf-dist/tex/latex/eso-pic/eso-pic.sty
INPUT /usr/share/texmf-dist/tex/latex/eso-pic/eso-pic.sty
INPUT /usr/share/texmf-dist/tex/latex/eso-pic/eso-pic.sty
INPUT /usr/share/texmf-dist/tex/latex/eso-pic/eso-pic.sty
INPUT /usr/share/texmf-dist/tex/latex/eso-pic/eso-pic.sty
INPUT /usr/share/texmf-dist/tex/latex/eso-pic/eso-pic.sty
INPUT /usr/share/texmf-dist/tex/latex/graphics/keyval.sty
INPUT /usr/share/texmf-dist/tex/latex/graphics/keyval.sty
INPUT /usr/share/texmf-dist/tex/latex/graphics/keyval.sty
INPUT /usr/share/texmf-dist/tex/latex/graphics/keyval.sty
INPUT /usr/share/texmf-dist/tex/latex/graphics/keyval.sty
INPUT /usr/share/texmf-dist/tex/latex/graphics/keyval.sty
INPUT /usr/share/texmf-dist/tex/latex/graphics/keyval.sty
INPUT /usr/share/texmf-dist/tex/latex/graphics/keyval.sty
INPUT /usr/share/texmf-dist/tex/latex/graphics/keyval.sty
INPUT /usr/share/texmf-dist/tex/latex/graphics/keyval.sty
INPUT /usr/share/texmf-dist/tex/latex/graphics/keyval.sty
INPUT /usr/share/texmf-dist/tex/latex/xcolor/xcolor.sty
INPUT /usr/share/texmf-dist/tex/latex/xcolor/xcolor.sty
INPUT /usr/share/texmf-dist/tex/latex/xcolor/xcolor.sty
INPUT /usr/share/texmf-dist/tex/latex/xcolor/xcolor.sty
INPUT /usr/share/texmf-dist/tex/latex/xcolor/xcolor.sty
INPUT /usr/share/texmf-dist/tex/latex/xcolor/xcolor.sty
INPUT /usr/share/texmf-dist/tex/latex/xcolor/xcolor.sty
INPUT /usr/share/texmf-dist/tex/latex/xcolor/xcolor.sty
INPUT /usr/share/texmf-dist/tex/latex/xcolor/xcolor.sty
INPUT /usr/share/texmf-dist/tex/latex/xcolor/xcolor.sty
INPUT /usr/share/texmf-dist/tex/latex/xcolor/xcolor.sty
INPUT /usr/share/texmf-dist/tex/latex/xcolor/xcolor.sty
INPUT /usr/share/texmf-dist/tex/latex/xcolor/xcolor.sty
INPUT /usr/share/texmf-dist/tex/latex/graphics-cfg/color.cfg
INPUT /usr/share/texmf-dist/tex/latex/graphics-cfg/color.cfg
INPUT /usr/share/texmf-dist/tex/latex/graphics-cfg/color.cfg
INPUT /usr/share/texmf-dist/tex/latex/graphics-cfg/color.cfg
INPUT /usr/share/texmf-dist/tex/latex/graphics/mathcolor.ltx
INPUT /usr/share/texmf-dist/tex/latex/graphics/mathcolor.ltx
INPUT /usr/share/texmf-dist/tex/latex/graphics/mathcolor.ltx
INPUT /usr/share/texmf-dist/tex/latex/graphics/mathcolor.ltx
INPUT /usr/share/texmf-dist/tex/latex/graphics/graphicx.sty
INPUT /usr/share/texmf-dist/tex/latex/graphics/graphicx.sty
INPUT /usr/share/texmf-dist/tex/latex/graphics/graphicx.sty
INPUT /usr/share/texmf-dist/tex/latex/graphics/graphicx.sty
INPUT /usr/share/texmf-dist/tex/latex/graphics/graphicx.sty
INPUT /usr/share/texmf-dist/tex/latex/graphics/graphicx.sty
INPUT /usr/share/texmf-dist/tex/latex/graphics/graphicx.sty
INPUT /usr/share/texmf-dist/tex/latex/graphics/graphicx.sty
INPUT /usr/share/texmf-dist/tex/latex/graphics/graphicx.sty
INPUT /usr/share/texmf-dist/tex/latex/graphics/graphicx.sty
INPUT /usr/share/texmf-dist/tex/latex/graphics/graphicx.sty
INPUT /usr/share/texmf-dist/tex/latex/graphics/keyval.sty
INPUT /usr/share/texmf-dist/tex/latex/graphics/graphics.sty
INPUT /usr/share/texmf-dist/tex/latex/pdfpages/pppdftex.def
INPUT /usr/share/texmf-dist/tex/latex/pdfpages/pppdftex.def
INPUT /usr/share/texmf-dist/tex/latex/pdfpages/pppdftex.def
INPUT /usr/share/texmf-dist/tex/latex/pdfpages/pppdftex.def
INPUT /usr/share/texmf-dist/tex/latex/base/inputenc.sty
INPUT /usr/share/texmf-dist/tex/latex/base/inputenc.sty
INPUT /usr/share/texmf-dist/tex/latex/base/inputenc.sty
INPUT /usr/share/texmf-dist/tex/latex/base/inputenc.sty
INPUT /usr/share/texmf-dist/tex/latex/base/inputenc.sty
INPUT /usr/share/texmf-dist/tex/latex/base/inputenc.sty
INPUT /usr/share/texmf-dist/tex/latex/base/inputenc.sty
INPUT /usr/share/texmf-dist/tex/latex/base/inputenc.sty
INPUT /usr/share/texmf-dist/tex/latex/base/inputenc.sty
INPUT /usr/share/texmf-dist/tex/latex/base/inputenc.sty
INPUT /usr/share/texmf-dist/tex/latex/base/inputenc.sty
INPUT /usr/share/texmf-dist/tex/latex/hyperref/hyperref.sty
INPUT /usr/share/texmf-dist/tex/latex/hyperref/hyperref.sty
INPUT /usr/share/texmf-dist/tex/latex/hyperref/hyperref.sty
INPUT /usr/share/texmf-dist/tex/latex/hyperref/hyperref.sty
INPUT /usr/share/texmf-dist/tex/latex/hyperref/hyperref.sty
INPUT /usr/share/texmf-dist/tex/latex/hyperref/hyperref.sty
INPUT /usr/share/texmf-dist/tex/latex/hyperref/hyperref.sty
INPUT /usr/share/texmf-dist/tex/latex/hyperref/hyperref.sty
INPUT /usr/share/texmf-dist/tex/latex/hyperref/hyperref.sty
INPUT /usr/share/texmf-dist/tex/latex/hyperref/hyperref.sty
INPUT /usr/share/texmf-dist/tex/latex/hyperref/hyperref.sty
INPUT /usr/share/texmf-dist/tex/generic/ltxcmds/ltxcmds.sty
INPUT /usr/share/texmf-dist/tex/generic/ltxcmds/ltxcmds.sty
INPUT /usr/share/texmf-dist/tex/generic/ltxcmds/ltxcmds.sty
INPUT /usr/share/texmf-dist/tex/generic/ltxcmds/ltxcmds.sty
INPUT /usr/share/texmf-dist/tex/generic/ltxcmds/ltxcmds.sty
INPUT /usr/share/texmf-dist/tex/generic/ltxcmds/ltxcmds.sty
INPUT /usr/share/texmf-dist/tex/generic/ltxcmds/ltxcmds.sty
INPUT /usr/share/texmf-dist/tex/generic/ltxcmds/ltxcmds.sty
INPUT /usr/share/texmf-dist/tex/generic/ltxcmds/ltxcmds.sty
INPUT /usr/share/texmf-dist/tex/generic/ltxcmds/ltxcmds.sty
INPUT /usr/share/texmf-dist/tex/generic/ltxcmds/ltxcmds.sty
INPUT /usr/share/texmf-dist/tex/generic/iftex/iftex.sty
INPUT /usr/share/texmf-dist/tex/generic/iftex/iftex.sty
INPUT /usr/share/texmf-dist/tex/generic/iftex/iftex.sty
INPUT /usr/share/texmf-dist/tex/generic/iftex/iftex.sty
INPUT /usr/share/texmf-dist/tex/generic/iftex/iftex.sty
INPUT /usr/share/texmf-dist/tex/generic/iftex/iftex.sty
INPUT /usr/share/texmf-dist/tex/generic/iftex/iftex.sty
INPUT /usr/share/texmf-dist/tex/generic/iftex/iftex.sty
INPUT /usr/share/texmf-dist/tex/generic/iftex/iftex.sty
INPUT /usr/share/texmf-dist/tex/generic/iftex/iftex.sty
INPUT /usr/share/texmf-dist/tex/generic/iftex/iftex.sty
INPUT /usr/share/texmf-dist/tex/generic/pdftexcmds/pdftexcmds.sty
INPUT /usr/share/texmf-dist/tex/generic/pdftexcmds/pdftexcmds.sty
INPUT /usr/share/texmf-dist/tex/generic/pdftexcmds/pdftexcmds.sty
INPUT /usr/share/texmf-dist/tex/generic/pdftexcmds/pdftexcmds.sty
INPUT /usr/share/texmf-dist/tex/generic/pdftexcmds/pdftexcmds.sty
INPUT /usr/share/texmf-dist/tex/generic/pdftexcmds/pdftexcmds.sty
INPUT /usr/share/texmf-dist/tex/generic/pdftexcmds/pdftexcmds.sty
INPUT /usr/share/texmf-dist/tex/generic/pdftexcmds/pdftexcmds.sty
INPUT /usr/share/texmf-dist/tex/generic/pdftexcmds/pdftexcmds.sty
INPUT /usr/share/texmf-dist/tex/generic/pdftexcmds/pdftexcmds.sty
INPUT /usr/share/texmf-dist/tex/generic/pdftexcmds/pdftexcmds.sty
INPUT /usr/share/texmf-dist/tex/generic/infwarerr/infwarerr.sty
INPUT /usr/share/texmf-dist/tex/generic/infwarerr/infwarerr.sty
INPUT /usr/share/texmf-dist/tex/generic/infwarerr/infwarerr.sty
INPUT /usr/share/texmf-dist/tex/generic/infwarerr/infwarerr.sty
INPUT /usr/share/texmf-dist/tex/generic/infwarerr/infwarerr.sty
INPUT /usr/share/texmf-dist/tex/generic/infwarerr/infwarerr.sty
INPUT /usr/share/texmf-dist/tex/generic/infwarerr/infwarerr.sty
INPUT /usr/share/texmf-dist/tex/generic/infwarerr/infwarerr.sty
INPUT /usr/share/texmf-dist/tex/generic/infwarerr/infwarerr.sty
INPUT /usr/share/texmf-dist/tex/generic/infwarerr/infwarerr.sty
INPUT /usr/share/texmf-dist/tex/generic/infwarerr/infwarerr.sty
INPUT /usr/share/texmf-dist/tex/generic/iftex/iftex.sty
INPUT /usr/share/texmf-dist/tex/generic/ltxcmds/ltxcmds.sty
INPUT /usr/share/texmf-dist/tex/generic/infwarerr/infwarerr.sty
INPUT /usr/share/texmf-dist/tex/latex/graphics/keyval.sty
INPUT /usr/share/texmf-dist/tex/latex/kvsetkeys/kvsetkeys.sty
INPUT /usr/share/texmf-dist/tex/latex/kvsetkeys/kvsetkeys.sty
INPUT /usr/share/texmf-dist/tex/latex/kvsetkeys/kvsetkeys.sty
INPUT /usr/share/texmf-dist/tex/latex/kvsetkeys/kvsetkeys.sty
INPUT /usr/share/texmf-dist/tex/latex/kvsetkeys/kvsetkeys.sty
INPUT /usr/share/texmf-dist/tex/latex/kvsetkeys/kvsetkeys.sty
INPUT /usr/share/texmf-dist/tex/latex/kvsetkeys/kvsetkeys.sty
INPUT /usr/share/texmf-dist/tex/latex/kvsetkeys/kvsetkeys.sty
INPUT /usr/share/texmf-dist/tex/latex/kvsetkeys/kvsetkeys.sty
INPUT /usr/share/texmf-dist/tex/latex/kvsetkeys/kvsetkeys.sty
INPUT /usr/share/texmf-dist/tex/latex/kvsetkeys/kvsetkeys.sty
INPUT /usr/share/texmf-dist/tex/generic/kvdefinekeys/kvdefinekeys.sty
INPUT /usr/share/texmf-dist/tex/generic/kvdefinekeys/kvdefinekeys.sty
INPUT /usr/share/texmf-dist/tex/generic/kvdefinekeys/kvdefinekeys.sty
INPUT /usr/share/texmf-dist/tex/generic/kvdefinekeys/kvdefinekeys.sty
INPUT /usr/share/texmf-dist/tex/generic/kvdefinekeys/kvdefinekeys.sty
INPUT /usr/share/texmf-dist/tex/generic/kvdefinekeys/kvdefinekeys.sty
INPUT /usr/share/texmf-dist/tex/generic/kvdefinekeys/kvdefinekeys.sty
INPUT /usr/share/texmf-dist/tex/generic/kvdefinekeys/kvdefinekeys.sty
INPUT /usr/share/texmf-dist/tex/generic/kvdefinekeys/kvdefinekeys.sty
INPUT /usr/share/texmf-dist/tex/generic/kvdefinekeys/kvdefinekeys.sty
INPUT /usr/share/texmf-dist/tex/generic/kvdefinekeys/kvdefinekeys.sty
INPUT /usr/share/texmf-dist/tex/generic/pdfescape/pdfescape.sty
INPUT /usr/share/texmf-dist/tex/generic/pdfescape/pdfescape.sty
INPUT /usr/share/texmf-dist/tex/generic/pdfescape/pdfescape.sty
INPUT /usr/share/texmf-dist/tex/generic/pdfescape/pdfescape.sty
INPUT /usr/share/texmf-dist/tex/generic/pdfescape/pdfescape.sty
INPUT /usr/share/texmf-dist/tex/generic/pdfescape/pdfescape.sty
INPUT /usr/share/texmf-dist/tex/generic/pdfescape/pdfescape.sty
INPUT /usr/share/texmf-dist/tex/generic/pdfescape/pdfescape.sty
INPUT /usr/share/texmf-dist/tex/generic/pdfescape/pdfescape.sty
INPUT /usr/share/texmf-dist/tex/generic/pdfescape/pdfescape.sty
INPUT /usr/share/texmf-dist/tex/generic/pdfescape/pdfescape.sty
INPUT /usr/share/texmf-dist/tex/generic/ltxcmds/ltxcmds.sty
INPUT /usr/share/texmf-dist/tex/generic/pdftexcmds/pdftexcmds.sty
INPUT /usr/share/texmf-dist/tex/latex/hycolor/hycolor.sty
INPUT /usr/share/texmf-dist/tex/latex/hycolor/hycolor.sty
INPUT /usr/share/texmf-dist/tex/latex/hycolor/hycolor.sty
INPUT /usr/share/texmf-dist/tex/latex/hycolor/hycolor.sty
INPUT /usr/share/texmf-dist/tex/latex/hycolor/hycolor.sty
INPUT /usr/share/texmf-dist/tex/latex/hycolor/hycolor.sty
INPUT /usr/share/texmf-dist/tex/latex/hycolor/hycolor.sty
INPUT /usr/share/texmf-dist/tex/latex/hycolor/hycolor.sty
INPUT /usr/share/texmf-dist/tex/latex/hycolor/hycolor.sty
INPUT /usr/share/texmf-dist/tex/latex/hycolor/hycolor.sty
INPUT /usr/share/texmf-dist/tex/latex/hycolor/hycolor.sty
INPUT /usr/share/texmf-dist/tex/latex/letltxmacro/letltxmacro.sty
INPUT /usr/share/texmf-dist/tex/latex/letltxmacro/letltxmacro.sty
INPUT /usr/share/texmf-dist/tex/latex/letltxmacro/letltxmacro.sty
INPUT /usr/share/texmf-dist/tex/latex/letltxmacro/letltxmacro.sty
INPUT /usr/share/texmf-dist/tex/latex/letltxmacro/letltxmacro.sty
INPUT /usr/share/texmf-dist/tex/latex/letltxmacro/letltxmacro.sty
INPUT /usr/share/texmf-dist/tex/latex/letltxmacro/letltxmacro.sty
INPUT /usr/share/texmf-dist/tex/latex/letltxmacro/letltxmacro.sty
INPUT /usr/share/texmf-dist/tex/latex/letltxmacro/letltxmacro.sty
INPUT /usr/share/texmf-dist/tex/latex/letltxmacro/letltxmacro.sty
INPUT /usr/share/texmf-dist/tex/latex/letltxmacro/letltxmacro.sty
INPUT /usr/share/texmf-dist/tex/latex/auxhook/auxhook.sty
INPUT /usr/share/texmf-dist/tex/latex/auxhook/auxhook.sty
INPUT /usr/share/texmf-dist/tex/latex/auxhook/auxhook.sty
INPUT /usr/share/texmf-dist/tex/latex/auxhook/auxhook.sty
INPUT /usr/share/texmf-dist/tex/latex/auxhook/auxhook.sty
INPUT /usr/share/texmf-dist/tex/latex/auxhook/auxhook.sty
INPUT /usr/share/texmf-dist/tex/latex/auxhook/auxhook.sty
INPUT /usr/share/texmf-dist/tex/latex/auxhook/auxhook.sty
INPUT /usr/share/texmf-dist/tex/latex/auxhook/auxhook.sty
INPUT /usr/share/texmf-dist/tex/latex/auxhook/auxhook.sty
INPUT /usr/share/texmf-dist/tex/latex/auxhook/auxhook.sty
INPUT /usr/share/texmf-dist/tex/latex/hyperref/nameref.sty
INPUT /usr/share/texmf-dist/tex/latex/hyperref/nameref.sty
INPUT /usr/share/texmf-dist/tex/latex/hyperref/nameref.sty
INPUT /usr/share/texmf-dist/tex/latex/hyperref/nameref.sty
INPUT /usr/share/texmf-dist/tex/latex/hyperref/nameref.sty
INPUT /usr/share/texmf-dist/tex/latex/hyperref/nameref.sty
INPUT /usr/share/texmf-dist/tex/latex/hyperref/nameref.sty
INPUT /usr/share/texmf-dist/tex/latex/hyperref/nameref.sty
INPUT /usr/share/texmf-dist/tex/latex/hyperref/nameref.sty
INPUT /usr/share/texmf-dist/tex/latex/hyperref/nameref.sty
INPUT /usr/share/texmf-dist/tex/latex/hyperref/nameref.sty
INPUT /usr/share/texmf-dist/tex/latex/refcount/refcount.sty
INPUT /usr/share/texmf-dist/tex/latex/refcount/refcount.sty
INPUT /usr/share/texmf-dist/tex/latex/refcount/refcount.sty
INPUT /usr/share/texmf-dist/tex/latex/refcount/refcount.sty
INPUT /usr/share/texmf-dist/tex/latex/refcount/refcount.sty
INPUT /usr/share/texmf-dist/tex/latex/refcount/refcount.sty
INPUT /usr/share/texmf-dist/tex/latex/refcount/refcount.sty
INPUT /usr/share/texmf-dist/tex/latex/refcount/refcount.sty
INPUT /usr/share/texmf-dist/tex/latex/refcount/refcount.sty
INPUT /usr/share/texmf-dist/tex/latex/refcount/refcount.sty
INPUT /usr/share/texmf-dist/tex/latex/refcount/refcount.sty
INPUT /usr/share/texmf-dist/tex/generic/ltxcmds/ltxcmds.sty
INPUT /usr/share/texmf-dist/tex/generic/infwarerr/infwarerr.sty
INPUT /usr/share/texmf-dist/tex/generic/gettitlestring/gettitlestring.sty
INPUT /usr/share/texmf-dist/tex/generic/gettitlestring/gettitlestring.sty
INPUT /usr/share/texmf-dist/tex/generic/gettitlestring/gettitlestring.sty
INPUT /usr/share/texmf-dist/tex/generic/gettitlestring/gettitlestring.sty
INPUT /usr/share/texmf-dist/tex/generic/gettitlestring/gettitlestring.sty
INPUT /usr/share/texmf-dist/tex/generic/gettitlestring/gettitlestring.sty
INPUT /usr/share/texmf-dist/tex/generic/gettitlestring/gettitlestring.sty
INPUT /usr/share/texmf-dist/tex/generic/gettitlestring/gettitlestring.sty
INPUT /usr/share/texmf-dist/tex/generic/gettitlestring/gettitlestring.sty
INPUT /usr/share/texmf-dist/tex/generic/gettitlestring/gettitlestring.sty
INPUT /usr/share/texmf-dist/tex/generic/gettitlestring/gettitlestring.sty
INPUT /usr/share/texmf-dist/tex/latex/kvoptions/kvoptions.sty
INPUT /usr/share/texmf-dist/tex/latex/kvoptions/kvoptions.sty
INPUT /usr/share/texmf-dist/tex/latex/kvoptions/kvoptions.sty
INPUT /usr/share/texmf-dist/tex/latex/kvoptions/kvoptions.sty
INPUT /usr/share/texmf-dist/tex/latex/kvoptions/kvoptions.sty
INPUT /usr/share/texmf-dist/tex/latex/kvoptions/kvoptions.sty
INPUT /usr/share/texmf-dist/tex/latex/kvoptions/kvoptions.sty
INPUT /usr/share/texmf-dist/tex/latex/kvoptions/kvoptions.sty
INPUT /usr/share/texmf-dist/tex/latex/kvoptions/kvoptions.sty
INPUT /usr/share/texmf-dist/tex/latex/kvoptions/kvoptions.sty
INPUT /usr/share/texmf-dist/tex/latex/kvoptions/kvoptions.sty
INPUT /usr/share/texmf-dist/tex/generic/ltxcmds/ltxcmds.sty
INPUT /usr/share/texmf-dist/tex/latex/kvsetkeys/kvsetkeys.sty
INPUT /usr/share/texmf-dist/tex/generic/ltxcmds/ltxcmds.sty
INPUT /usr/share/texmf-dist/tex/latex/kvoptions/kvoptions.sty
INPUT /usr/share/texmf-dist/tex/latex/hyperref/pd1enc.def
INPUT /usr/share/texmf-dist/tex/latex/hyperref/pd1enc.def
INPUT /usr/share/texmf-dist/tex/latex/hyperref/pd1enc.def
INPUT /usr/share/texmf-dist/tex/latex/hyperref/pd1enc.def
INPUT /usr/share/texmf-dist/tex/generic/intcalc/intcalc.sty
INPUT /usr/share/texmf-dist/tex/generic/intcalc/intcalc.sty
INPUT /usr/share/texmf-dist/tex/generic/intcalc/intcalc.sty
INPUT /usr/share/texmf-dist/tex/generic/intcalc/intcalc.sty
INPUT /usr/share/texmf-dist/tex/generic/intcalc/intcalc.sty
INPUT /usr/share/texmf-dist/tex/generic/intcalc/intcalc.sty
INPUT /usr/share/texmf-dist/tex/generic/intcalc/intcalc.sty
INPUT /usr/share/texmf-dist/tex/generic/intcalc/intcalc.sty
INPUT /usr/share/texmf-dist/tex/generic/intcalc/intcalc.sty
INPUT /usr/share/texmf-dist/tex/generic/intcalc/intcalc.sty
INPUT /usr/share/texmf-dist/tex/generic/intcalc/intcalc.sty
INPUT /usr/share/texmf-dist/tex/generic/etexcmds/etexcmds.sty
INPUT /usr/share/texmf-dist/tex/generic/etexcmds/etexcmds.sty
INPUT /usr/share/texmf-dist/tex/generic/etexcmds/etexcmds.sty
INPUT /usr/share/texmf-dist/tex/generic/etexcmds/etexcmds.sty
INPUT /usr/share/texmf-dist/tex/generic/etexcmds/etexcmds.sty
INPUT /usr/share/texmf-dist/tex/generic/etexcmds/etexcmds.sty
INPUT /usr/share/texmf-dist/tex/generic/etexcmds/etexcmds.sty
INPUT /usr/share/texmf-dist/tex/generic/etexcmds/etexcmds.sty
INPUT /usr/share/texmf-dist/tex/generic/etexcmds/etexcmds.sty
INPUT /usr/share/texmf-dist/tex/generic/etexcmds/etexcmds.sty
INPUT /usr/share/texmf-dist/tex/generic/etexcmds/etexcmds.sty
INPUT /usr/share/texmf-dist/tex/generic/infwarerr/infwarerr.sty
INPUT /usr/share/texmf-dist/tex/generic/iftex/iftex.sty
INPUT /usr/share/texmf-dist/tex/latex/hyperref/puenc.def
INPUT /usr/share/texmf-dist/tex/latex/hyperref/puenc.def
INPUT /usr/share/texmf-dist/tex/latex/hyperref/puenc.def
INPUT /usr/share/texmf-dist/tex/latex/hyperref/puenc.def
INPUT /usr/share/texmf-dist/tex/latex/url/url.sty
INPUT /usr/share/texmf-dist/tex/latex/url/url.sty
INPUT /usr/share/texmf-dist/tex/latex/url/url.sty
INPUT /usr/share/texmf-dist/tex/latex/url/url.sty
INPUT /usr/share/texmf-dist/tex/latex/url/url.sty
INPUT /usr/share/texmf-dist/tex/latex/url/url.sty
INPUT /usr/share/texmf-dist/tex/latex/url/url.sty
INPUT /usr/share/texmf-dist/tex/latex/url/url.sty
INPUT /usr/share/texmf-dist/tex/latex/url/url.sty
INPUT /usr/share/texmf-dist/tex/latex/url/url.sty
INPUT /usr/share/texmf-dist/tex/latex/url/url.sty
INPUT /usr/share/texmf-dist/tex/generic/bitset/bitset.sty
INPUT /usr/share/texmf-dist/tex/generic/bitset/bitset.sty
INPUT /usr/share/texmf-dist/tex/generic/bitset/bitset.sty
INPUT /usr/share/texmf-dist/tex/generic/bitset/bitset.sty
INPUT /usr/share/texmf-dist/tex/generic/bitset/bitset.sty
INPUT /usr/share/texmf-dist/tex/generic/bitset/bitset.sty
INPUT /usr/share/texmf-dist/tex/generic/bitset/bitset.sty
INPUT /usr/share/texmf-dist/tex/generic/bitset/bitset.sty
INPUT /usr/share/texmf-dist/tex/generic/bitset/bitset.sty
INPUT /usr/share/texmf-dist/tex/generic/bitset/bitset.sty
INPUT /usr/share/texmf-dist/tex/generic/bitset/bitset.sty
INPUT /usr/share/texmf-dist/tex/generic/infwarerr/infwarerr.sty
INPUT /usr/share/texmf-dist/tex/generic/intcalc/intcalc.sty
INPUT /usr/share/texmf-dist/tex/generic/bigintcalc/bigintcalc.sty
INPUT /usr/share/texmf-dist/tex/generic/bigintcalc/bigintcalc.sty
INPUT /usr/share/texmf-dist/tex/generic/bigintcalc/bigintcalc.sty
INPUT /usr/share/texmf-dist/tex/generic/bigintcalc/bigintcalc.sty
INPUT /usr/share/texmf-dist/tex/generic/bigintcalc/bigintcalc.sty
INPUT /usr/share/texmf-dist/tex/generic/bigintcalc/bigintcalc.sty
INPUT /usr/share/texmf-dist/tex/generic/bigintcalc/bigintcalc.sty
INPUT /usr/share/texmf-dist/tex/generic/bigintcalc/bigintcalc.sty
INPUT /usr/share/texmf-dist/tex/generic/bigintcalc/bigintcalc.sty
INPUT /usr/share/texmf-dist/tex/generic/bigintcalc/bigintcalc.sty
INPUT /usr/share/texmf-dist/tex/generic/bigintcalc/bigintcalc.sty
INPUT /usr/share/texmf-dist/tex/generic/pdftexcmds/pdftexcmds.sty
INPUT /usr/share/texmf-dist/tex/generic/atbegshi/atbegshi.sty
INPUT /usr/share/texmf-dist/tex/generic/atbegshi/atbegshi.sty
INPUT /usr/share/texmf-dist/tex/generic/atbegshi/atbegshi.sty
INPUT /usr/share/texmf-dist/tex/latex/base/atbegshi-ltx.sty
INPUT /usr/share/texmf-dist/tex/generic/atbegshi/atbegshi.sty
INPUT /usr/share/texmf-dist/tex/generic/atbegshi/atbegshi.sty
INPUT /usr/share/texmf-dist/tex/latex/base/atbegshi-ltx.sty
INPUT /usr/share/texmf-dist/tex/generic/atbegshi/atbegshi.sty
INPUT /usr/share/texmf-dist/tex/latex/base/atbegshi-ltx.sty
INPUT /usr/share/texmf-dist/tex/latex/base/atbegshi-ltx.sty
INPUT /usr/share/texmf-dist/tex/generic/atbegshi/atbegshi.sty
INPUT /usr/share/texmf-dist/tex/generic/atbegshi/atbegshi.sty
INPUT /usr/share/texmf-dist/tex/latex/base/atbegshi-ltx.sty
INPUT /usr/share/texmf-dist/tex/latex/base/atbegshi-ltx.sty
INPUT /usr/share/texmf-dist/tex/generic/atbegshi/atbegshi.sty
INPUT /usr/share/texmf-dist/tex/latex/base/atbegshi-ltx.sty
INPUT /usr/share/texmf-dist/tex/latex/hyperref/hpdftex.def
INPUT /usr/share/texmf-dist/tex/latex/hyperref/hpdftex.def
INPUT /usr/share/texmf-dist/tex/latex/hyperref/hpdftex.def
INPUT /usr/share/texmf-dist/tex/latex/hyperref/hpdftex.def
INPUT /usr/share/texmf-dist/tex/latex/atveryend/atveryend.sty
INPUT /usr/share/texmf-dist/tex/latex/atveryend/atveryend.sty
INPUT /usr/share/texmf-dist/tex/latex/atveryend/atveryend.sty
INPUT /usr/share/texmf-dist/tex/latex/base/atveryend-ltx.sty
INPUT /usr/share/texmf-dist/tex/latex/atveryend/atveryend.sty
INPUT /usr/share/texmf-dist/tex/latex/atveryend/atveryend.sty
INPUT /usr/share/texmf-dist/tex/latex/base/atveryend-ltx.sty
INPUT /usr/share/texmf-dist/tex/latex/atveryend/atveryend.sty
INPUT /usr/share/texmf-dist/tex/latex/base/atveryend-ltx.sty
INPUT /usr/share/texmf-dist/tex/latex/base/atveryend-ltx.sty
INPUT /usr/share/texmf-dist/tex/latex/atveryend/atveryend.sty
INPUT /usr/share/texmf-dist/tex/latex/atveryend/atveryend.sty
INPUT /usr/share/texmf-dist/tex/latex/base/atveryend-ltx.sty
INPUT /usr/share/texmf-dist/tex/latex/base/atveryend-ltx.sty
INPUT /usr/share/texmf-dist/tex/latex/atveryend/atveryend.sty
INPUT /usr/share/texmf-dist/tex/latex/base/atveryend-ltx.sty
INPUT /usr/share/texmf-dist/tex/latex/rerunfilecheck/rerunfilecheck.sty
INPUT /usr/share/texmf-dist/tex/latex/rerunfilecheck/rerunfilecheck.sty
INPUT /usr/share/texmf-dist/tex/latex/rerunfilecheck/rerunfilecheck.sty
INPUT /usr/share/texmf-dist/tex/latex/rerunfilecheck/rerunfilecheck.sty
INPUT /usr/share/texmf-dist/tex/latex/rerunfilecheck/rerunfilecheck.sty
INPUT /usr/share/texmf-dist/tex/latex/rerunfilecheck/rerunfilecheck.sty
INPUT /usr/share/texmf-dist/tex/latex/rerunfilecheck/rerunfilecheck.sty
INPUT /usr/share/texmf-dist/tex/latex/rerunfilecheck/rerunfilecheck.sty
INPUT /usr/share/texmf-dist/tex/latex/rerunfilecheck/rerunfilecheck.sty
INPUT /usr/share/texmf-dist/tex/latex/rerunfilecheck/rerunfilecheck.sty
INPUT /usr/share/texmf-dist/tex/latex/rerunfilecheck/rerunfilecheck.sty
INPUT /usr/share/texmf-dist/tex/latex/kvoptions/kvoptions.sty
INPUT /usr/share/texmf-dist/tex/generic/infwarerr/infwarerr.sty
INPUT /usr/share/texmf-dist/tex/generic/pdftexcmds/pdftexcmds.sty
INPUT /usr/share/texmf-dist/tex/latex/atveryend/atveryend.sty
INPUT /usr/share/texmf-dist/tex/generic/uniquecounter/uniquecounter.sty
INPUT /usr/share/texmf-dist/tex/generic/uniquecounter/uniquecounter.sty
INPUT /usr/share/texmf-dist/tex/generic/uniquecounter/uniquecounter.sty
INPUT /usr/share/texmf-dist/tex/generic/uniquecounter/uniquecounter.sty
INPUT /usr/share/texmf-dist/tex/generic/uniquecounter/uniquecounter.sty
INPUT /usr/share/texmf-dist/tex/generic/uniquecounter/uniquecounter.sty
INPUT /usr/share/texmf-dist/tex/generic/uniquecounter/uniquecounter.sty
INPUT /usr/share/texmf-dist/tex/generic/uniquecounter/uniquecounter.sty
INPUT /usr/share/texmf-dist/tex/generic/uniquecounter/uniquecounter.sty
INPUT /usr/share/texmf-dist/tex/generic/uniquecounter/uniquecounter.sty
INPUT /usr/share/texmf-dist/tex/generic/uniquecounter/uniquecounter.sty
INPUT /usr/share/texmf-dist/tex/generic/bigintcalc/bigintcalc.sty
INPUT /usr/share/texmf-dist/tex/generic/infwarerr/infwarerr.sty
INPUT /usr/share/texmf-dist/tex/generic/babel/babel.sty
INPUT /usr/share/texmf-dist/tex/generic/babel/babel.sty
INPUT /usr/share/texmf-dist/tex/generic/babel/babel.sty
INPUT /usr/share/texmf-dist/tex/generic/babel/babel.sty
INPUT /usr/share/texmf-dist/tex/generic/babel/babel.sty
INPUT /usr/share/texmf-dist/tex/generic/babel/babel.sty
INPUT /usr/share/texmf-dist/tex/generic/babel/babel.sty
INPUT /usr/share/texmf-dist/tex/generic/babel/babel.sty
INPUT /usr/share/texmf-dist/tex/generic/babel/babel.sty
INPUT /usr/share/texmf-dist/tex/generic/babel/babel.sty
INPUT /usr/share/texmf-dist/tex/generic/babel/babel.sty
INPUT /usr/share/texmf-dist/tex/generic/babel/txtbabel.def
INPUT /usr/share/texmf-dist/tex/generic/babel-spanish/spanish.ldf
INPUT /usr/share/texmf-dist/tex/generic/babel-spanish/spanish.ldf
INPUT /usr/share/texmf-dist/tex/generic/babel-spanish/spanish.ldf
INPUT /usr/share/texmf-dist/tex/generic/babel-spanish/spanish.ldf
INPUT /usr/share/texmf-dist/tex/generic/babel/locale/es/babel-spanish.tex
INPUT /usr/share/texmf-dist/tex/generic/babel/locale/es/babel-spanish.tex
INPUT /usr/share/texmf-dist/tex/generic/babel/locale/es/babel-spanish.tex
INPUT /usr/share/texmf-dist/tex/generic/babel/locale/es/babel-spanish.tex
INPUT /usr/share/texmf-dist/tex/generic/babel/locale/es/babel-es.ini
INPUT /usr/share/texmf-dist/tex/latex/parskip/parskip.sty
INPUT /usr/share/texmf-dist/tex/latex/parskip/parskip.sty
INPUT /usr/share/texmf-dist/tex/latex/parskip/parskip.sty
INPUT /usr/share/texmf-dist/tex/latex/parskip/parskip.sty
INPUT /usr/share/texmf-dist/tex/latex/parskip/parskip.sty
INPUT /usr/share/texmf-dist/tex/latex/parskip/parskip.sty
INPUT /usr/share/texmf-dist/tex/latex/parskip/parskip.sty
INPUT /usr/share/texmf-dist/tex/latex/parskip/parskip.sty
INPUT /usr/share/texmf-dist/tex/latex/parskip/parskip.sty
INPUT /usr/share/texmf-dist/tex/latex/parskip/parskip.sty
INPUT /usr/share/texmf-dist/tex/latex/parskip/parskip.sty
INPUT /usr/share/texmf-dist/tex/latex/kvoptions/kvoptions.sty
INPUT /usr/share/texmf-dist/tex/latex/etoolbox/etoolbox.sty
INPUT /usr/share/texmf-dist/tex/latex/etoolbox/etoolbox.sty
INPUT /usr/share/texmf-dist/tex/latex/etoolbox/etoolbox.sty
INPUT /usr/share/texmf-dist/tex/latex/etoolbox/etoolbox.sty
INPUT /usr/share/texmf-dist/tex/latex/etoolbox/etoolbox.sty
INPUT /usr/share/texmf-dist/tex/latex/etoolbox/etoolbox.sty
INPUT /usr/share/texmf-dist/tex/latex/etoolbox/etoolbox.sty
INPUT /usr/share/texmf-dist/tex/latex/etoolbox/etoolbox.sty
INPUT /usr/share/texmf-dist/tex/latex/etoolbox/etoolbox.sty
INPUT /usr/share/texmf-dist/tex/latex/etoolbox/etoolbox.sty
INPUT /usr/share/texmf-dist/tex/latex/etoolbox/etoolbox.sty
INPUT /usr/share/texmf-dist/tex/latex/psnfss/helvet.sty
INPUT /usr/share/texmf-dist/tex/latex/psnfss/helvet.sty
INPUT /usr/share/texmf-dist/tex/latex/psnfss/helvet.sty
INPUT /usr/share/texmf-dist/tex/latex/psnfss/helvet.sty
INPUT /usr/share/texmf-dist/tex/latex/psnfss/helvet.sty
INPUT /usr/share/texmf-dist/tex/latex/psnfss/helvet.sty
INPUT /usr/share/texmf-dist/tex/latex/psnfss/helvet.sty
INPUT /usr/share/texmf-dist/tex/latex/psnfss/helvet.sty
INPUT /usr/share/texmf-dist/tex/latex/psnfss/helvet.sty
INPUT /usr/share/texmf-dist/tex/latex/psnfss/helvet.sty
INPUT /usr/share/texmf-dist/tex/latex/psnfss/helvet.sty
INPUT /usr/share/texmf-dist/tex/latex/graphics/keyval.sty
INPUT /usr/share/texmf-dist/tex/latex/sfmath/sfmath.sty
INPUT /usr/share/texmf-dist/tex/latex/sfmath/sfmath.sty
INPUT /usr/share/texmf-dist/tex/latex/sfmath/sfmath.sty
INPUT /usr/share/texmf-dist/tex/latex/sfmath/sfmath.sty
INPUT /usr/share/texmf-dist/tex/latex/sfmath/sfmath.sty
INPUT /usr/share/texmf-dist/tex/latex/sfmath/sfmath.sty
INPUT /usr/share/texmf-dist/tex/latex/sfmath/sfmath.sty
INPUT /usr/share/texmf-dist/tex/latex/sfmath/sfmath.sty
INPUT /usr/share/texmf-dist/tex/latex/sfmath/sfmath.sty
INPUT /usr/share/texmf-dist/tex/latex/sfmath/sfmath.sty
INPUT /usr/share/texmf-dist/tex/latex/sfmath/sfmath.sty
INPUT /usr/share/texmf-dist/tex/latex/titlesec/titlesec.sty
INPUT /usr/share/texmf-dist/tex/latex/titlesec/titlesec.sty
INPUT /usr/share/texmf-dist/tex/latex/titlesec/titlesec.sty
INPUT /usr/share/texmf-dist/tex/latex/titlesec/titlesec.sty
INPUT /usr/share/texmf-dist/tex/latex/titlesec/titlesec.sty
INPUT /usr/share/texmf-dist/tex/latex/titlesec/titlesec.sty
INPUT /usr/share/texmf-dist/tex/latex/titlesec/titlesec.sty
INPUT /usr/share/texmf-dist/tex/latex/titlesec/titlesec.sty
INPUT /usr/share/texmf-dist/tex/latex/titlesec/titlesec.sty
INPUT /usr/share/texmf-dist/tex/latex/titlesec/titlesec.sty
INPUT /usr/share/texmf-dist/tex/latex/titlesec/titlesec.sty
INPUT /usr/share/texmf-dist/tex/latex/tocloft/tocloft.sty
INPUT /usr/share/texmf-dist/tex/latex/tocloft/tocloft.sty
INPUT /usr/share/texmf-dist/tex/latex/tocloft/tocloft.sty
INPUT /usr/share/texmf-dist/tex/latex/tocloft/tocloft.sty
INPUT /usr/share/texmf-dist/tex/latex/tocloft/tocloft.sty
INPUT /usr/share/texmf-dist/tex/latex/tocloft/tocloft.sty
INPUT /usr/share/texmf-dist/tex/latex/tocloft/tocloft.sty
INPUT /usr/share/texmf-dist/tex/latex/tocloft/tocloft.sty
INPUT /usr/share/texmf-dist/tex/latex/tocloft/tocloft.sty
INPUT /usr/share/texmf-dist/tex/latex/tocloft/tocloft.sty
INPUT /usr/share/texmf-dist/tex/latex/tocloft/tocloft.sty
INPUT /usr/share/texmf-dist/tex/latex/biblatex/biblatex.sty
INPUT /usr/share/texmf-dist/tex/latex/biblatex/biblatex.sty
INPUT /usr/share/texmf-dist/tex/latex/biblatex/biblatex.sty
INPUT /usr/share/texmf-dist/tex/latex/biblatex/biblatex.sty
INPUT /usr/share/texmf-dist/tex/latex/biblatex/biblatex.sty
INPUT /usr/share/texmf-dist/tex/latex/biblatex/biblatex.sty
INPUT /usr/share/texmf-dist/tex/latex/biblatex/biblatex.sty
INPUT /usr/share/texmf-dist/tex/latex/biblatex/biblatex.sty
INPUT /usr/share/texmf-dist/tex/latex/biblatex/biblatex.sty
INPUT /usr/share/texmf-dist/tex/latex/biblatex/biblatex.sty
INPUT /usr/share/texmf-dist/tex/latex/biblatex/biblatex.sty
INPUT /usr/share/texmf-dist/tex/generic/pdftexcmds/pdftexcmds.sty
INPUT /usr/share/texmf-dist/tex/latex/etoolbox/etoolbox.sty
INPUT /usr/share/texmf-dist/tex/latex/graphics/keyval.sty
INPUT /usr/share/texmf-dist/tex/latex/kvoptions/kvoptions.sty
INPUT /usr/share/texmf-dist/tex/latex/logreq/logreq.sty
INPUT /usr/share/texmf-dist/tex/latex/logreq/logreq.sty
INPUT /usr/share/texmf-dist/tex/latex/logreq/logreq.sty
INPUT /usr/share/texmf-dist/tex/latex/logreq/logreq.sty
INPUT /usr/share/texmf-dist/tex/latex/logreq/logreq.sty
INPUT /usr/share/texmf-dist/tex/latex/logreq/logreq.sty
INPUT /usr/share/texmf-dist/tex/latex/logreq/logreq.sty
INPUT /usr/share/texmf-dist/tex/latex/logreq/logreq.sty
INPUT /usr/share/texmf-dist/tex/latex/logreq/logreq.sty
INPUT /usr/share/texmf-dist/tex/latex/logreq/logreq.sty
INPUT /usr/share/texmf-dist/tex/latex/logreq/logreq.sty
INPUT /usr/share/texmf-dist/tex/latex/etoolbox/etoolbox.sty
INPUT /usr/share/texmf-dist/tex/latex/graphics/keyval.sty
INPUT /usr/share/texmf-dist/tex/latex/logreq/logreq.def
INPUT /usr/share/texmf-dist/tex/latex/logreq/logreq.def
INPUT /usr/share/texmf-dist/tex/latex/logreq/logreq.def
INPUT /usr/share/texmf-dist/tex/latex/logreq/logreq.def
INPUT /usr/share/texmf-dist/tex/latex/base/ifthen.sty
INPUT /usr/share/texmf-dist/tex/latex/url/url.sty
INPUT /usr/share/texmf-dist/tex/latex/biblatex/blx-dm.def
INPUT /usr/share/texmf-dist/tex/latex/biblatex/blx-dm.def
INPUT /usr/share/texmf-dist/tex/latex/biblatex/blx-dm.def
INPUT /usr/share/texmf-dist/tex/latex/biblatex-apa/apa.dbx
INPUT /usr/share/texmf-dist/tex/latex/biblatex-apa/apa.dbx
INPUT /usr/share/texmf-dist/tex/latex/biblatex-apa/apa.dbx
INPUT /usr/share/texmf-dist/tex/latex/biblatex/blx-compat.def
INPUT /usr/share/texmf-dist/tex/latex/biblatex/blx-compat.def
INPUT /usr/share/texmf-dist/tex/latex/biblatex/blx-compat.def
INPUT /usr/share/texmf-dist/tex/latex/biblatex/biblatex.def
INPUT /usr/share/texmf-dist/tex/latex/biblatex/biblatex.def
INPUT /usr/share/texmf-dist/tex/latex/biblatex/biblatex.def
INPUT /usr/share/texmf-dist/tex/latex/biblatex-apa/apa.bbx
INPUT /usr/share/texmf-dist/tex/latex/biblatex-apa/apa.bbx
INPUT /usr/share/texmf-dist/tex/latex/biblatex-apa/apa.bbx
INPUT /usr/share/texmf-dist/tex/latex/biblatex/bbx/standard.bbx
INPUT /usr/share/texmf-dist/tex/latex/biblatex/bbx/standard.bbx
INPUT /usr/share/texmf-dist/tex/latex/biblatex/bbx/standard.bbx
INPUT /usr/share/texmf-dist/tex/latex/biblatex-apa/apa.cbx
INPUT /usr/share/texmf-dist/tex/latex/biblatex-apa/apa.cbx
INPUT /usr/share/texmf-dist/tex/latex/biblatex-apa/apa.cbx
INPUT /usr/share/texmf-dist/tex/latex/biblatex/biblatex.cfg
INPUT /usr/share/texmf-dist/tex/latex/biblatex/biblatex.cfg
INPUT /usr/share/texmf-dist/tex/latex/biblatex/biblatex.cfg
INPUT /usr/share/texmf-dist/tex/latex/l3kernel/expl3.sty
INPUT /usr/share/texmf-dist/tex/latex/l3kernel/expl3.sty
INPUT /usr/share/texmf-dist/tex/latex/l3kernel/expl3.sty
INPUT /usr/share/texmf-dist/tex/latex/l3kernel/expl3.sty
INPUT /usr/share/texmf-dist/tex/latex/l3kernel/expl3.sty
INPUT /usr/share/texmf-dist/tex/latex/l3kernel/expl3.sty
INPUT /usr/share/texmf-dist/tex/latex/l3kernel/expl3.sty
INPUT /usr/share/texmf-dist/tex/latex/l3kernel/expl3.sty
INPUT /usr/share/texmf-dist/tex/latex/l3kernel/expl3.sty
INPUT /usr/share/texmf-dist/tex/latex/l3kernel/expl3.sty
INPUT /usr/share/texmf-dist/tex/latex/l3kernel/expl3.sty
INPUT /usr/share/texmf-dist/tex/latex/l3backend/l3backend-pdftex.def
INPUT /usr/share/texmf-dist/tex/latex/l3backend/l3backend-pdftex.def
INPUT /usr/share/texmf-dist/tex/latex/l3backend/l3backend-pdftex.def
INPUT /usr/share/texmf-dist/tex/latex/l3backend/l3backend-pdftex.def
INPUT /usr/share/texmf-dist/tex/latex/l3backend/l3backend-pdftex.def
INPUT /usr/share/texmf-dist/tex/latex/l3backend/l3backend-pdftex.def
INPUT /usr/share/texmf-dist/tex/latex/l3backend/l3backend-pdftex.def
INPUT /usr/share/texmf-dist/tex/latex/l3backend/l3backend-pdftex.def
INPUT /usr/share/texmf-dist/tex/latex/l3backend/l3backend-pdftex.def
INPUT /usr/share/texmf-dist/tex/latex/l3backend/l3backend-pdftex.def
INPUT /usr/share/texmf-dist/tex/latex/l3backend/l3backend-pdftex.def
INPUT /usr/share/texmf-dist/tex/latex/biblatex/blx-case-expl3.sty
INPUT /usr/share/texmf-dist/tex/latex/biblatex/blx-case-expl3.sty
INPUT /usr/share/texmf-dist/tex/latex/biblatex/blx-case-expl3.sty
INPUT /usr/share/texmf-dist/tex/latex/biblatex/blx-case-expl3.sty
INPUT /usr/share/texmf-dist/tex/latex/biblatex/blx-case-expl3.sty
INPUT /usr/share/texmf-dist/tex/latex/biblatex/blx-case-expl3.sty
INPUT /usr/share/texmf-dist/tex/latex/biblatex/blx-case-expl3.sty
INPUT /usr/share/texmf-dist/tex/latex/biblatex/blx-case-expl3.sty
INPUT /usr/share/texmf-dist/tex/latex/biblatex/blx-case-expl3.sty
INPUT /usr/share/texmf-dist/tex/latex/biblatex/blx-case-expl3.sty
INPUT /usr/share/texmf-dist/tex/latex/biblatex/blx-case-expl3.sty
INPUT /usr/share/texmf-dist/tex/latex/l3kernel/expl3.sty
INPUT /usr/share/texmf-dist/tex/latex/l3packages/xparse/xparse.sty
INPUT /usr/share/texmf-dist/tex/latex/l3packages/xparse/xparse.sty
INPUT /usr/share/texmf-dist/tex/latex/l3packages/xparse/xparse.sty
INPUT /usr/share/texmf-dist/tex/latex/l3packages/xparse/xparse.sty
INPUT /usr/share/texmf-dist/tex/latex/l3packages/xparse/xparse.sty
INPUT /usr/share/texmf-dist/tex/latex/l3packages/xparse/xparse.sty
INPUT /usr/share/texmf-dist/tex/latex/l3packages/xparse/xparse.sty
INPUT /usr/share/texmf-dist/tex/latex/l3packages/xparse/xparse.sty
INPUT /usr/share/texmf-dist/tex/latex/l3packages/xparse/xparse.sty
INPUT /usr/share/texmf-dist/tex/latex/l3packages/xparse/xparse.sty
INPUT /usr/share/texmf-dist/tex/latex/l3packages/xparse/xparse.sty
INPUT /usr/share/texmf-dist/tex/latex/l3kernel/expl3.sty
INPUT ./informe.aux
INPUT informe.aux
INPUT informe.aux
OUTPUT informe.aux
INPUT /usr/share/texmf-dist/tex/context/base/mkii/supp-pdf.mkii
INPUT /usr/share/texmf-dist/tex/context/base/mkii/supp-pdf.mkii
INPUT /usr/share/texmf-dist/tex/context/base/mkii/supp-pdf.mkii
INPUT /usr/share/texmf-dist/tex/context/base/mkii/supp-pdf.mkii
INPUT /usr/share/texmf-dist/tex/latex/epstopdf-pkg/epstopdf-base.sty
INPUT /usr/share/texmf-dist/tex/latex/epstopdf-pkg/epstopdf-base.sty
INPUT /usr/share/texmf-dist/tex/latex/epstopdf-pkg/epstopdf-base.sty
INPUT /usr/share/texmf-dist/tex/latex/epstopdf-pkg/epstopdf-base.sty
INPUT /usr/share/texmf-dist/tex/latex/epstopdf-pkg/epstopdf-base.sty
INPUT /usr/share/texmf-dist/tex/latex/epstopdf-pkg/epstopdf-base.sty
INPUT /usr/share/texmf-dist/tex/latex/epstopdf-pkg/epstopdf-base.sty
INPUT /usr/share/texmf-dist/tex/latex/epstopdf-pkg/epstopdf-base.sty
INPUT /usr/share/texmf-dist/tex/latex/epstopdf-pkg/epstopdf-base.sty
INPUT /usr/share/texmf-dist/tex/latex/epstopdf-pkg/epstopdf-base.sty
INPUT /usr/share/texmf-dist/tex/latex/epstopdf-pkg/epstopdf-base.sty
INPUT /usr/share/texmf-dist/tex/latex/latexconfig/epstopdf-sys.cfg
INPUT /usr/share/texmf-dist/tex/latex/latexconfig/epstopdf-sys.cfg
INPUT /usr/share/texmf-dist/tex/latex/latexconfig/epstopdf-sys.cfg
INPUT /usr/share/texmf-dist/tex/latex/latexconfig/epstopdf-sys.cfg
INPUT /usr/share/texmf-dist/tex/latex/pdflscape/pdflscape.sty
INPUT /usr/share/texmf-dist/tex/latex/pdflscape/pdflscape.sty
INPUT /usr/share/texmf-dist/tex/latex/pdflscape/pdflscape.sty
INPUT /usr/share/texmf-dist/tex/latex/pdflscape/pdflscape.sty
INPUT /usr/share/texmf-dist/tex/latex/pdflscape/pdflscape.sty
INPUT /usr/share/texmf-dist/tex/latex/pdflscape/pdflscape.sty
INPUT /usr/share/texmf-dist/tex/latex/pdflscape/pdflscape.sty
INPUT /usr/share/texmf-dist/tex/latex/pdflscape/pdflscape.sty
INPUT /usr/share/texmf-dist/tex/latex/pdflscape/pdflscape.sty
INPUT /usr/share/texmf-dist/tex/latex/pdflscape/pdflscape.sty
INPUT /usr/share/texmf-dist/tex/latex/pdflscape/pdflscape.sty
INPUT /usr/share/texmf-dist/tex/latex/pdflscape/pdflscape-nometadata.sty
INPUT /usr/share/texmf-dist/tex/latex/pdflscape/pdflscape-nometadata.sty
INPUT /usr/share/texmf-dist/tex/latex/pdflscape/pdflscape-nometadata.sty
INPUT /usr/share/texmf-dist/tex/latex/pdflscape/pdflscape-nometadata.sty
INPUT /usr/share/texmf-dist/tex/latex/pdflscape/pdflscape-nometadata.sty
INPUT /usr/share/texmf-dist/tex/latex/pdflscape/pdflscape-nometadata.sty
INPUT /usr/share/texmf-dist/tex/latex/pdflscape/pdflscape-nometadata.sty
INPUT /usr/share/texmf-dist/tex/latex/pdflscape/pdflscape-nometadata.sty
INPUT /usr/share/texmf-dist/tex/latex/pdflscape/pdflscape-nometadata.sty
INPUT /usr/share/texmf-dist/tex/latex/pdflscape/pdflscape-nometadata.sty
INPUT /usr/share/texmf-dist/tex/latex/pdflscape/pdflscape-nometadata.sty
INPUT /usr/share/texmf-dist/tex/generic/iftex/iftex.sty
INPUT /usr/share/texmf-dist/tex/latex/graphics/lscape.sty
INPUT /usr/share/texmf-dist/tex/latex/graphics/lscape.sty
INPUT /usr/share/texmf-dist/tex/latex/graphics/lscape.sty
INPUT /usr/share/texmf-dist/tex/latex/graphics/lscape.sty
INPUT /usr/share/texmf-dist/tex/latex/graphics/lscape.sty
INPUT /usr/share/texmf-dist/tex/latex/graphics/lscape.sty
INPUT /usr/share/texmf-dist/tex/latex/graphics/lscape.sty
INPUT /usr/share/texmf-dist/tex/latex/graphics/lscape.sty
INPUT /usr/share/texmf-dist/tex/latex/graphics/lscape.sty
INPUT /usr/share/texmf-dist/tex/latex/graphics/lscape.sty
INPUT /usr/share/texmf-dist/tex/latex/graphics/lscape.sty
INPUT /usr/share/texmf-dist/tex/latex/graphics/graphics.sty
INPUT /usr/share/texmf-dist/tex/latex/graphics/color.sty
INPUT ./informe.out
INPUT informe.out
INPUT ./informe.out
INPUT informe.out
INPUT ./informe.out
INPUT informe.out
INPUT ./informe.out
INPUT informe.out
OUTPUT informe.pdf
INPUT ./informe.out
INPUT ./informe.out
OUTPUT informe.out
INPUT /usr/share/texmf-dist/tex/latex/biblatex-apa/spanish-apa.lbx
INPUT /usr/share/texmf-dist/tex/latex/biblatex-apa/spanish-apa.lbx
INPUT /usr/share/texmf-dist/tex/latex/biblatex-apa/spanish-apa.lbx
INPUT /usr/share/texmf-dist/tex/latex/biblatex-apa/spanish-apa.lbx
INPUT /usr/share/texmf-dist/tex/latex/biblatex-apa/spanish-apa.lbx
INPUT /usr/share/texmf-dist/tex/latex/biblatex/lbx/spanish.lbx
INPUT /usr/share/texmf-dist/tex/latex/biblatex/lbx/spanish.lbx
INPUT /usr/share/texmf-dist/tex/latex/biblatex/lbx/spanish.lbx
INPUT /usr/share/texmf-dist/tex/latex/biblatex/lbx/spanish.lbx
INPUT /usr/share/texmf-dist/tex/latex/biblatex/lbx/spanish.lbx
INPUT /usr/share/texmf-dist/tex/latex/biblatex/lbx/spanish.lbx
INPUT /usr/share/texmf-dist/tex/latex/biblatex-apa/spanish-apa.lbx
INPUT /usr/share/texmf-dist/tex/latex/biblatex-apa/spanish-apa.lbx
OUTPUT informe.bcf
INPUT informe.bbl
INPUT ./informe.bbl
INPUT informe.bbl
INPUT ./informe.bbl
INPUT ./informe.bbl
INPUT informe.bbl
INPUT /usr/share/texmf-dist/tex/latex/psnfss/ot1phv.fd
INPUT /usr/share/texmf-dist/tex/latex/psnfss/ot1phv.fd
INPUT /usr/share/texmf-dist/tex/latex/psnfss/ot1phv.fd
INPUT /usr/share/texmf-dist/tex/latex/psnfss/ot1phv.fd
INPUT /usr/share/texmf-dist/fonts/tfm/adobe/helvetic/phvr7t.tfm
INPUT ./img/Logo_uct_inf.pdf
INPUT ./img/Logo_uct_inf.pdf
INPUT img/Logo_uct_inf.pdf
INPUT ./img/Logo_uct_inf.pdf
INPUT ./img/Logo_uct_inf.pdf
INPUT /usr/share/texmf-dist/fonts/tfm/adobe/helvetic/phvr7t.tfm
INPUT /usr/share/texmf-dist/fonts/tfm/adobe/helvetic/phvr7t.tfm
INPUT /usr/share/texmf-dist/fonts/vf/adobe/helvetic/phvr7t.vf
INPUT /usr/share/texmf-dist/fonts/tfm/adobe/helvetic/phvr8r.tfm
INPUT /var/lib/texmf/fonts/map/pdftex/updmap/pdftex.map
INPUT /usr/share/texmf-dist/fonts/enc/dvips/base/8r.enc
INPUT /usr/share/texmf-dist/fonts/vf/adobe/helvetic/phvr7t.vf
INPUT /usr/share/texmf-dist/fonts/tfm/adobe/helvetic/phvr8r.tfm
INPUT /usr/share/texmf-dist/fonts/tfm/adobe/helvetic/phvr7t.tfm
INPUT /usr/share/texmf-dist/fonts/tfm/adobe/helvetic/phvb7t.tfm
INPUT /usr/share/texmf-dist/fonts/vf/adobe/helvetic/phvb7t.vf
INPUT /usr/share/texmf-dist/fonts/tfm/adobe/helvetic/phvb8r.tfm
INPUT /usr/share/texmf-dist/fonts/vf/adobe/helvetic/phvr7t.vf
INPUT /usr/share/texmf-dist/fonts/tfm/adobe/helvetic/phvr8r.tfm
INPUT /usr/share/texmf-dist/fonts/tfm/adobe/helvetic/phvb7t.tfm
INPUT /usr/share/texmf-dist/fonts/vf/adobe/helvetic/phvb7t.vf
INPUT /usr/share/texmf-dist/fonts/tfm/adobe/helvetic/phvb8r.tfm
INPUT /usr/share/texmf-dist/fonts/tfm/adobe/helvetic/phvb7t.tfm
INPUT /usr/share/texmf-dist/fonts/tfm/adobe/helvetic/phvr7t.tfm
INPUT /usr/share/texmf-dist/fonts/tfm/adobe/helvetic/phvr7t.tfm
INPUT /usr/share/texmf-dist/fonts/tfm/public/cm/cmmi12.tfm
INPUT /usr/share/texmf-dist/fonts/tfm/public/cm/cmmi8.tfm
INPUT /usr/share/texmf-dist/fonts/tfm/public/cm/cmmi6.tfm
INPUT /usr/share/texmf-dist/fonts/tfm/public/cm/cmsy10.tfm
INPUT /usr/share/texmf-dist/fonts/tfm/public/cm/cmsy8.tfm
INPUT /usr/share/texmf-dist/fonts/tfm/public/cm/cmsy6.tfm
INPUT /usr/share/texmf-dist/fonts/tfm/adobe/helvetic/phvro7t.tfm
INPUT /usr/share/texmf-dist/fonts/tfm/adobe/helvetic/phvro7t.tfm
INPUT /usr/share/texmf-dist/fonts/tfm/adobe/helvetic/phvro7t.tfm
INPUT /usr/share/texmf-dist/fonts/tfm/public/cm/cmss12.tfm
INPUT /usr/share/texmf-dist/fonts/tfm/public/cm/cmss8.tfm
INPUT /usr/share/texmf-dist/fonts/tfm/public/cm/cmss8.tfm
INPUT /usr/share/texmf-dist/fonts/vf/adobe/helvetic/phvb7t.vf
INPUT /usr/share/texmf-dist/fonts/tfm/adobe/helvetic/phvb8r.tfm
INPUT /usr/share/texmf-dist/fonts/vf/adobe/helvetic/phvr7t.vf
INPUT /usr/share/texmf-dist/fonts/tfm/adobe/helvetic/phvr8r.tfm
INPUT ./img/cliente.png
INPUT ./img/cliente.png
INPUT img/cliente.png
INPUT ./img/cliente.png
INPUT ./img/cliente.png
INPUT ./img/server.png
INPUT ./img/server.png
INPUT img/server.png
INPUT ./img/server.png
INPUT ./img/server.png
INPUT ./img/archivoaenviar.png
INPUT ./img/archivoaenviar.png
INPUT img/archivoaenviar.png
INPUT ./img/archivoaenviar.png
INPUT ./img/archivoaenviar.png
INPUT ./img/server-ll.png
INPUT ./img/server-ll.png
INPUT img/server-ll.png
INPUT ./img/server-ll.png
INPUT ./img/server-ll.png
INPUT ./img/server-listen.png
INPUT ./img/server-listen.png
INPUT img/server-listen.png
INPUT ./img/server-listen.png
INPUT ./img/server-listen.png
INPUT ./img/cliente-send.png
INPUT ./img/cliente-send.png
INPUT img/cliente-send.png
INPUT ./img/cliente-send.png
INPUT ./img/cliente-send.png
INPUT ./img/server-result.png
INPUT ./img/server-result.png
INPUT img/server-result.png
INPUT ./img/server-result.png
INPUT ./img/server-result.png
INPUT /usr/share/texmf-dist/fonts/vf/adobe/helvetic/phvro7t.vf
INPUT /usr/share/texmf-dist/fonts/tfm/adobe/helvetic/phvro8r.tfm
INPUT /usr/share/texmf-dist/fonts/vf/adobe/helvetic/phvr7t.vf
INPUT /usr/share/texmf-dist/fonts/tfm/adobe/helvetic/phvr8r.tfm
INPUT informe.aux
INPUT ./informe.out
INPUT ./informe.out
INPUT informe.run.xml
OUTPUT informe.run.xml
INPUT /usr/share/texmf-dist/fonts/type1/public/amsfonts/cm/cmr12.pfb
INPUT /usr/share/texmf-dist/fonts/type1/public/amsfonts/cm/cmsy10.pfb
INPUT /usr/share/texmf-dist/fonts/type1/urw/helvetic/uhvb8a.pfb
INPUT /usr/share/texmf-dist/fonts/type1/urw/helvetic/uhvr8a.pfb
INPUT /usr/share/texmf-dist/fonts/type1/urw/helvetic/uhvro8a.pfb
