\relax 
\providecommand\hyper@newdestlabel[2]{}
\providecommand\HyperFirstAtBeginDocument{\AtBeginDocument}
\HyperFirstAtBeginDocument{\ifx\hyper@anchor\@undefined
\global\let\oldnewlabel\newlabel
\gdef\newlabel#1#2{\newlabelxx{#1}#2}
\gdef\newlabelxx#1#2#3#4#5#6{\oldnewlabel{#1}{{#2}{#3}}}
\AtEndDocument{\ifx\hyper@anchor\@undefined
\let\newlabel\oldnewlabel
\fi}
\fi}
\global\let\hyper@last\relax 
\gdef\HyperFirstAtBeginDocument#1{#1}
\providecommand\HyField@AuxAddToFields[1]{}
\providecommand\HyField@AuxAddToCoFields[2]{}
\providecommand\babel@aux[2]{}
\@nameuse{bbl@beforestart}
\catcode `"\active 
\catcode `<\active 
\catcode `>\active 
\@nameuse{es@quoting}
\abx@aux@refcontext{ynt/global//global/global}
\babel@aux{spanish}{}
\@writefile{toc}{\contentsline {section}{\numberline {1}Resumen}{1}{section.1}\protected@file@percent }
\@writefile{toc}{\contentsline {section}{\numberline {2}Introdución}{1}{section.2}\protected@file@percent }
\abx@aux@refcontext{ynt/apasortcite//global/global}
\abx@aux@cite{0}{dhall2012implementation}
\abx@aux@segm{0}{0}{dhall2012implementation}
\abx@aux@refcontext{ynt/apasortcite//global/global}
\abx@aux@cite{0}{thayer1998ip}
\abx@aux@segm{0}{0}{thayer1998ip}
\abx@aux@refcontext{ynt/apasortcite//global/global}
\abx@aux@cite{0}{kent2005rfc}
\abx@aux@segm{0}{0}{kent2005rfc}
\abx@aux@refcontext{ynt/apasortcite//global/global}
\abx@aux@cite{0}{kent2005ip}
\abx@aux@segm{0}{0}{kent2005ip}
\abx@aux@refcontext{ynt/apasortcite//global/global}
\abx@aux@cite{0}{harkins1998internet}
\abx@aux@segm{0}{0}{harkins1998internet}
\@writefile{toc}{\contentsline {section}{\numberline {3}Marco teórico}{2}{section.3}\protected@file@percent }
\@writefile{toc}{\contentsline {subsection}{\numberline {3.1}Protocolo IPSec}{2}{subsection.3.1}\protected@file@percent }
\abx@aux@page{1}{2}
\abx@aux@page{2}{2}
\abx@aux@page{3}{2}
\abx@aux@page{4}{2}
\abx@aux@page{5}{2}
\abx@aux@refcontext{ynt/apasortcite//global/global}
\abx@aux@cite{0}{garfinkel2003practical}
\abx@aux@segm{0}{0}{garfinkel2003practical}
\abx@aux@refcontext{ynt/apasortcite//global/global}
\abx@aux@cite{0}{forouzan2007data}
\abx@aux@segm{0}{0}{forouzan2007data}
\@writefile{toc}{\contentsline {subsection}{\numberline {3.2}Protocolo IPX}{3}{subsection.3.2}\protected@file@percent }
\abx@aux@page{6}{3}
\abx@aux@refcontext{ynt/apasortcite//global/global}
\abx@aux@cite{0}{forouzan2007data}
\abx@aux@segm{0}{0}{forouzan2007data}
\abx@aux@refcontext{ynt/apasortcite//global/global}
\abx@aux@cite{0}{tanenbaum2003redes}
\abx@aux@segm{0}{0}{tanenbaum2003redes}
\abx@aux@refcontext{ynt/apasortcite//global/global}
\abx@aux@cite{0}{ipv4}
\abx@aux@segm{0}{0}{ipv4}
\@writefile{toc}{\contentsline {subsection}{\numberline {3.3}Protocolo ICMP}{4}{subsection.3.3}\protected@file@percent }
\abx@aux@page{7}{4}
\@writefile{toc}{\contentsline {subsubsection}{\numberline {3.3.1}Detalles técnicos}{4}{subsubsection.3.3.1}\protected@file@percent }
\abx@aux@page{8}{4}
\abx@aux@page{9}{4}
\@writefile{toc}{\contentsline {subsection}{\numberline {3.4}Protocolo IPv4}{5}{subsection.3.4}\protected@file@percent }
\abx@aux@page{10}{5}
\@writefile{toc}{\contentsline {subsubsection}{\numberline {3.4.1}Representación de las direcciones}{5}{subsubsection.3.4.1}\protected@file@percent }
\abx@aux@refcontext{ynt/apasortcite//global/global}
\abx@aux@cite{0}{clasesip}
\abx@aux@segm{0}{0}{clasesip}
\abx@aux@refcontext{ynt/apasortcite//global/global}
\abx@aux@cite{0}{gonzalez2007sistemas}
\abx@aux@segm{0}{0}{gonzalez2007sistemas}
\abx@aux@refcontext{ynt/apasortcite//global/global}
\abx@aux@cite{0}{class1996understanding}
\abx@aux@segm{0}{0}{class1996understanding}
\abx@aux@refcontext{ynt/apasortcite//global/global}
\abx@aux@cite{0}{deering2017internet}
\abx@aux@segm{0}{0}{deering2017internet}
\@writefile{toc}{\contentsline {subsubsection}{\numberline {3.4.2}Asignación}{6}{subsubsection.3.4.2}\protected@file@percent }
\abx@aux@page{11}{6}
\abx@aux@page{12}{6}
\abx@aux@page{13}{6}
\@writefile{toc}{\contentsline {subsection}{\numberline {3.5}Protocolo IPv6}{6}{subsection.3.5}\protected@file@percent }
\abx@aux@page{14}{7}
\@writefile{toc}{\contentsline {subsubsection}{\numberline {3.5.1}Principales características}{7}{subsubsection.3.5.1}\protected@file@percent }
\abx@aux@refcontext{ynt/apasortcite//global/global}
\abx@aux@cite{0}{rosen2014linux}
\abx@aux@segm{0}{0}{rosen2014linux}
\abx@aux@refcontext{ynt/apasortcite//global/global}
\abx@aux@cite{0}{graziani2013ipv6}
\abx@aux@segm{0}{0}{graziani2013ipv6}
\abx@aux@refcontext{ynt/apasortcite//global/global}
\abx@aux@cite{0}{kawamura2010recommendation}
\abx@aux@segm{0}{0}{kawamura2010recommendation}
\abx@aux@page{15}{8}
\@writefile{toc}{\contentsline {subsubsection}{\numberline {3.5.2}Representación de las direcciones}{8}{subsubsection.3.5.2}\protected@file@percent }
\abx@aux@page{16}{8}
\abx@aux@page{17}{8}
\abx@aux@refcontext{ynt/apasortcite//global/global}
\abx@aux@cite{0}{gont2014rfc}
\abx@aux@segm{0}{0}{gont2014rfc}
\abx@aux@refcontext{ynt/apasortcite//global/global}
\abx@aux@cite{0}{narten1999neighbor}
\abx@aux@segm{0}{0}{narten1999neighbor}
\@writefile{toc}{\contentsline {subsubsection}{\numberline {3.5.3}Dirección de link-local}{9}{subsubsection.3.5.3}\protected@file@percent }
\abx@aux@page{18}{9}
\@writefile{toc}{\contentsline {subsubsection}{\numberline {3.5.4}Direccionamiento global}{9}{subsubsection.3.5.4}\protected@file@percent }
\abx@aux@page{19}{9}
\abx@aux@refcontext{ynt/apasortcite//global/global}
\abx@aux@cite{0}{ipxspx}
\abx@aux@segm{0}{0}{ipxspx}
\@writefile{toc}{\contentsline {subsection}{\numberline {3.6}Protocolo IPX/SPX}{10}{subsection.3.6}\protected@file@percent }
\abx@aux@page{20}{10}
\@writefile{toc}{\contentsline {subsection}{\numberline {3.7}Protocolo TCP}{11}{subsection.3.7}\protected@file@percent }
\@writefile{toc}{\contentsline {subsubsection}{\numberline {3.7.1}Funcionamiento del protocolo}{11}{subsubsection.3.7.1}\protected@file@percent }
\abx@aux@refcontext{ynt/apasortcite//global/global}
\abx@aux@cite{0}{kurose2017computer}
\abx@aux@segm{0}{0}{kurose2017computer}
\@writefile{toc}{\contentsline {subsubsection}{\numberline {3.7.2}Establecimiento de la conexión}{12}{subsubsection.3.7.2}\protected@file@percent }
\@writefile{toc}{\contentsline {subsubsection}{\numberline {3.7.3}Terminación de la conexión}{12}{subsubsection.3.7.3}\protected@file@percent }
\abx@aux@refcontext{ynt/apasortcite//global/global}
\abx@aux@cite{0}{tanenbaum2003redes}
\abx@aux@segm{0}{0}{tanenbaum2003redes}
\abx@aux@refcontext{ynt/apasortcite//global/global}
\abx@aux@cite{0}{comer2006tcpip}
\abx@aux@segm{0}{0}{comer2006tcpip}
\abx@aux@page{21}{13}
\abx@aux@page{22}{13}
\@writefile{toc}{\contentsline {subsubsection}{\numberline {3.7.4}Transferencia de datos}{13}{subsubsection.3.7.4}\protected@file@percent }
\abx@aux@page{23}{13}
\@writefile{toc}{\contentsline {subsection}{\numberline {3.8}Protocolo NetBIOS}{13}{subsection.3.8}\protected@file@percent }
\@writefile{toc}{\contentsline {subsubsection}{\numberline {3.8.1}Servicios}{14}{subsubsection.3.8.1}\protected@file@percent }
\@writefile{toc}{\contentsline {section}{\numberline {4}Desarrollo}{15}{section.4}\protected@file@percent }
\@writefile{toc}{\contentsline {subsection}{\numberline {4.1}¿Qué tiene TCP/IP frente a otros protocolos que consolida la internet como red global?}{15}{subsection.4.1}\protected@file@percent }
\@writefile{toc}{\contentsline {subsection}{\numberline {4.2}¿Cuál es el propósito de la máscara de subred?}{15}{subsection.4.2}\protected@file@percent }
\@writefile{toc}{\contentsline {subsection}{\numberline {4.3}¿Cómo se realiza el proceso de segmentación de redes?}{15}{subsection.4.3}\protected@file@percent }
\@writefile{toc}{\contentsline {subsection}{\numberline {4.4}¿Cuáles son la mejoras estructurales del protocolo IPv6?}{16}{subsection.4.4}\protected@file@percent }
\@writefile{toc}{\contentsline {subsection}{\numberline {4.5}¿Por qué no puede existir control del tráfico que pasa por Internet?}{16}{subsection.4.5}\protected@file@percent }
\@writefile{toc}{\contentsline {subsection}{\numberline {4.6}Comunicación por socket TCP/IP}{17}{subsection.4.6}\protected@file@percent }
\@writefile{toc}{\contentsline {subsubsection}{\numberline {4.6.1}Cliente}{17}{subsubsection.4.6.1}\protected@file@percent }
\@writefile{toc}{\contentsline {subsubsection}{\numberline {4.6.2}Servidor}{17}{subsubsection.4.6.2}\protected@file@percent }
\@writefile{toc}{\contentsline {subsubsection}{\numberline {4.6.3}Archivo a enviar}{17}{subsubsection.4.6.3}\protected@file@percent }
\@writefile{toc}{\contentsline {section}{\numberline {5}Concluciones}{19}{section.5}\protected@file@percent }
\abx@aux@page{24}{20}
\abx@aux@page{25}{20}
\abx@aux@page{26}{20}
\abx@aux@page{27}{20}
\abx@aux@page{28}{20}
\abx@aux@page{29}{20}
\abx@aux@page{30}{20}
\abx@aux@page{31}{20}
\abx@aux@page{32}{20}
\abx@aux@page{33}{20}
\abx@aux@page{34}{20}
\abx@aux@page{35}{20}
\abx@aux@page{36}{20}
\abx@aux@page{37}{20}
\abx@aux@page{38}{20}
\abx@aux@page{39}{20}
\abx@aux@page{40}{20}
\abx@aux@page{41}{21}
\abx@aux@page{42}{21}
\abx@aux@page{43}{21}
\abx@aux@page{44}{21}
\abx@aux@read@bbl@mdfivesum{D7F6329094FCCE53549E02D496A23CE8}
\abx@aux@defaultrefcontext{0}{class1996understanding}{ynt/global//global/global}
\abx@aux@defaultrefcontext{0}{harkins1998internet}{ynt/global//global/global}
\abx@aux@defaultrefcontext{0}{thayer1998ip}{ynt/global//global/global}
\abx@aux@defaultrefcontext{0}{narten1999neighbor}{ynt/global//global/global}
\abx@aux@defaultrefcontext{0}{garfinkel2003practical}{ynt/global//global/global}
\abx@aux@defaultrefcontext{0}{tanenbaum2003redes}{ynt/global//global/global}
\abx@aux@defaultrefcontext{0}{kent2005ip}{ynt/global//global/global}
\abx@aux@defaultrefcontext{0}{kent2005rfc}{ynt/global//global/global}
\abx@aux@defaultrefcontext{0}{comer2006tcpip}{ynt/global//global/global}
\abx@aux@defaultrefcontext{0}{forouzan2007data}{ynt/global//global/global}
\abx@aux@defaultrefcontext{0}{gonzalez2007sistemas}{ynt/global//global/global}
\abx@aux@defaultrefcontext{0}{ipv4}{ynt/global//global/global}
\abx@aux@defaultrefcontext{0}{kawamura2010recommendation}{ynt/global//global/global}
\abx@aux@defaultrefcontext{0}{dhall2012implementation}{ynt/global//global/global}
\abx@aux@defaultrefcontext{0}{graziani2013ipv6}{ynt/global//global/global}
\abx@aux@defaultrefcontext{0}{ipxspx}{ynt/global//global/global}
\abx@aux@defaultrefcontext{0}{gont2014rfc}{ynt/global//global/global}
\abx@aux@defaultrefcontext{0}{rosen2014linux}{ynt/global//global/global}
\abx@aux@defaultrefcontext{0}{clasesip}{ynt/global//global/global}
\abx@aux@defaultrefcontext{0}{deering2017internet}{ynt/global//global/global}
\abx@aux@defaultrefcontext{0}{kurose2017computer}{ynt/global//global/global}
\gdef \@abspage@last{22}
