\relax 
\providecommand\hyper@newdestlabel[2]{}
\providecommand\HyperFirstAtBeginDocument{\AtBeginDocument}
\HyperFirstAtBeginDocument{\ifx\hyper@anchor\@undefined
\global\let\oldcontentsline\contentsline
\gdef\contentsline#1#2#3#4{\oldcontentsline{#1}{#2}{#3}}
\global\let\oldnewlabel\newlabel
\gdef\newlabel#1#2{\newlabelxx{#1}#2}
\gdef\newlabelxx#1#2#3#4#5#6{\oldnewlabel{#1}{{#2}{#3}}}
\AtEndDocument{\ifx\hyper@anchor\@undefined
\let\contentsline\oldcontentsline
\let\newlabel\oldnewlabel
\fi}
\fi}
\global\let\hyper@last\relax 
\gdef\HyperFirstAtBeginDocument#1{#1}
\providecommand\HyField@AuxAddToFields[1]{}
\providecommand\HyField@AuxAddToCoFields[2]{}
\providecommand \oddpage@label [2]{}
\newlabel{documentaciuxf3n-del-proyecto-de-desarrollo-web}{{}{1}{Documentación del proyecto de desarrollo web}{section*.1}{}}
\newlabel{archivo-config.php}{{}{1}{Archivo config.php}{section*.2}{}}
\newlabel{archivo-select.php}{{}{1}{Archivo select.php}{section*.3}{}}
\newlabel{archivo-insert.php}{{}{2}{Archivo insert.php}{section*.4}{}}
\newlabel{archivo-index.js}{{}{4}{Archivo index.js}{section*.5}{}}
\newlabel{archivo-functions.js}{{}{6}{Archivo functions.js}{section*.6}{}}
\gdef \@abspage@last{9}
