\relax 
\providecommand\hyper@newdestlabel[2]{}
\providecommand\HyperFirstAtBeginDocument{\AtBeginDocument}
\HyperFirstAtBeginDocument{\ifx\hyper@anchor\@undefined
\global\let\oldcontentsline\contentsline
\gdef\contentsline#1#2#3#4{\oldcontentsline{#1}{#2}{#3}}
\global\let\oldnewlabel\newlabel
\gdef\newlabel#1#2{\newlabelxx{#1}#2}
\gdef\newlabelxx#1#2#3#4#5#6{\oldnewlabel{#1}{{#2}{#3}}}
\AtEndDocument{\ifx\hyper@anchor\@undefined
\let\contentsline\oldcontentsline
\let\newlabel\oldnewlabel
\fi}
\fi}
\global\let\hyper@last\relax 
\gdef\HyperFirstAtBeginDocument#1{#1}
\providecommand\HyField@AuxAddToFields[1]{}
\providecommand\HyField@AuxAddToCoFields[2]{}
\providecommand \oddpage@label [2]{}
\newlabel{libreruxedas}{{}{1}{Librerías}{section*.1}{}}
\newlabel{funciones}{{}{1}{Funciones}{section*.2}{}}
\newlabel{inicializar-la-ventana}{{}{1}{Inicializar la ventana}{section*.3}{}}
\newlabel{inicializar-la-serpiente}{{}{1}{Inicializar la serpiente}{section*.4}{}}
\newlabel{inicializar-la-primera-comida}{{}{2}{Inicializar la primera comida}{section*.5}{}}
\newlabel{mover-la-serpiente}{{}{2}{Mover la serpiente}{section*.6}{}}
\newlabel{generar-la-manzana-en-una-posiciuxf3n-aleatoria}{{}{2}{Generar la manzana en una posición aleatoria}{section*.7}{}}
\newlabel{cuando-la-serpiente-come}{{}{2}{Cuando la serpiente come}{section*.8}{}}
\newlabel{funciuxf3n-main}{{}{3}{Función main}{section*.9}{}}
\newlabel{bucle-principal}{{}{3}{Bucle principal}{section*.10}{}}
\gdef \@abspage@last{4}
