\beamer@sectionintoc {1}{Contenidos}{2}{0}{1}
\beamer@sectionintoc {2}{Aplicaciones}{6}{0}{2}
\beamer@subsectionintoc {2}{1}{Asignaci\'{o}n de Recursos}{6}{0}{2}
\beamer@sectionintoc {3}{An\'{a}lisis de Redes}{30}{0}{3}
\beamer@subsectionintoc {3}{1}{An\'{a}lisis de Redes}{30}{0}{3}
