\relax 
\providecommand\hyper@newdestlabel[2]{}
\providecommand\HyperFirstAtBeginDocument{\AtBeginDocument}
\HyperFirstAtBeginDocument{\ifx\hyper@anchor\@undefined
\global\let\oldcontentsline\contentsline
\gdef\contentsline#1#2#3#4{\oldcontentsline{#1}{#2}{#3}}
\global\let\oldnewlabel\newlabel
\gdef\newlabel#1#2{\newlabelxx{#1}#2}
\gdef\newlabelxx#1#2#3#4#5#6{\oldnewlabel{#1}{{#2}{#3}}}
\AtEndDocument{\ifx\hyper@anchor\@undefined
\let\contentsline\oldcontentsline
\let\newlabel\oldnewlabel
\fi}
\fi}
\global\let\hyper@last\relax 
\gdef\HyperFirstAtBeginDocument#1{#1}
\providecommand\HyField@AuxAddToFields[1]{}
\providecommand\HyField@AuxAddToCoFields[2]{}
\@writefile{nav}{\headcommand {\slideentry {0}{0}{1}{1/1}{}{0}}}
\@writefile{nav}{\headcommand {\beamer@framepages {1}{1}}}
\@writefile{toc}{\beamer@sectionintoc {1}{Contenidos}{2}{0}{1}}
\@writefile{nav}{\headcommand {\beamer@sectionpages {1}{1}}}
\@writefile{nav}{\headcommand {\beamer@subsectionpages {1}{1}}}
\@writefile{nav}{\headcommand {\sectionentry {1}{Contenidos}{2}{Contenidos}{0}}}
\@writefile{nav}{\headcommand {\slideentry {1}{0}{1}{2/5}{}{0}}}
\@writefile{nav}{\headcommand {\beamer@framepages {2}{5}}}
\@writefile{toc}{\beamer@sectionintoc {2}{Aplicaciones}{6}{0}{2}}
\@writefile{nav}{\headcommand {\beamer@sectionpages {2}{5}}}
\@writefile{nav}{\headcommand {\beamer@subsectionpages {2}{5}}}
\@writefile{nav}{\headcommand {\sectionentry {2}{Aplicaciones}{6}{Aplicaciones}{0}}}
\@writefile{toc}{\beamer@subsectionintoc {2}{1}{Asignaci\'{o}n de Recursos}{6}{0}{2}}
\@writefile{nav}{\headcommand {\beamer@subsectionpages {6}{5}}}
\@writefile{nav}{\headcommand {\beamer@subsectionentry {0}{2}{1}{6}{Asignaci\'{o}n de Recursos}}}
\@writefile{nav}{\headcommand {\slideentry {2}{1}{1}{6/7}{Asignaci\'{o}n de Recursos}{0}}}
\@writefile{nav}{\headcommand {\beamer@framepages {6}{7}}}
\@writefile{nav}{\headcommand {\slideentry {2}{1}{2}{8/9}{Asignaci\'{o}n de Recursos}{0}}}
\@writefile{nav}{\headcommand {\beamer@framepages {8}{9}}}
\@writefile{nav}{\headcommand {\slideentry {2}{1}{3}{10/14}{Asignaci\'{o}n de Recursos}{0}}}
\@writefile{nav}{\headcommand {\beamer@framepages {10}{14}}}
\@writefile{nav}{\headcommand {\slideentry {2}{1}{4}{15/17}{Asignaci\'{o}n de Recursos}{0}}}
\@writefile{nav}{\headcommand {\beamer@framepages {15}{17}}}
\@writefile{nav}{\headcommand {\slideentry {2}{1}{5}{18/19}{Asignaci\'{o}n de Recursos}{0}}}
\@writefile{nav}{\headcommand {\beamer@framepages {18}{19}}}
\@writefile{nav}{\headcommand {\slideentry {2}{1}{6}{20/23}{Asignaci\'{o}n de Recursos}{0}}}
\@writefile{nav}{\headcommand {\beamer@framepages {20}{23}}}
\@writefile{nav}{\headcommand {\slideentry {2}{1}{7}{24/27}{Asignaci\'{o}n de Recursos}{0}}}
\@writefile{nav}{\headcommand {\beamer@framepages {24}{27}}}
\@writefile{nav}{\headcommand {\slideentry {2}{1}{8}{28/29}{Asignaci\'{o}n de Recursos}{0}}}
\@writefile{nav}{\headcommand {\beamer@framepages {28}{29}}}
\@writefile{toc}{\beamer@sectionintoc {3}{An\'{a}lisis de Redes}{30}{0}{3}}
\@writefile{nav}{\headcommand {\beamer@sectionpages {6}{29}}}
\@writefile{nav}{\headcommand {\beamer@subsectionpages {6}{29}}}
\@writefile{nav}{\headcommand {\sectionentry {3}{An\'{a}lisis de Redes}{30}{An\'{a}lisis de Redes}{0}}}
\@writefile{toc}{\beamer@subsectionintoc {3}{1}{An\'{a}lisis de Redes}{30}{0}{3}}
\@writefile{nav}{\headcommand {\beamer@subsectionpages {30}{29}}}
\@writefile{nav}{\headcommand {\beamer@subsectionentry {0}{3}{1}{30}{An\'{a}lisis de Redes}}}
\@writefile{nav}{\headcommand {\slideentry {3}{1}{1}{30/31}{An\'{a}lisis de Redes}{0}}}
\@writefile{nav}{\headcommand {\beamer@framepages {30}{31}}}
\@writefile{nav}{\headcommand {\slideentry {3}{1}{2}{32/33}{An\'{a}lisis de Redes}{0}}}
\@writefile{nav}{\headcommand {\beamer@framepages {32}{33}}}
\@writefile{nav}{\headcommand {\slideentry {3}{1}{3}{34/35}{An\'{a}lisis de Redes}{0}}}
\@writefile{nav}{\headcommand {\beamer@framepages {34}{35}}}
\@writefile{nav}{\headcommand {\slideentry {3}{1}{4}{36/38}{An\'{a}lisis de Redes}{0}}}
\@writefile{nav}{\headcommand {\beamer@framepages {36}{38}}}
\@writefile{nav}{\headcommand {\slideentry {3}{1}{5}{39/42}{An\'{a}lisis de Redes}{0}}}
\@writefile{nav}{\headcommand {\beamer@framepages {39}{42}}}
\@writefile{nav}{\headcommand {\slideentry {3}{1}{6}{43/46}{An\'{a}lisis de Redes}{0}}}
\@writefile{nav}{\headcommand {\beamer@framepages {43}{46}}}
\@writefile{nav}{\headcommand {\slideentry {3}{1}{7}{47/48}{An\'{a}lisis de Redes}{0}}}
\@writefile{nav}{\headcommand {\beamer@framepages {47}{48}}}
\@writefile{nav}{\headcommand {\beamer@partpages {1}{48}}}
\@writefile{nav}{\headcommand {\beamer@subsectionpages {30}{48}}}
\@writefile{nav}{\headcommand {\beamer@sectionpages {30}{48}}}
\@writefile{nav}{\headcommand {\beamer@documentpages {48}}}
\@writefile{nav}{\headcommand {\gdef \inserttotalframenumber {17}}}
\gdef \@abspage@last{48}
