\relax 
\providecommand\hyper@newdestlabel[2]{}
\providecommand\HyperFirstAtBeginDocument{\AtBeginDocument}
\HyperFirstAtBeginDocument{\ifx\hyper@anchor\@undefined
\global\let\oldcontentsline\contentsline
\gdef\contentsline#1#2#3#4{\oldcontentsline{#1}{#2}{#3}}
\global\let\oldnewlabel\newlabel
\gdef\newlabel#1#2{\newlabelxx{#1}#2}
\gdef\newlabelxx#1#2#3#4#5#6{\oldnewlabel{#1}{{#2}{#3}}}
\AtEndDocument{\ifx\hyper@anchor\@undefined
\let\contentsline\oldcontentsline
\let\newlabel\oldnewlabel
\fi}
\fi}
\global\let\hyper@last\relax 
\gdef\HyperFirstAtBeginDocument#1{#1}
\providecommand\HyField@AuxAddToFields[1]{}
\providecommand\HyField@AuxAddToCoFields[2]{}
\providecommand\babel@aux[2]{}
\@nameuse{bbl@beforestart}
\catcode `"\active 
\catcode `<\active 
\catcode `>\active 
\@nameuse{es@quoting}
\providecommand \oddpage@label [2]{}
\babel@aux{spanish}{}
\citation{op}
\citation{amd64}
\citation{openbsd}
\@writefile{toc}{\contentsline {section}{\numberline {1}Resumen}{2}{section.1}\protected@file@percent }
\@writefile{toc}{\contentsline {section}{\numberline {2}Introducci\IeC {\'o}n}{2}{section.2}\protected@file@percent }
\citation{unix}
\citation{2tera}
\@writefile{toc}{\contentsline {section}{\numberline {3}Marco te\IeC {\'o}rico}{3}{section.3}\protected@file@percent }
\@writefile{toc}{\contentsline {subsection}{\numberline {3.1}Partici\IeC {\'o}n de disco}{3}{subsection.3.1}\protected@file@percent }
\@writefile{toc}{\contentsline {subsubsection}{\numberline {3.1.1}Esquema de partici\IeC {\'o}n MBR}{3}{subsubsection.3.1.1}\protected@file@percent }
\citation{typepartition}
\citation{fsystem}
\@writefile{toc}{\contentsline {subsubsection}{\numberline {3.1.2}Tipos de particiones}{5}{subsubsection.3.1.2}\protected@file@percent }
\@writefile{toc}{\contentsline {subsubsection}{\numberline {3.1.3}Sistemas de archivos}{5}{subsubsection.3.1.3}\protected@file@percent }
\citation{kernel}
\citation{tanenbaum}
\@writefile{toc}{\contentsline {subsection}{\numberline {3.2}Kernel}{6}{subsection.3.2}\protected@file@percent }
\@writefile{toc}{\contentsline {subsection}{\numberline {3.3}Arranque del sistema}{6}{subsection.3.3}\protected@file@percent }
\citation{fstab}
\citation{guidearch}
\@writefile{toc}{\contentsline {section}{\numberline {4}Configuraci\IeC {\'o}n e instalaci\IeC {\'o}n de los diferentes sistemas operativos}{7}{section.4}\protected@file@percent }
\@writefile{toc}{\contentsline {subsection}{\numberline {4.1}Sistema archlinux}{7}{subsection.4.1}\protected@file@percent }
\@writefile{toc}{\contentsline {subsubsection}{\numberline {4.1.1}Requerimientos m\IeC {\'\i }nimos, recomendados y usados}{7}{subsubsection.4.1.1}\protected@file@percent }
\@writefile{toc}{\contentsline {subsubsection}{\numberline {4.1.2}Descripci\IeC {\'o}n del proceso b\IeC {\'a}sico de la instalaci\IeC {\'o}n}{7}{subsubsection.4.1.2}\protected@file@percent }
\@writefile{toc}{\contentsline {subsubsection}{\numberline {4.1.3}Pre-instalaci\IeC {\'o}n}{8}{subsubsection.4.1.3}\protected@file@percent }
\@writefile{toc}{\contentsline {subsubsection}{\numberline {4.1.4}Instalaci\IeC {\'o}n}{13}{subsubsection.4.1.4}\protected@file@percent }
\@writefile{toc}{\contentsline {subsubsection}{\numberline {4.1.5}Configuraci\IeC {\'o}n}{13}{subsubsection.4.1.5}\protected@file@percent }
\@writefile{toc}{\contentsline {subsubsection}{\numberline {4.1.6}Administraci\IeC {\'o}n de usuarios}{16}{subsubsection.4.1.6}\protected@file@percent }
\@writefile{toc}{\contentsline {subsubsection}{\numberline {4.1.7}Instalaci\IeC {\'o}n de la interfaz gr\IeC {\'a}fica}{18}{subsubsection.4.1.7}\protected@file@percent }
\@writefile{toc}{\contentsline {subsubsection}{\numberline {4.1.8}Administrador de tareas}{20}{subsubsection.4.1.8}\protected@file@percent }
\citation{driver}
\@writefile{toc}{\contentsline {subsubsection}{\numberline {4.1.9}Controlador de dispositivos}{21}{subsubsection.4.1.9}\protected@file@percent }
\@writefile{toc}{\contentsline {subsubsection}{\numberline {4.1.10}Interfaz de comandos}{21}{subsubsection.4.1.10}\protected@file@percent }
\@writefile{toc}{\contentsline {subsubsection}{\numberline {4.1.11}Visor de sucesos}{22}{subsubsection.4.1.11}\protected@file@percent }
\@writefile{toc}{\contentsline {subsubsection}{\numberline {4.1.12}Directorios importantes del sistema}{22}{subsubsection.4.1.12}\protected@file@percent }
\@writefile{toc}{\contentsline {subsection}{\numberline {4.2}Sistema openBSD}{23}{subsection.4.2}\protected@file@percent }
\@writefile{toc}{\contentsline {subsubsection}{\numberline {4.2.1}Requerimientos m\IeC {\'\i }nimos, recomendados y usados}{23}{subsubsection.4.2.1}\protected@file@percent }
\@writefile{toc}{\contentsline {subsubsection}{\numberline {4.2.2}Descripci\IeC {\'o}n del proceso b\IeC {\'a}sico de instalaci\IeC {\'o}n}{23}{subsubsection.4.2.2}\protected@file@percent }
\@writefile{toc}{\contentsline {subsubsection}{\numberline {4.2.3}Pre-instalaci\IeC {\'o}n}{24}{subsubsection.4.2.3}\protected@file@percent }
\citation{setsopen}
\@writefile{toc}{\contentsline {subsubsection}{\numberline {4.2.4}Instalaci\IeC {\'o}n}{25}{subsubsection.4.2.4}\protected@file@percent }
\@writefile{toc}{\contentsline {subsubsection}{\numberline {4.2.5}Creaci\IeC {\'o}n de un usuario con permisos de administrador}{26}{subsubsection.4.2.5}\protected@file@percent }
\@writefile{toc}{\contentsline {subsubsection}{\numberline {4.2.6}Administrador de tareas}{27}{subsubsection.4.2.6}\protected@file@percent }
\@writefile{toc}{\contentsline {subsubsection}{\numberline {4.2.7}Controlador de dispositivos}{27}{subsubsection.4.2.7}\protected@file@percent }
\@writefile{toc}{\contentsline {subsubsection}{\numberline {4.2.8}Interfaz de comandos}{28}{subsubsection.4.2.8}\protected@file@percent }
\@writefile{toc}{\contentsline {subsubsection}{\numberline {4.2.9}Visor de sucesos}{28}{subsubsection.4.2.9}\protected@file@percent }
\@writefile{toc}{\contentsline {subsubsection}{\numberline {4.2.10}Directorios importantes del sistema}{29}{subsubsection.4.2.10}\protected@file@percent }
\citation{posix}
\@writefile{toc}{\contentsline {section}{\numberline {5}Conclusiones}{30}{section.5}\protected@file@percent }
\bibstyle{apalike}
\bibdata{referencias}
\bibcite{amd64}{AMD, 2012}
\bibcite{kernel}{{Bellevue Linux Users Group}, 2006}
\bibcite{fstab}{{Equipo archlinux}, 2022a}
\bibcite{guidearch}{{Equipo archlinux}, 2022b}
\bibcite{openbsd}{{Equipo de openBSD}, 2022}
\bibcite{driver}{Gillis, 2020}
\bibcite{2tera}{Han, 2022}
\bibcite{fsystem}{Juncos, 2008}
\bibcite{unix}{Levi, 2002}
\bibcite{typepartition}{Lissot, 2005}
\bibcite{setsopen}{{openbsdhandbook}, }
\bibcite{op}{Stallings, 2005}
\bibcite{tanenbaum}{Tanenbaum, 2003}
\bibcite{posix}{{Universidad de Indiana}, 2017}
\gdef \@abspage@last{32}
