\relax 
\providecommand\hyper@newdestlabel[2]{}
\providecommand\HyperFirstAtBeginDocument{\AtBeginDocument}
\HyperFirstAtBeginDocument{\ifx\hyper@anchor\@undefined
\global\let\oldcontentsline\contentsline
\gdef\contentsline#1#2#3#4{\oldcontentsline{#1}{#2}{#3}}
\global\let\oldnewlabel\newlabel
\gdef\newlabel#1#2{\newlabelxx{#1}#2}
\gdef\newlabelxx#1#2#3#4#5#6{\oldnewlabel{#1}{{#2}{#3}}}
\AtEndDocument{\ifx\hyper@anchor\@undefined
\let\contentsline\oldcontentsline
\let\newlabel\oldnewlabel
\fi}
\fi}
\global\let\hyper@last\relax 
\gdef\HyperFirstAtBeginDocument#1{#1}
\providecommand\HyField@AuxAddToFields[1]{}
\providecommand\HyField@AuxAddToCoFields[2]{}
\providecommand \oddpage@label [2]{}
\newlabel{tarea-8}{{}{1}{Tarea 8}{section*.1}{}}
\newlabel{problema-1}{{}{1}{Problema 1:}{section*.2}{}}
\newlabel{problema-2}{{}{2}{Problema 2:}{section*.3}{}}
\newlabel{problema-3}{{}{2}{Problema 3:}{section*.4}{}}
\newlabel{problema-4}{{}{3}{Problema 4:}{section*.5}{}}
\newlabel{problema-5}{{}{5}{Problema 5:}{section*.6}{}}
\newlabel{problema-6}{{}{7}{Problema 6:}{section*.7}{}}
\newlabel{problema-7}{{}{8}{Problema 7:}{section*.8}{}}
\newlabel{problema-8}{{}{9}{Problema 8:}{section*.9}{}}
\newlabel{problema-9}{{}{10}{Problema 9:}{section*.10}{}}
\newlabel{problema-10}{{}{11}{Problema 10:}{section*.11}{}}
\gdef \@abspage@last{12}
