\relax 
\providecommand\babel@aux[2]{}
\@nameuse{bbl@beforestart}
\catcode `"\active 
\catcode `<\active 
\catcode `>\active 
\@nameuse{es@quoting}
\babel@aux{spanish}{}
\@writefile{toc}{\contentsline {section}{\numberline {1}Planteamiento del problema}{1}{}\protected@file@percent }
\@writefile{toc}{\contentsline {section}{\numberline {2}Actores dentro del diagrama}{1}{}\protected@file@percent }
\@writefile{toc}{\contentsline {section}{\numberline {3}Casos de uso}{1}{}\protected@file@percent }
\@writefile{toc}{\contentsline {section}{\numberline {4}Extends}{3}{}\protected@file@percent }
\@writefile{toc}{\contentsline {section}{\numberline {5}Includes}{3}{}\protected@file@percent }
\@writefile{toc}{\contentsline {section}{\numberline {6}Diagrama de casos de uso}{4}{}\protected@file@percent }
\gdef \@abspage@last{5}
